<?xml version="1.0" standalone="no"?>
<!DOCTYPE svg PUBLIC "-//W3C//DTD SVG 1.1//EN" "http://www.w3.org/Graphics/SVG/1.1/DTD/svg11.dtd" >
<svg xmlns="http://www.w3.org/2000/svg">
<metadata></metadata>
<defs>
<font id="swis721_cn_btbold" horiz-adv-x="1024" >
<font-face units-per-em="2048" ascent="1556" descent="-492" />
<missing-glyph horiz-adv-x="512" />
<glyph horiz-adv-x="2048" />
<glyph horiz-adv-x="2048" />
<glyph unicode="&#xd;" horiz-adv-x="512" />
<glyph unicode=" "  horiz-adv-x="512" />
<glyph unicode="&#x09;" horiz-adv-x="512" />
<glyph unicode="&#xa0;" horiz-adv-x="512" />
<glyph unicode="!" horiz-adv-x="598" d="M160 1042v498h276v-498l-53 -639h-172zM166 0v279h262v-279h-262z" />
<glyph unicode="&#x22;" horiz-adv-x="678" d="M80 879v559h192v-559h-192zM406 879v559h192v-559h-192z" />
<glyph unicode="#" horiz-adv-x="1575" d="M45 406l76 200h282l86 242h-299l74 201h297l148 415h221l-146 -415h242l148 415h221l-148 -415h283l-74 -201h-280l-84 -242h290l-71 -200h-291l-148 -416h-221l148 416h-244l-149 -416h-220l146 416h-287zM621 604h251l86 244h-249z" />
<glyph unicode="$" d="M74 444v39h243q0 -8 -1 -24t-1 -23q0 -106 34 -163t106 -70v454q-197 108 -281 218.5t-84 259.5q0 173 94.5 276t261.5 111v137h113v-139q172 -2 262 -96t90 -273v-29h-237v21q0 85 -32.5 133t-90.5 51v-409q228 -118 311.5 -225t83.5 -267q0 -197 -99.5 -307 t-287.5 -121v-199h-113v199q-185 11 -278.5 123t-93.5 323zM334 1165q0 -56 29.5 -103.5t91.5 -88.5l-1 356q-58 -5 -89 -47.5t-31 -116.5zM551 203q67 12 102 58.5t35 123.5q0 76 -30 125t-107 98v-405z" />
<glyph unicode="%" horiz-adv-x="1579" d="M90 1176q0 200 73 287t240 87q173 0 247.5 -86t74.5 -286q0 -206 -77 -300t-245 -94q-167 0 -240 90.5t-73 301.5zM291 1169q0 -136 24.5 -182.5t90.5 -46.5t91 45t25 184q0 128 -26.5 177t-94.5 49q-61 0 -85.5 -48.5t-24.5 -177.5zM360 -29l705 1579h149l-706 -1579 h-148zM852 360q0 201 73.5 289t239.5 88q173 0 248.5 -87t75.5 -288q0 -204 -77.5 -297.5t-246.5 -93.5q-168 0 -240.5 90t-72.5 299zM1055 356q0 -136 24.5 -183.5t89.5 -47.5q67 0 92 45t25 184q0 129 -27 178.5t-94 49.5q-61 0 -85.5 -48.5t-24.5 -177.5z" />
<glyph unicode="&#x26;" horiz-adv-x="1348" d="M121 434q0 137 65 243.5t228 229.5q-66 103 -93.5 177.5t-27.5 144.5q0 140 90 225.5t240 85.5q161 0 248 -76t87 -217q0 -118 -55.5 -215.5t-163.5 -169.5l185 -317q18 50 27.5 110t9.5 133v25h235q-2 -160 -34.5 -285.5t-96.5 -218.5l182 -309h-305l-51 98 q-64 -64 -145 -94.5t-187 -30.5q-203 0 -320.5 124t-117.5 337zM389 451q0 -105 60 -177.5t145 -72.5q49 0 92.5 19t95.5 65l-252 417q-69 -47 -105 -111.5t-36 -139.5zM532 1247q0 -12 6 -29.5t17 -37.5l68 -125q56 45 83 90.5t27 95.5q0 55 -25 84t-73 29 q-50 0 -76.5 -27.5t-26.5 -79.5z" />
<glyph unicode="'" horiz-adv-x="352" d="M80 879v559h192v-559h-192z" />
<glyph unicode="(" horiz-adv-x="674" d="M141 637q0 256 77 498t222 442h166q-97 -166 -146.5 -417t-49.5 -574q0 -316 50 -554.5t154 -420.5h-168q-157 226 -231 474.5t-74 551.5z" />
<glyph unicode=")" horiz-adv-x="674" d="M66 -389q104 182 154 420.5t50 554.5q0 323 -49.5 574t-146.5 417h166q145 -200 222 -442t77 -498q0 -303 -74 -551.5t-232 -474.5h-167z" />
<glyph unicode="*" d="M127 1192l57 178l236 -78v248h184v-248l236 78l57 -178l-233 -76l143 -201l-150 -108l-145 201l-145 -201l-150 108l143 201z" />
<glyph unicode="+" horiz-adv-x="1706" d="M254 512v199h498v510h202v-510h498v-199h-498v-512h-202v512h-498z" />
<glyph unicode="," horiz-adv-x="512" d="M127 0v276h258v-278q0 -127 -69.5 -207.5t-188.5 -91.5v104q64 7 101.5 55.5t37.5 125.5v16h-139z" />
<glyph unicode="-" horiz-adv-x="672" d="M92 459v239h488v-239h-488z" />
<glyph unicode="." horiz-adv-x="512" d="M127 0v276h258v-276h-258z" />
<glyph unicode="/" horiz-adv-x="629" d="M-61 -190l577 1767h152l-578 -1767h-151z" />
<glyph unicode="0" d="M88 772q0 274 17.5 407.5t58.5 200.5q55 90 137 130t211 40t211 -40t137 -130q41 -67 58.5 -200.5t17.5 -407.5q0 -281 -16.5 -414.5t-55.5 -201.5q-56 -97 -139.5 -141t-212.5 -44t-213 44t-139 141q-39 66 -55.5 195.5t-16.5 420.5zM375 471q0 -183 29 -236t108 -53 q78 0 107.5 55t29.5 248v148v416q0 182 -29.5 235t-107.5 53t-107.5 -54t-29.5 -247v-147v-418z" />
<glyph unicode="1" d="M92 1085v182q189 6 295 77.5t125 205.5h190v-1550h-270v1085h-340z" />
<glyph unicode="2" d="M86 49q0 178 73 341t222 317q27 27 80 78q100 95 133 143q30 45 44.5 97.5t14.5 119.5q0 98 -35 145t-108 47q-77 0 -112.5 -58t-35.5 -185q0 -24 1 -37t1 -23h-268q0 10 -1 27t-1 24q0 242 102 353.5t322 111.5q206 0 315 -101t109 -292q0 -89 -19.5 -164t-60.5 -143 q-32 -54 -143 -167q-58 -58 -89 -92l-1 -1q-220 -244 -250 -344h545v-246h-836q0 8 -1 24.5t-1 24.5z" />
<glyph unicode="3" d="M82 457q0 10 1 30.5t1 30.5h268v-18q0 -173 35 -241.5t121 -68.5q85 0 119.5 60.5t34.5 216.5q0 157 -42.5 206.5t-164.5 49.5q-27 0 -44.5 -0.5t-35.5 -1.5v201h20q137 0 188.5 46t51.5 171q0 115 -30.5 159.5t-104.5 44.5q-72 0 -103.5 -49.5t-31.5 -163.5v-36h-267 q-1 10 -1.5 21.5t-0.5 35.5q0 199 104.5 299t311.5 100q191 0 295 -103.5t104 -293.5q0 -129 -45.5 -211.5t-132.5 -110.5q108 -27 160.5 -116.5t52.5 -247.5q0 -250 -110.5 -373t-335.5 -123q-214 0 -316 119t-102 367z" />
<glyph unicode="4" d="M70 305v246l456 971h293v-987h129v-230h-129v-305h-262v305h-487zM276 528h287v627z" />
<glyph unicode="5" d="M80 455v39h266v-41q0 -136 39 -204.5t117 -68.5q80 0 115.5 81t35.5 263q0 166 -40 241t-128 75q-59 0 -97.5 -34.5t-43.5 -90.5h-250l41 807h729v-246h-516l-16 -309q43 45 93 65.5t118 20.5q195 0 293 -127.5t98 -382.5q0 -300 -105 -437t-335 -137q-212 0 -313 119 t-101 367z" />
<glyph unicode="6" d="M90 754q0 267 17.5 405.5t56.5 206.5q55 96 143.5 140t224.5 44q179 0 276 -85t97 -240v-23h-266v15q0 64 -29.5 95t-91.5 31q-81 0 -115 -71t-34 -248q0 -14 1 -43t1 -45q33 52 87.5 78t129.5 26q177 0 262.5 -119t85.5 -368q0 -317 -98 -449.5t-328 -132.5 q-124 0 -205 41t-137 131q-42 69 -60 206.5t-18 404.5zM371 506q0 -178 32 -245.5t111 -67.5t109 59t30 250q0 192 -30 250.5t-111 58.5q-78 0 -109.5 -66.5t-31.5 -238.5z" />
<glyph unicode="7" d="M84 1268v254h852v-222q-157 -291 -250 -618t-119 -682h-295q22 287 120.5 606.5t269.5 661.5h-578z" />
<glyph unicode="8" d="M92 430q0 184 54 279.5t171 124.5q-96 29 -145 113t-49 220q0 187 100 284t291 97t291 -99.5t100 -289.5q0 -132 -50 -212.5t-153 -112.5q122 -24 177 -115t55 -268q0 -247 -102.5 -362.5t-321.5 -115.5q-215 0 -316.5 111t-101.5 346zM373 438q0 -141 31 -193t108 -52 q80 0 110.5 55t30.5 213q0 151 -32 210.5t-109 59.5q-79 0 -109 -58.5t-30 -234.5zM387 1139q0 -114 28.5 -159.5t96.5 -45.5t97.5 47t29.5 158q0 113 -30 158.5t-101 45.5q-65 0 -93 -46.5t-28 -157.5z" />
<glyph unicode="9" d="M84 969q0 315 95 448t317 133q133 0 217 -40.5t139 -131.5q42 -67 60 -204.5t18 -405.5q0 -275 -16.5 -410.5t-55.5 -201.5q-55 -95 -141 -140t-211 -45q-195 0 -293 85t-98 253v10h268v-16q0 -59 31.5 -91t89.5 -32q82 0 114.5 69t32.5 257v80q-33 -53 -87 -78t-134 -25 q-177 0 -261.5 119t-84.5 367zM369 1020q0 -196 29.5 -252.5t111.5 -56.5q78 0 108.5 63.5t30.5 245.5q0 181 -31 245t-110 64t-109 -59t-30 -250z" />
<glyph unicode=":" horiz-adv-x="559" d="M152 0v276h256v-276h-256zM152 862v277h256v-277h-256z" />
<glyph unicode=";" horiz-adv-x="559" d="M152 0v276h256v-294q0 -111 -74.5 -194t-181.5 -89v104q63 7 100 55t37 126v16h-137zM152 862v277h256v-277h-256z" />
<glyph unicode="&#x3c;" horiz-adv-x="1706" d="M264 512v199l1178 483v-219l-893 -365l893 -364v-219z" />
<glyph unicode="=" horiz-adv-x="1706" d="M254 297v199h1198v-199h-1198zM254 727v199h1198v-199h-1198z" />
<glyph unicode="&#x3e;" horiz-adv-x="1706" d="M264 27v219l895 364l-895 365v219l1178 -483v-199z" />
<glyph unicode="?" horiz-adv-x="1006" d="M109 1126v39q0 199 101.5 305.5t291.5 106.5q184 0 289.5 -104.5t105.5 -286.5q0 -70 -15.5 -129.5t-45.5 -108.5q-37 -60 -113 -148t-100 -122q-36 -48 -53 -103t-17 -124q0 -7 1 -19t1 -18h-241q-2 13 -2.5 28t-0.5 43q0 108 26.5 187.5t92.5 163.5q17 22 52 62 q134 155 134 300q0 80 -32 122t-92 42q-68 0 -101 -49t-33 -150v-37h-249zM309 0v266h256v-266h-256z" />
<glyph unicode="@" horiz-adv-x="2048" d="M90 520q0 167 52.5 318.5t154.5 275.5q148 181 356 274t463 93q169 0 317.5 -45.5t258.5 -128.5q135 -105 201.5 -239.5t66.5 -303.5q0 -165 -65.5 -304.5t-188.5 -238.5q-70 -56 -152.5 -85.5t-171.5 -29.5q-106 0 -159.5 42t-55.5 124q-55 -84 -127 -123.5t-170 -39.5 q-158 0 -240.5 86t-82.5 254q0 239 139.5 401t343.5 162q80 0 139 -33t97 -98l53 98h178l-147 -598q-3 -11 -5 -22.5t-2 -18.5q0 -35 24 -52.5t71 -17.5q39 0 81.5 20t79.5 56q86 80 130.5 187t44.5 235q0 240 -185.5 394.5t-478.5 154.5q-141 0 -262.5 -34t-220.5 -101 q-170 -114 -261.5 -285t-91.5 -375q0 -307 207 -490.5t553 -183.5q162 0 316.5 49t287.5 142l82 -117q-153 -115 -324.5 -173t-357.5 -58q-192 0 -353 48.5t-286 143.5q-155 121 -232 279t-77 358zM760 444q0 -92 40.5 -140t117.5 -48q83 0 151.5 63t93.5 164l54 217 q-13 81 -57.5 123.5t-117.5 42.5q-114 0 -198 -124t-84 -298z" />
<glyph unicode="A" horiz-adv-x="1120" d="M18 0l347 1540h385l350 -1540h-309l-76 387h-330l-74 -387h-293zM430 618h244l-123 646z" />
<glyph unicode="B" horiz-adv-x="1116" d="M131 0v1540h461q198 0 294.5 -92t96.5 -283q0 -153 -47.5 -237t-142.5 -101q108 -15 168.5 -107.5t60.5 -244.5q0 -245 -102.5 -360t-319.5 -115h-469zM410 219h118q111 0 156 54.5t45 189.5q0 140 -49 193t-184 53h-86v-490zM410 915h96q108 0 149 47t41 173 q0 113 -41.5 154.5t-156.5 41.5h-88v-416z" />
<glyph unicode="C" horiz-adv-x="1122" d="M100 788q0 238 19 378.5t59 209.5q62 106 154 153.5t235 47.5q234 0 340.5 -122t107.5 -392h-278v37q0 125 -40.5 186.5t-123.5 61.5q-103 0 -140.5 -85t-37.5 -470q0 -416 36.5 -506t139.5 -90q96 0 134 70.5t38 260.5v21h279q0 -10 1 -29.5t1 -30.5 q0 -267 -112.5 -396.5t-344.5 -129.5q-110 0 -189 28.5t-136 88.5q-78 80 -110 220t-32 488z" />
<glyph unicode="D" horiz-adv-x="1204" d="M131 0v1540h461q141 0 224.5 -24t137.5 -78q81 -79 114.5 -199.5t33.5 -374.5q0 -328 -23 -463.5t-78 -230.5q-53 -95 -147.5 -132.5t-327.5 -37.5h-395zM412 227h127q97 0 136 14t62 48q40 60 57 164.5t17 334.5q0 224 -20 326t-68 154q-25 26 -64.5 36.5t-123.5 10.5 h-123v-1088z" />
<glyph unicode="E" horiz-adv-x="1014" d="M131 0v1540h791v-256h-506v-356h471v-244h-471v-424h518v-260h-803z" />
<glyph unicode="F" horiz-adv-x="1001" d="M131 0v1540h805v-252h-518v-364h489v-246h-489v-678h-287z" />
<glyph unicode="G" horiz-adv-x="1206" d="M100 817q0 228 23.5 365.5t73.5 212.5q60 92 159 136t246 44q248 0 365.5 -117t117.5 -364v-39h-268v16q0 138 -51.5 208.5t-153.5 70.5q-125 0 -171 -96t-46 -509q0 -326 44 -436t159 -110q114 0 162.5 78t48.5 264v53h-199v246h475v-840h-194l-21 170 q-44 -111 -120.5 -159t-210.5 -48q-242 0 -340.5 183t-98.5 671z" />
<glyph unicode="H" horiz-adv-x="1225" d="M131 0v1540h285v-604h393v604h285v-1540h-285v698h-393v-698h-285z" />
<glyph unicode="I" horiz-adv-x="549" d="M131 0v1540h287v-1540h-287z" />
<glyph unicode="J" horiz-adv-x="903" d="M25 330v157h262v-182q0 -61 24.5 -91t75.5 -30q55 0 75.5 34.5t20.5 160.5v70v1091h281v-1083q0 -161 -6.5 -219t-22.5 -93q-43 -92 -129 -137t-221 -45q-179 0 -269.5 92.5t-90.5 274.5z" />
<glyph unicode="K" horiz-adv-x="1118" d="M131 0v1540h281v-643l350 643h319l-389 -639l414 -901h-315l-277 637l-102 -170v-467h-281z" />
<glyph unicode="L" horiz-adv-x="999" d="M131 0v1540h287v-1278h518v-262h-805z" />
<glyph unicode="M" horiz-adv-x="1548" d="M131 0v1540h432l211 -997l211 997h432v-1540h-274l6 1366l-287 -1366h-176l-287 1366l7 -1366h-275z" />
<glyph unicode="N" horiz-adv-x="1221" d="M131 0v1540h295l401 -1077l-8 1077h271v-1540h-293l-404 1079l8 -1079h-270z" />
<glyph unicode="O" horiz-adv-x="1202" d="M100 770q0 245 23 391.5t72 220.5q67 105 160 150t245 45t245 -45t161 -150q49 -76 71.5 -222t22.5 -390q0 -243 -23 -389.5t-71 -222.5q-68 -105 -161 -150t-245 -45t-245 45t-160 150q-49 74 -72 220.5t-23 391.5zM393 770q0 -380 44.5 -478.5t164.5 -98.5 q118 0 161.5 96.5t43.5 480.5t-44 482t-163 98t-163 -98t-44 -482z" />
<glyph unicode="P" horiz-adv-x="1116" d="M131 0v1540h498q228 0 328 -102t100 -334q0 -228 -106.5 -339.5t-325.5 -111.5h-209v-653h-285zM408 866h120q134 0 188 52.5t54 179.5q0 128 -49.5 177.5t-188.5 49.5h-124v-459z" />
<glyph unicode="Q" horiz-adv-x="1202" d="M100 770q0 244 23 390t72 222q67 105 160 150t245 45t245 -45t161 -150q48 -76 71 -222.5t23 -389.5q0 -254 -23 -402.5t-71 -209.5l172 -172l-146 -148l-176 176q-52 -26 -114.5 -38.5t-141.5 -12.5q-152 0 -245 45t-160 150q-49 76 -72 222.5t-23 389.5zM393 770 q0 -374 41.5 -475.5t153.5 -101.5q13 0 30.5 2t49.5 8l-84 86l143 145l61 -63q11 75 16 160t5 184q0 429 -44 532t-165 103q-119 0 -163 -98t-44 -482z" />
<glyph unicode="R" horiz-adv-x="1182" d="M131 0v1540h514q233 0 335.5 -94.5t102.5 -308.5q0 -150 -55 -236.5t-162 -101.5q204 -54 213 -345v-20l8 -204q4 -87 22 -139.5t56 -90.5h-340q-12 39 -18 91.5t-8 148.5l-4 161v41q0 134 -57 184t-232 50h-98v-676h-277zM408 889h165q125 0 173.5 50t48.5 179 q0 115 -53 161t-193 46h-141v-436z" />
<glyph unicode="S" horiz-adv-x="1122" d="M98 449q0 26 4 86v6h287v-99q0 -142 35.5 -193.5t122.5 -51.5q91 0 138.5 46t47.5 136q0 69 -33 118.5t-143 127.5l-147 104q-190 132 -241.5 218t-51.5 216q0 194 115 304t317 110q214 0 328 -117t114 -336q0 -22 -0.5 -34t-1.5 -21h-272v41q0 125 -41 179t-135 54 q-69 0 -108.5 -40.5t-39.5 -112.5q0 -97 177 -215l3 -2l158 -107q169 -112 229 -211.5t60 -253.5q0 -210 -120 -324t-343 -114q-232 0 -345.5 120t-113.5 366z" />
<glyph unicode="T" horiz-adv-x="987" d="M20 1286v254h947v-254h-330v-1286h-287v1286h-330z" />
<glyph unicode="U" horiz-adv-x="1223" d="M131 477v1063h287v-1038q0 -178 43.5 -241.5t154.5 -63.5q110 0 152.5 64t42.5 245v1034h283v-1063q0 -155 -17.5 -226.5t-58.5 -125.5q-62 -81 -164 -121.5t-242 -40.5q-264 0 -372.5 114.5t-108.5 399.5z" />
<glyph unicode="V" horiz-adv-x="1120" d="M27 1540h307l229 -1229l207 1229h303l-323 -1540h-377z" />
<glyph unicode="W" horiz-adv-x="1677" d="M37 1540h297l188 -1167l201 1167h238l221 -1190l164 1190h294l-280 -1540h-340l-178 973l-164 -973h-342z" />
<glyph unicode="X" horiz-adv-x="1122" d="M18 0l377 786l-358 754h323l205 -485l209 485h320l-371 -754l381 -786h-324l-223 514l-227 -514h-312z" />
<glyph unicode="Y" horiz-adv-x="1126" d="M18 1540h318l233 -579l230 579h309l-397 -887v-653h-289v653z" />
<glyph unicode="Z" horiz-adv-x="991" d="M61 0v260l541 1040h-514v240h819v-237l-534 -1043h557v-260h-869z" />
<glyph unicode="[" horiz-adv-x="672" d="M160 -418v1958h411v-170h-159v-1618h159v-170h-411z" />
<glyph unicode="\" horiz-adv-x="629" d="M-61 1577h151l578 -1767h-152z" />
<glyph unicode="]" horiz-adv-x="672" d="M78 -248h162v1618h-162v170h411v-1958h-411v170z" />
<glyph unicode="^" horiz-adv-x="2048" d="M416 899l481 561h252l481 -561h-235l-371 371l-373 -371h-235z" />
<glyph unicode="_" d="M0 -279h1024v-204h-1024v204z" />
<glyph unicode="`" d="M223 1565h256l174 -285h-125z" />
<glyph unicode="a" horiz-adv-x="993" d="M92 305q0 143 64.5 227.5t255.5 169.5q19 9 54 24q157 67 157 157q0 55 -30.5 84.5t-88.5 29.5q-73 0 -107.5 -39t-34.5 -122v-23h-260q0 195 95.5 284t306.5 89t296 -81.5t85 -285.5v-653q0 -48 9 -87.5t30 -78.5h-260q-9 13 -15.5 39t-13.5 73q-42 -70 -108.5 -106.5 t-155.5 -36.5q-132 0 -205.5 89t-73.5 247zM369 328q0 -77 28.5 -113.5t89.5 -36.5q70 0 105 61t35 183v184q-151 -76 -204.5 -136t-53.5 -142z" />
<glyph unicode="b" horiz-adv-x="995" d="M117 0v1540h268v-481q34 65 89.5 97t137.5 32q166 0 232.5 -132.5t66.5 -482.5q0 -338 -68.5 -471t-236.5 -133q-84 0 -143.5 38.5t-91.5 113.5v-121h-254zM377 530q0 -216 29.5 -278t109.5 -62q71 0 97 68t26 317q0 257 -26 322.5t-97 65.5q-80 0 -109.5 -76t-29.5 -357 z" />
<glyph unicode="c" horiz-adv-x="930" d="M82 578q0 350 86.5 480t304.5 130q191 0 282 -95t91 -294v-41h-256v26q0 105 -27 151t-88 46q-62 0 -89.5 -45t-27.5 -150v-399q0 -119 26 -166t89 -47q68 0 94.5 54t26.5 202v25l252 -1q1 -12 1.5 -25.5t0.5 -39.5q0 -215 -91.5 -317.5t-283.5 -102.5q-218 0 -304.5 129 t-86.5 480z" />
<glyph unicode="d" horiz-adv-x="995" d="M84 573q0 350 67 482.5t232 132.5q82 0 138 -32t89 -97v481h269v-1540h-254v121q-33 -75 -92 -113.5t-144 -38.5q-167 0 -236 133t-69 471zM356 596q0 -268 26 -337t97 -69q80 0 109.5 61.5t29.5 252.5q0 307 -29.5 383t-109.5 76q-70 0 -96.5 -65.5t-26.5 -301.5z" />
<glyph unicode="e" horiz-adv-x="975" d="M84 616q0 211 20 302t68 149q50 60 130.5 90.5t191.5 30.5q107 0 184.5 -32.5t128.5 -98.5q43 -58 61.5 -145.5t18.5 -282.5v-88h-526q-2 -13 -2.5 -27.5t-0.5 -46.5q0 -165 30.5 -231t103.5 -66q71 0 103 53.5t32 173.5h252q0 -8 1 -23t1 -22q0 -198 -94.5 -290.5 t-299.5 -92.5q-108 0 -181 27t-120 84q-56 67 -79 169t-23 367zM356 774l1 -16q1 -17 1 -33h260v49q0 119 -29 164t-102 45q-71 0 -101 -46.5t-30 -162.5z" />
<glyph unicode="f" horiz-adv-x="563" d="M37 958v199h104v115q0 149 57 211.5t191 62.5q27 0 59 -1.5t70 -4.5v-201q-5 0 -14 1t-12 1q-44 0 -63 -18t-19 -59v-107h108v-199h-108v-958h-269v958h-104z" />
<glyph unicode="g" horiz-adv-x="995" d="M84 584q0 338 69 471t236 133q85 0 144 -38t92 -114v121h254v-1065q0 -153 -14.5 -223.5t-49.5 -120.5q-45 -67 -134.5 -102t-215.5 -35q-172 0 -263 67t-93 195h265q3 -34 28.5 -53t70.5 -19q76 0 106.5 46.5t30.5 170.5v80q-34 -65 -88.5 -97t-130.5 -32 q-171 0 -239 129.5t-68 485.5zM356 559q0 -235 26.5 -299.5t96.5 -64.5q80 0 109.5 75.5t29.5 382.5q0 192 -29.5 253t-109.5 61q-71 0 -97 -69.5t-26 -338.5z" />
<glyph unicode="h" horiz-adv-x="993" d="M117 0v1540h266v-493q35 67 97 104t141 37q126 0 193 -72t67 -207v-909h-258v776q0 109 -23.5 145.5t-81.5 36.5q-73 0 -104 -48.5t-31 -172.5v-737h-266z" />
<glyph unicode="i" horiz-adv-x="496" d="M115 0v1157h266v-1157h-266zM115 1300v240h266v-240h-266z" />
<glyph unicode="j" horiz-adv-x="514" d="M37 -166q63 0 80.5 18.5t17.5 104.5v1200h262v-1204q0 -227 -54 -285.5t-218 -58.5q-20 0 -42 1.5t-46 4.5v219zM133 1300v240h264v-240h-264z" />
<glyph unicode="k" horiz-adv-x="885" d="M117 0v1540h260v-805l239 422h281l-289 -442l293 -715h-291l-168 463l-65 -103v-360h-260z" />
<glyph unicode="l" horiz-adv-x="496" d="M115 0v1540h266v-1540h-266z" />
<glyph unicode="m" horiz-adv-x="1538" d="M119 0v1157h248v-133q46 91 109 127.5t171 36.5q85 0 148 -38.5t90 -107.5q53 78 115 112t151 34q137 0 206.5 -75.5t69.5 -223.5v-889h-262v739q0 137 -28 177t-103 40q-70 0 -99.5 -45.5t-29.5 -165.5v-745h-264v752q0 118 -27.5 161t-95.5 43q-72 0 -103.5 -46 t-31.5 -154v-756h-264z" />
<glyph unicode="n" horiz-adv-x="993" d="M117 0v1157h262v-117q42 73 103 110.5t139 37.5q126 0 193 -72t67 -207v-909h-258v776q0 102 -26 143.5t-87 41.5q-67 0 -96 -51t-29 -173v-737h-268z" />
<glyph unicode="o" horiz-adv-x="979" d="M82 578q0 350 90 480t317 130q228 0 318 -130t90 -480t-90 -479.5t-318 -129.5q-227 0 -317 129.5t-90 479.5zM356 563q0 -269 27 -329t104 -60q80 0 108 56.5t28 293.5v47v66q0 227 -28.5 285.5t-105.5 58.5q-76 0 -104.5 -53.5t-28.5 -257.5v-80v-27z" />
<glyph unicode="p" horiz-adv-x="995" d="M117 -389v1546h254v-121q32 76 91.5 114t143.5 38q168 0 236.5 -133t68.5 -471q0 -350 -66.5 -482.5t-232.5 -132.5q-82 0 -137.5 32t-89.5 97v-487h-268zM377 627q0 -281 29.5 -356.5t109.5 -75.5q71 0 97 65t26 322q0 249 -26 317t-97 68q-80 0 -109.5 -62t-29.5 -278z " />
<glyph unicode="q" horiz-adv-x="995" d="M84 584q0 338 69 471t236 133q85 0 144 -38t92 -114v121h254v-1546h-269v487q-33 -65 -89 -97t-138 -32q-165 0 -232 132.5t-67 482.5zM356 559q0 -235 26.5 -299.5t96.5 -64.5q80 0 109.5 75.5t29.5 382.5q0 192 -29.5 253t-109.5 61q-71 0 -97 -69.5t-26 -338.5z" />
<glyph unicode="r" horiz-adv-x="692" d="M119 0v1157h256v-188q55 117 117.5 167t152.5 51v-325q-15 2 -30 3t-37 1q-86 0 -136.5 -51t-50.5 -137v-678h-272z" />
<glyph unicode="s" horiz-adv-x="901" d="M74 340q0 7 1 22t1 23h241v-33q0 -100 30.5 -142t101.5 -42q56 0 88 30t32 83q0 66 -129 152l-51 34l-12 9q-295 202 -295 396q0 154 95.5 235t277.5 81q176 0 264 -89.5t88 -271.5v-24h-236v24q0 84 -32 123t-101 39q-50 0 -80 -27.5t-30 -72.5q0 -42 26.5 -76 t118.5 -96q21 -14 61 -41q291 -192 291 -385q0 -154 -98.5 -238t-280.5 -84q-191 0 -281.5 90t-90.5 281z" />
<glyph unicode="t" horiz-adv-x="557" d="M27 958v199h104v316h268v-316h111v-199h-111v-530v-78q0 -93 17.5 -118t64.5 -25q11 0 17.5 0.5t11.5 0.5v-208q-58 -6 -90.5 -8t-52.5 -2q-135 0 -185.5 53.5t-50.5 220.5v694h-104z" />
<glyph unicode="u" horiz-adv-x="991" d="M113 248v909h258v-756q0 -115 26 -158.5t88 -43.5q68 0 95.5 48t27.5 171v739h269v-1157h-263v115q-41 -72 -102.5 -109t-140.5 -37q-126 0 -192 71.5t-66 207.5z" />
<glyph unicode="v" horiz-adv-x="909" d="M23 1157h284l154 -885l147 885h277l-267 -1157h-327z" />
<glyph unicode="w" horiz-adv-x="1341" d="M27 1157h280l123 -856l131 856h219l156 -868l111 868h266l-223 -1157h-287l-131 688l-105 -688h-293z" />
<glyph unicode="x" horiz-adv-x="895" d="M14 0l305 592l-292 565h305l125 -289l125 289h292l-286 -565l293 -592h-297l-133 309l-134 -309h-303z" />
<glyph unicode="y" horiz-adv-x="909" d="M20 1157h283l160 -835l155 835h271l-301 -1266q-40 -165 -106.5 -221.5t-211.5 -56.5q-22 0 -45.5 2t-48.5 6v200q8 0 17 -0.5t26 -0.5q57 0 83 18.5t26 59.5q0 13 -3 31t-8 35z" />
<glyph unicode="z" horiz-adv-x="784" d="M43 0v213l391 719h-387v225h688v-194l-403 -736h407v-227h-696z" />
<glyph unicode="{" d="M158 426v209q7 0 21 -1t20 -1q120 0 171.5 58t51.5 196v250q0 143 23.5 201t80.5 92q47 25 114 37t167 12q12 0 37 -1t39 -1v-209q-9 0 -25 1t-22 1q-101 0 -136.5 -38.5t-35.5 -162.5v-240q0 -148 -45 -210t-162 -89q117 -27 162 -88t45 -209v-241q0 -123 35 -161 t137 -38q6 0 22 1t25 1v-209q-14 0 -39 -1t-37 -1q-100 0 -167 12t-114 37q-57 34 -80.5 91.5t-23.5 199.5v252q0 137 -51 194.5t-172 57.5q-6 0 -20 -1t-21 -1z" />
<glyph unicode="|" d="M410 -483v2048h206v-2048h-206z" />
<glyph unicode="}" d="M143 -205q9 0 25 -1t22 -1q101 0 136.5 38.5t35.5 160.5v239q0 150 45 211.5t162 87.5q-117 27 -162 89t-45 210v242q0 122 -35.5 160.5t-136.5 38.5q-6 0 -22 -1t-25 -1v209h68q110 0 177 -12t112 -38q57 -32 80.5 -91.5t23.5 -198.5v-252q0 -137 51 -194.5t172 -57.5 q6 0 20 1t21 1v-209h-37q-125 0 -176 -56t-51 -194v-252q0 -143 -23.5 -201t-80.5 -90q-47 -25 -114 -37t-167 -12q-12 0 -37 1t-39 1v209z" />
<glyph unicode="~" horiz-adv-x="1706" d="M178 418v221q107 72 204 107.5t183 35.5q117 0 291 -58l4 -1q18 -6 55 -19q155 -55 240 -55t175 37t200 117v-221q-104 -71 -196.5 -104.5t-182.5 -33.5q-46 0 -92 8t-92 23q-24 8 -71 25q-219 75 -333 75q-85 0 -177.5 -37.5t-207.5 -119.5z" />
<glyph unicode="&#xa0;" />
<glyph unicode="&#xa1;" horiz-adv-x="598" d="M160 0v500l51 639h172l51 -639v-500h-274zM166 1264v276h262v-276h-262z" />
<glyph unicode="&#xa2;" d="M145 618q0 346 61 458.5t220 133.5v279h182v-279q131 -17 195.5 -109t64.5 -259q0 -26 -0.5 -38.5t-1.5 -23.5h-256v49q0 109 -20 143t-72 34q-59 0 -80.5 -47.5t-21.5 -227.5v-117v-141q0 -170 21 -218t77 -48t77 46t21 185v43h252q0 -10 1 -29t1 -28q0 -203 -63.5 -308 t-194.5 -116v-328h-182v328q-158 20 -219.5 141t-61.5 477z" />
<glyph unicode="&#xa3;" d="M72 164q97 67 152 158t55 186q0 34 -4.5 70.5t-12.5 74.5h-190v142h127q-47 76 -71 162t-24 180q0 189 117.5 301t315.5 112q206 0 312.5 -103.5t106.5 -303.5q0 -26 -0.5 -40t-1.5 -26h-256v37q0 117 -39 172t-122 55q-77 0 -118.5 -56t-41.5 -159q0 -71 24.5 -157.5 t69.5 -173.5h291v-142h-242q6 -21 9 -42.5t3 -43.5q0 -94 -56.5 -190t-168.5 -189q55 31 103.5 45.5t95.5 14.5q45 0 128 -19.5t126 -19.5q38 0 79 15.5t89 47.5l59 -223q-50 -36 -111.5 -55t-132.5 -19q-70 0 -195 30t-179 30q-48 0 -103 -16t-119 -48z" />
<glyph unicode="&#xa4;" d="M-45 842l63 141h90q2 302 109 448t326 146q208 0 310 -116.5t103 -354.5h-286v12q0 129 -33.5 188.5t-106.5 59.5q-74 0 -104.5 -81.5t-30.5 -301.5h383l-63 -141h-320v-144h256l-63 -141h-192q1 -229 32 -306t109 -77q68 0 100.5 62.5t32.5 195.5v27h286v-31 q0 -232 -103 -348.5t-310 -116.5q-219 0 -326 146.5t-109 447.5h-128l63 141h66v144h-154z" />
<glyph unicode="&#xa5;" horiz-adv-x="1139" d="M33 1522h284l258 -594l252 594h277l-215 -467h203v-144h-267l-65 -141h332v-143h-385v-627h-269v627h-389v143h334l-64 141h-270v144h203z" />
<glyph unicode="&#xa6;" d="M410 -350v758h206v-758h-206zM410 674v758h206v-758h-206z" />
<glyph unicode="&#xa7;" d="M78 758q0 98 49 164t141 92q-59 41 -87.5 99t-28.5 138q0 157 100.5 241.5t286.5 84.5q175 0 267.5 -81t92.5 -234q0 -5 -1 -16t-1 -17h-250v14q0 69 -28.5 101t-90.5 32t-90 -23t-28 -73q0 -85 135 -179q14 -10 22 -16l150 -106q140 -98 184.5 -167.5t44.5 -166.5 q0 -99 -47 -160.5t-141 -87.5q65 -38 97 -109.5t32 -181.5q0 -159 -99.5 -239t-298.5 -80q-188 0 -280 82.5t-92 251.5q0 6 1 20.5t1 22.5h254q0 -5 -1 -15t-1 -16q0 -67 33.5 -101t101.5 -34q66 0 97.5 28t31.5 87q0 37 -21.5 67.5t-99.5 87.5l-248 187q-111 82 -149.5 148 t-38.5 155zM315 803q0 -78 234 -242q55 -39 86 -61q36 21 55 51t19 67q0 32 -18 58.5t-70 64.5l-224 164q-39 -20 -60.5 -46.5t-21.5 -55.5z" />
<glyph unicode="&#xa8;" d="M231 1303v237h220v-237h-220zM573 1303v237h220v-237h-220z" />
<glyph unicode="&#xa9;" horiz-adv-x="1706" d="M111 733q0 149 56 284.5t163 244.5q105 106 238 161.5t284 55.5q152 0 287.5 -56t242.5 -163q105 -105 160 -240.5t55 -286.5q0 -152 -54.5 -284t-160.5 -236q-111 -108 -248 -165.5t-282 -57.5q-147 0 -280.5 56.5t-241.5 164.5q-107 106 -163 240.5t-56 281.5zM233 735 q0 -125 47 -237t136 -201q88 -88 201 -135t237 -47t237.5 47t204.5 137q88 86 133.5 197t45.5 239q0 126 -46.5 238.5t-134.5 200.5q-89 89 -201 135.5t-239 46.5q-128 0 -239.5 -46t-198.5 -134q-89 -90 -136 -203.5t-47 -237.5zM453 729q0 206 109.5 328.5t293.5 122.5 q152 0 250.5 -78t105.5 -205h-188q-8 70 -53 108.5t-119 38.5q-91 0 -143 -81.5t-52 -227.5q0 -147 52 -224t151 -77q73 0 117 42t53 119l193 1q-8 -139 -109 -223t-260 -84q-186 0 -293.5 118t-107.5 322z" />
<glyph unicode="&#xaa;" horiz-adv-x="745" d="M70 944q0 101 48.5 160.5t190.5 118.5l40 16q118 47 118 111q0 38 -22.5 59t-65.5 21q-55 0 -81 -27.5t-26 -85.5v-17h-194q0 137 71 199t230 62q158 0 221.5 -57t63.5 -199v-457q0 -33 6.5 -60.5t21.5 -56.5l-195 1q-5 8 -10 27t-10 52q-32 -50 -81.5 -75t-116.5 -25 q-99 0 -154 61.5t-55 171.5zM276 961q0 -54 22 -79.5t69 -25.5q51 0 77.5 43t26.5 127v129q-114 -54 -154.5 -95.5t-40.5 -98.5z" />
<glyph unicode="&#xab;" horiz-adv-x="989" d="M137 475v207l314 283v-222l-193 -163l193 -166v-221zM539 475v207l313 283v-222l-193 -163l193 -166v-221z" />
<glyph unicode="&#xac;" horiz-adv-x="1706" d="M254 668v196h1198v-502h-199v306h-999z" />
<glyph unicode="&#xad;" horiz-adv-x="672" d="M92 459v239h488v-239h-488z" />
<glyph unicode="&#xae;" horiz-adv-x="1706" d="M111 733q0 102 27 198.5t81 188.5q101 170 267 264.5t366 94.5q154 0 290.5 -57.5t243.5 -166.5q103 -104 157 -238t54 -284q0 -152 -56 -287.5t-163 -238.5q-107 -105 -243.5 -161t-282.5 -56q-149 0 -285 58t-243 167q-104 105 -158.5 238.5t-54.5 279.5zM233 735 q0 -124 46 -235.5t133 -198.5q89 -91 203 -139.5t237 -48.5q120 0 233.5 47t206.5 135q87 84 135 196t48 232q0 133 -44.5 245t-132.5 201q-90 93 -202.5 140t-241.5 47q-127 0 -236 -44.5t-196 -131.5q-91 -91 -140 -206.5t-49 -238.5zM545 336v825h323q176 0 264.5 -59.5 t88.5 -177.5q0 -82 -48 -140t-133 -79l185 -369h-224l-157 338h-99v-338h-200zM745 795h99q88 0 129 28t41 88q0 63 -44 93t-136 30h-89v-239z" />
<glyph unicode="&#xaf;" d="M252 1341v162h520v-162h-520z" />
<glyph unicode="&#xb0;" horiz-adv-x="674" d="M35 1159q0 127 88.5 216t214.5 89t214.5 -89.5t88.5 -215.5q0 -125 -89 -214t-216 -89q-126 0 -213.5 88t-87.5 215zM162 1161q0 -74 51 -125t125 -51q72 0 123 52t51 124t-51 123t-123 51q-73 0 -124.5 -51t-51.5 -123z" />
<glyph unicode="&#xb1;" horiz-adv-x="1706" d="M254 -2v199h1198v-199h-1198zM254 698v199h498v326h202v-326h498v-199h-498v-325h-202v325h-498z" />
<glyph unicode="&#xb2;" horiz-adv-x="676" d="M57 608v29q0 109 48.5 207t146.5 188q16 16 68 61t71 72q21 27 31 59t10 70q0 59 -24 88t-72 29q-50 0 -73 -35.5t-23 -111.5v-35h-177q0 5 -1 15t-1 16q0 143 68 210.5t213 67.5q136 0 208.5 -60.5t72.5 -174.5q0 -54 -13.5 -99t-40.5 -86q-22 -33 -100 -106 q-35 -32 -53 -49q-89 -89 -121.5 -131t-44.5 -76h360v-148h-553z" />
<glyph unicode="&#xb3;" horiz-adv-x="676" d="M53 883q0 6 1 18t1 19h178v-13q0 -103 23.5 -143.5t79.5 -40.5t78 35.5t22 130.5q0 94 -27.5 123.5t-107.5 29.5q-18 0 -30 -0.5t-23 -0.5v120h12q91 0 125.5 28t34.5 103q0 69 -20.5 96t-69.5 27q-48 0 -69 -30t-21 -99v-22h-174q-2 7 -2.5 14t-0.5 20q0 120 69 180 t206 60q126 0 195 -62t69 -176q0 -77 -30.5 -127t-88.5 -65q72 -17 107 -71t35 -148q0 -151 -73 -224t-222 -73q-141 0 -209 71.5t-68 219.5z" />
<glyph unicode="&#xb4;" d="M371 1280l174 285h256l-305 -285h-125z" />
<glyph unicode="&#xb5;" horiz-adv-x="1249" d="M-63 -438l268 1530h289l-76 -435q-15 -80 -23 -151.5t-8 -116.5q0 -93 42 -138.5t128 -45.5q100 0 155.5 82t92.5 291l90 514h289l-193 -1092h-268l18 117q-42 -78 -93.5 -114t-121.5 -36q-67 0 -119 29.5t-94 91.5l-90 -526h-286z" />
<glyph unicode="&#xb6;" d="M41 1130q0 158 107 253.5t284 95.5h551v-111h-113v-1368h-151v1368h-158v-1368h-153v784q-167 6 -267 101t-100 245z" />
<glyph unicode="&#xb7;" horiz-adv-x="512" d="M96 758q0 67 46.5 113.5t113.5 46.5q65 0 112.5 -47.5t47.5 -112.5t-47 -111.5t-113 -46.5q-67 0 -113.5 45.5t-46.5 112.5z" />
<glyph unicode="&#xb8;" d="M272 -319q95 -16 140.5 -21.5t72.5 -5.5q44 0 65 17.5t21 54.5q0 31 -25 46t-79 15h-23v213h115v-83q98 -9 149.5 -58.5t51.5 -134.5q0 -100 -66.5 -154.5t-187.5 -54.5q-42 0 -98 6.5t-136 21.5v138z" />
<glyph unicode="&#xb9;" horiz-adv-x="676" d="M59 1260l1 108q124 3 195 46t83 124h125v-930h-178v652h-226z" />
<glyph unicode="&#xba;" horiz-adv-x="735" d="M61 1135q0 246 68 337t238 91q171 0 239 -92t68 -336t-67.5 -334t-239.5 -90q-171 0 -238.5 89.5t-67.5 334.5zM268 1126q0 -191 20 -231.5t79 -40.5t79.5 38.5t20.5 205.5v32v48q0 159 -21 199t-79 40q-57 0 -78 -36.5t-21 -180.5v-55v-19z" />
<glyph unicode="&#xbb;" horiz-adv-x="989" d="M137 193v221l193 166l-193 163v222l314 -283v-207zM539 193v221l192 166l-192 163v222l313 -283v-207z" />
<glyph unicode="&#xbc;" horiz-adv-x="1632" d="M57 1278v102q119 2 186.5 42t80.5 116h118v-868h-170v608h-215zM303 -29l868 1579h156l-870 -1579h-154zM1030 170v139l289 543h184v-553h82v-129h-82v-170h-166v170h-307zM1161 295h180v352z" />
<glyph unicode="&#xbd;" horiz-adv-x="1632" d="M57 1278v102q119 2 186.5 42t80.5 116h118v-868h-170v608h-215zM303 -29l868 1579h156l-870 -1579h-154zM1040 27q0 99 46.5 190.5t140.5 177.5q17 16 52 46q63 52 83 79q19 25 28 54.5t9 66.5q0 55 -22.5 82t-67.5 27q-48 0 -70 -33t-22 -105v-32h-168q0 4 -1 13.5 t-1 14.5q0 135 63.5 197.5t202.5 62.5q129 0 198.5 -57t69.5 -164q0 -48 -12.5 -89.5t-38.5 -82.5q-19 -29 -89 -91q-37 -33 -57 -52l-11 -12q-129 -128 -146 -183h342v-137h-527q0 4 -1 13.5t-1 13.5z" />
<glyph unicode="&#xbe;" horiz-adv-x="1632" d="M51 926q0 5 1 16.5t1 18.5h168v-11q0 -97 22.5 -135.5t75.5 -38.5q54 0 75.5 33.5t21.5 122.5q0 87 -26.5 115t-102.5 28q-17 0 -28.5 -0.5t-22.5 -1.5v113h14q84 0 116.5 26t32.5 95q0 64 -18.5 89t-65.5 25q-45 0 -65.5 -27.5t-20.5 -90.5v-21h-168v33q0 111 66 167 t197 56q120 0 184.5 -58t64.5 -165q0 -72 -28 -118.5t-82 -61.5q67 -16 100 -66t33 -137q0 -141 -69.5 -210t-211.5 -69q-134 0 -199 67t-65 206zM303 -29l868 1579h156l-870 -1579h-154zM1030 170v139l289 543h184v-553h82v-129h-82v-170h-166v170h-307zM1161 295h180v352z " />
<glyph unicode="&#xbf;" horiz-adv-x="1006" d="M106 356q0 69 15.5 128t46.5 108q37 60 114 149t101 123q36 48 53 103t17 125q0 6 -1 18t-1 18h241q1 -12 1.5 -26.5t0.5 -42.5q0 -107 -26.5 -187t-94.5 -167q-17 -23 -52 -63q-134 -155 -134 -300q0 -80 32 -122t93 -42q67 0 100 49.5t33 149.5v37h252v-39 q0 -198 -102.5 -304t-292.5 -106q-185 0 -290.5 104.5t-105.5 286.5zM438 1274v266h256v-266h-256z" />
<glyph unicode="&#xc0;" horiz-adv-x="1120" d="M18 0l347 1540h385l350 -1540h-309l-76 387h-330l-74 -387h-293zM272 1954h256l174 -285h-125zM430 618h244l-123 646z" />
<glyph unicode="&#xc1;" horiz-adv-x="1120" d="M18 0l347 1540h385l350 -1540h-309l-76 387h-330l-74 -387h-293zM420 1669l174 285h256l-305 -285h-125zM430 618h244l-123 646z" />
<glyph unicode="&#xc2;" horiz-adv-x="1120" d="M18 0l347 1540h385l350 -1540h-309l-76 387h-330l-74 -387h-293zM285 1669l174 285h204l174 -285h-124l-152 150l-152 -150h-124zM430 618h244l-123 646z" />
<glyph unicode="&#xc3;" horiz-adv-x="1120" d="M18 0l347 1540h385l350 -1540h-309l-76 387h-330l-74 -387h-293zM280 1681q20 116 65 174t114 58q15 0 30.5 -2t30.5 -6l110 -33q11 -3 23 -4.5t25 -1.5q30 0 49 19t27 56h88q-17 -112 -66 -174.5t-121 -62.5q-14 0 -26 2t-25 6l-121 35q-8 3 -16 4.5t-17 1.5 q-32 0 -53 -18.5t-29 -53.5h-88zM430 618h244l-123 646z" />
<glyph unicode="&#xc4;" horiz-adv-x="1120" d="M18 0l347 1540h385l350 -1540h-309l-76 387h-330l-74 -387h-293zM280 1692v237h220v-237h-220zM430 618h244l-123 646zM622 1692v237h220v-237h-220z" />
<glyph unicode="&#xc5;" horiz-adv-x="1120" d="M18 0l347 1518h385l350 -1518h-309l-76 387h-330l-74 -387h-293zM356 1772q0 82 59 141t142 59t141 -58.5t58 -141.5q0 -84 -58 -142.5t-141 -58.5t-142 59t-59 142zM430 618h244l-123 646zM475 1772q0 -32 24.5 -56t57.5 -24t55.5 23t22.5 57q0 33 -22 55t-56 22 t-58 -22.5t-24 -54.5z" />
<glyph unicode="&#xc6;" horiz-adv-x="1567" d="M-45 0l584 1540h946v-256h-494v-358h461v-240h-461v-428h498v-258h-772v393h-326l-131 -393h-305zM465 612h252v672h-37z" />
<glyph unicode="&#xc7;" horiz-adv-x="1122" d="M100 788q0 238 19 378.5t59 209.5q62 106 154 153.5t235 47.5q234 0 340.5 -122t107.5 -392h-278v37q0 125 -40.5 186.5t-123.5 61.5q-103 0 -140.5 -85t-37.5 -470q0 -416 36.5 -506t139.5 -90q96 0 134 70.5t38 260.5v21h279q0 -10 1 -29.5t1 -30.5 q0 -267 -112.5 -396.5t-344.5 -129.5q-110 0 -189 28.5t-136 88.5q-78 80 -110 220t-32 488zM321 -319q95 -16 140.5 -21.5t72.5 -5.5q44 0 65 17.5t21 54.5q0 31 -25 46t-79 15h-23v213h115v-83q98 -9 149.5 -58.5t51.5 -134.5q0 -100 -66.5 -154.5t-187.5 -54.5 q-42 0 -98 6.5t-136 21.5v138z" />
<glyph unicode="&#xc8;" horiz-adv-x="1014" d="M131 0v1540h791v-256h-506v-356h471v-244h-471v-424h518v-260h-803zM229 1954h256l174 -285h-125z" />
<glyph unicode="&#xc9;" horiz-adv-x="1014" d="M131 0v1540h791v-256h-506v-356h471v-244h-471v-424h518v-260h-803zM377 1669l174 285h256l-305 -285h-125z" />
<glyph unicode="&#xca;" horiz-adv-x="1014" d="M131 0v1540h791v-256h-506v-356h471v-244h-471v-424h518v-260h-803zM242 1669l174 285h204l174 -285h-124l-152 150l-152 -150h-124z" />
<glyph unicode="&#xcb;" horiz-adv-x="1014" d="M131 0v1540h791v-256h-506v-356h471v-244h-471v-424h518v-260h-803zM237 1692v237h220v-237h-220zM579 1692v237h220v-237h-220z" />
<glyph unicode="&#xcc;" horiz-adv-x="549" d="M-15 1954h256l174 -285h-125zM131 0v1540h287v-1540h-287z" />
<glyph unicode="&#xcd;" horiz-adv-x="549" d="M131 0v1540h287v-1540h-287zM133 1669l174 285h256l-305 -285h-125z" />
<glyph unicode="&#xce;" horiz-adv-x="549" d="M-2 1669l174 285h204l174 -285h-124l-152 150l-152 -150h-124zM131 0v1540h287v-1540h-287z" />
<glyph unicode="&#xcf;" horiz-adv-x="549" d="M-7 1692v237h220v-237h-220zM131 0v1540h287v-1540h-287zM335 1692v237h220v-237h-220z" />
<glyph unicode="&#xd0;" horiz-adv-x="1208" d="M-8 715v205h143v620h461q141 0 224.5 -24t137.5 -78q82 -80 116 -202t34 -372q0 -320 -23.5 -458.5t-78.5 -235.5q-54 -95 -148.5 -132.5t-327.5 -37.5h-395v715h-143zM416 227h129q97 0 135 14t61 48q40 60 57 164.5t17 334.5q0 229 -19.5 329t-66.5 151 q-24 26 -64 36.5t-124 10.5h-125v-395h231v-205h-231v-488z" />
<glyph unicode="&#xd1;" horiz-adv-x="1221" d="M131 0v1540h295l401 -1077l-8 1077h271v-1540h-293l-404 1079l8 -1079h-270zM329 1681q20 116 65 174t114 58q15 0 30.5 -2t30.5 -6l110 -33q11 -3 23 -4.5t25 -1.5q30 0 49 19t27 56h88q-17 -112 -66 -174.5t-121 -62.5q-14 0 -26 2t-25 6l-121 35q-8 3 -16 4.5t-17 1.5 q-32 0 -53 -18.5t-29 -53.5h-88z" />
<glyph unicode="&#xd2;" horiz-adv-x="1202" d="M100 770q0 245 23 391.5t72 220.5q67 105 160 150t245 45t245 -45t161 -150q49 -76 71.5 -222t22.5 -390q0 -243 -23 -389.5t-71 -222.5q-68 -105 -161 -150t-245 -45t-245 45t-160 150q-49 74 -72 220.5t-23 391.5zM313 1954h256l174 -285h-125zM393 770 q0 -380 44.5 -478.5t164.5 -98.5q118 0 161.5 96.5t43.5 480.5t-44 482t-163 98t-163 -98t-44 -482z" />
<glyph unicode="&#xd3;" horiz-adv-x="1202" d="M100 770q0 245 23 391.5t72 220.5q67 105 160 150t245 45t245 -45t161 -150q49 -76 71.5 -222t22.5 -390q0 -243 -23 -389.5t-71 -222.5q-68 -105 -161 -150t-245 -45t-245 45t-160 150q-49 74 -72 220.5t-23 391.5zM393 770q0 -380 44.5 -478.5t164.5 -98.5 q118 0 161.5 96.5t43.5 480.5t-44 482t-163 98t-163 -98t-44 -482zM461 1669l174 285h256l-305 -285h-125z" />
<glyph unicode="&#xd4;" horiz-adv-x="1202" d="M100 770q0 245 23 391.5t72 220.5q67 105 160 150t245 45t245 -45t161 -150q49 -76 71.5 -222t22.5 -390q0 -243 -23 -389.5t-71 -222.5q-68 -105 -161 -150t-245 -45t-245 45t-160 150q-49 74 -72 220.5t-23 391.5zM326 1669l174 285h204l174 -285h-124l-152 150 l-152 -150h-124zM393 770q0 -380 44.5 -478.5t164.5 -98.5q118 0 161.5 96.5t43.5 480.5t-44 482t-163 98t-163 -98t-44 -482z" />
<glyph unicode="&#xd5;" horiz-adv-x="1202" d="M100 770q0 245 23 391.5t72 220.5q67 105 160 150t245 45t245 -45t161 -150q49 -76 71.5 -222t22.5 -390q0 -243 -23 -389.5t-71 -222.5q-68 -105 -161 -150t-245 -45t-245 45t-160 150q-49 74 -72 220.5t-23 391.5zM321 1681q20 116 65 174t114 58q15 0 30.5 -2t30.5 -6 l110 -33q11 -3 23 -4.5t25 -1.5q30 0 49 19t27 56h88q-17 -112 -66 -174.5t-121 -62.5q-14 0 -26 2t-25 6l-121 35q-8 3 -16 4.5t-17 1.5q-32 0 -53 -18.5t-29 -53.5h-88zM393 770q0 -380 44.5 -478.5t164.5 -98.5q118 0 161.5 96.5t43.5 480.5t-44 482t-163 98t-163 -98 t-44 -482z" />
<glyph unicode="&#xd6;" horiz-adv-x="1202" d="M100 770q0 245 23 391.5t72 220.5q67 105 160 150t245 45t245 -45t161 -150q49 -76 71.5 -222t22.5 -390q0 -243 -23 -389.5t-71 -222.5q-68 -105 -161 -150t-245 -45t-245 45t-160 150q-49 74 -72 220.5t-23 391.5zM321 1692v237h220v-237h-220zM393 770 q0 -380 44.5 -478.5t164.5 -98.5q118 0 161.5 96.5t43.5 480.5t-44 482t-163 98t-163 -98t-44 -482zM663 1692v237h220v-237h-220z" />
<glyph unicode="&#xd7;" horiz-adv-x="1706" d="M276 160l451 450l-451 453l140 139l450 -450l451 450l141 -139l-450 -453l450 -450l-141 -140l-451 451l-450 -451z" />
<glyph unicode="&#xd8;" horiz-adv-x="1202" d="M37 -12l133 219q-36 91 -53 227.5t-17 337.5q0 238 24.5 393.5t74.5 229.5q63 94 158.5 138t238.5 44q118 0 204 -29t148 -90l82 137l131 -84l-117 -194q30 -95 45 -240.5t15 -339.5q0 -229 -26.5 -375.5t-82.5 -228.5q-63 -92 -152 -131t-247 -39q-114 0 -192 24.5 t-138 78.5l-100 -160zM393 727q0 -30 1 -66.5l3 -109.5l389 627q-7 87 -51.5 129.5t-128.5 42.5q-123 0 -168 -98t-45 -525zM420 338q11 -76 51 -110.5t117 -34.5q128 0 174.5 95t46.5 433q0 99 -1 148t-3 92z" />
<glyph unicode="&#xd9;" horiz-adv-x="1223" d="M131 477v1063h287v-1038q0 -178 43.5 -241.5t154.5 -63.5q110 0 152.5 64t42.5 245v1034h283v-1063q0 -155 -17.5 -226.5t-58.5 -125.5q-62 -81 -164 -121.5t-242 -40.5q-264 0 -372.5 114.5t-108.5 399.5zM323 1954h256l174 -285h-125z" />
<glyph unicode="&#xda;" horiz-adv-x="1223" d="M131 477v1063h287v-1038q0 -178 43.5 -241.5t154.5 -63.5q110 0 152.5 64t42.5 245v1034h283v-1063q0 -155 -17.5 -226.5t-58.5 -125.5q-62 -81 -164 -121.5t-242 -40.5q-264 0 -372.5 114.5t-108.5 399.5zM471 1669l174 285h256l-305 -285h-125z" />
<glyph unicode="&#xdb;" horiz-adv-x="1223" d="M131 477v1063h287v-1038q0 -178 43.5 -241.5t154.5 -63.5q110 0 152.5 64t42.5 245v1034h283v-1063q0 -155 -17.5 -226.5t-58.5 -125.5q-62 -81 -164 -121.5t-242 -40.5q-264 0 -372.5 114.5t-108.5 399.5zM336 1669l174 285h204l174 -285h-124l-152 150l-152 -150h-124z " />
<glyph unicode="&#xdc;" horiz-adv-x="1223" d="M131 477v1063h287v-1038q0 -178 43.5 -241.5t154.5 -63.5q110 0 152.5 64t42.5 245v1034h283v-1063q0 -155 -17.5 -226.5t-58.5 -125.5q-62 -81 -164 -121.5t-242 -40.5q-264 0 -372.5 114.5t-108.5 399.5zM331 1692v237h220v-237h-220zM673 1692v237h220v-237h-220z" />
<glyph unicode="&#xdd;" horiz-adv-x="1126" d="M18 1540h318l233 -579l230 579h309l-397 -887v-653h-289v653zM422 1669l174 285h256l-305 -285h-125z" />
<glyph unicode="&#xde;" horiz-adv-x="1116" d="M131 0v1540h285v-276h213q226 0 327 -101.5t101 -326.5q0 -235 -105.5 -347t-326.5 -112h-209v-377h-285zM408 590h120q135 0 188.5 51t53.5 178q0 129 -49.5 178.5t-188.5 49.5h-124v-457z" />
<glyph unicode="&#xdf;" horiz-adv-x="995" d="M117 0v1090q0 244 86 350t282 106q188 0 286.5 -95.5t98.5 -274.5q0 -114 -36 -188.5t-107 -106.5q94 -42 136 -142t42 -286q0 -240 -72.5 -353.5t-224.5 -113.5q-42 0 -74.5 6.5t-58.5 20.5v199q22 -10 36.5 -14.5t27.5 -4.5q56 0 78 56t22 228q0 175 -30 236t-107 61 h-15l1 184q4 -1 9 -1.5t13 -0.5q56 0 80 44t24 147q0 105 -28 150.5t-92 45.5t-90.5 -46t-26.5 -160v-1137h-260z" />
<glyph unicode="&#xe0;" horiz-adv-x="993" d="M92 305q0 143 64.5 227.5t255.5 169.5q19 9 54 24q157 67 157 157q0 55 -30.5 84.5t-88.5 29.5q-73 0 -107.5 -39t-34.5 -122v-23h-260q0 195 95.5 284t306.5 89t296 -81.5t85 -285.5v-653q0 -48 9 -87.5t30 -78.5h-260q-9 13 -15.5 39t-13.5 73q-42 -70 -108.5 -106.5 t-155.5 -36.5q-132 0 -205.5 89t-73.5 247zM209 1565h256l174 -285h-125zM369 328q0 -77 28.5 -113.5t89.5 -36.5q70 0 105 61t35 183v184q-151 -76 -204.5 -136t-53.5 -142z" />
<glyph unicode="&#xe1;" horiz-adv-x="993" d="M92 305q0 143 64.5 227.5t255.5 169.5q19 9 54 24q157 67 157 157q0 55 -30.5 84.5t-88.5 29.5q-73 0 -107.5 -39t-34.5 -122v-23h-260q0 195 95.5 284t306.5 89t296 -81.5t85 -285.5v-653q0 -48 9 -87.5t30 -78.5h-260q-9 13 -15.5 39t-13.5 73q-42 -70 -108.5 -106.5 t-155.5 -36.5q-132 0 -205.5 89t-73.5 247zM357 1280l174 285h256l-305 -285h-125zM369 328q0 -77 28.5 -113.5t89.5 -36.5q70 0 105 61t35 183v184q-151 -76 -204.5 -136t-53.5 -142z" />
<glyph unicode="&#xe2;" horiz-adv-x="993" d="M92 305q0 143 64.5 227.5t255.5 169.5q19 9 54 24q157 67 157 157q0 55 -30.5 84.5t-88.5 29.5q-73 0 -107.5 -39t-34.5 -122v-23h-260q0 195 95.5 284t306.5 89t296 -81.5t85 -285.5v-653q0 -48 9 -87.5t30 -78.5h-260q-9 13 -15.5 39t-13.5 73q-42 -70 -108.5 -106.5 t-155.5 -36.5q-132 0 -205.5 89t-73.5 247zM222 1280l174 285h204l174 -285h-124l-152 150l-152 -150h-124zM369 328q0 -77 28.5 -113.5t89.5 -36.5q70 0 105 61t35 183v184q-151 -76 -204.5 -136t-53.5 -142z" />
<glyph unicode="&#xe3;" horiz-adv-x="993" d="M92 305q0 143 64.5 227.5t255.5 169.5q19 9 54 24q157 67 157 157q0 55 -30.5 84.5t-88.5 29.5q-73 0 -107.5 -39t-34.5 -122v-23h-260q0 195 95.5 284t306.5 89t296 -81.5t85 -285.5v-653q0 -48 9 -87.5t30 -78.5h-260q-9 13 -15.5 39t-13.5 73q-42 -70 -108.5 -106.5 t-155.5 -36.5q-132 0 -205.5 89t-73.5 247zM217 1292q20 116 65 174t114 58q15 0 30.5 -2t30.5 -6l110 -33q11 -3 23 -4.5t25 -1.5q30 0 49 19t27 56h88q-17 -112 -66 -174.5t-121 -62.5q-14 0 -26 2t-25 6l-121 35q-8 3 -16 4.5t-17 1.5q-32 0 -53 -18.5t-29 -53.5h-88z M369 328q0 -77 28.5 -113.5t89.5 -36.5q70 0 105 61t35 183v184q-151 -76 -204.5 -136t-53.5 -142z" />
<glyph unicode="&#xe4;" horiz-adv-x="993" d="M92 305q0 143 64.5 227.5t255.5 169.5q19 9 54 24q157 67 157 157q0 55 -30.5 84.5t-88.5 29.5q-73 0 -107.5 -39t-34.5 -122v-23h-260q0 195 95.5 284t306.5 89t296 -81.5t85 -285.5v-653q0 -48 9 -87.5t30 -78.5h-260q-9 13 -15.5 39t-13.5 73q-42 -70 -108.5 -106.5 t-155.5 -36.5q-132 0 -205.5 89t-73.5 247zM217 1303v237h220v-237h-220zM369 328q0 -77 28.5 -113.5t89.5 -36.5q70 0 105 61t35 183v184q-151 -76 -204.5 -136t-53.5 -142zM559 1303v237h220v-237h-220z" />
<glyph unicode="&#xe5;" horiz-adv-x="993" d="M92 305q0 143 64.5 227.5t255.5 169.5q19 9 54 24q157 67 157 157q0 55 -30.5 84.5t-88.5 29.5q-73 0 -107.5 -39t-34.5 -122v-23h-260q0 195 95.5 284t306.5 89t296 -81.5t85 -285.5v-653q0 -48 9 -87.5t30 -78.5h-260q-9 13 -15.5 39t-13.5 73q-42 -70 -108.5 -106.5 t-155.5 -36.5q-132 0 -205.5 89t-73.5 247zM328 1444q0 83 58 142t140 59q83 0 142 -59t59 -142t-59 -142t-142 -59q-82 0 -140 59t-58 142zM369 328q0 -77 28.5 -113.5t89.5 -36.5q70 0 105 61t35 183v184q-151 -76 -204.5 -136t-53.5 -142zM446 1444q0 -32 24 -56t56 -24 q33 0 56.5 23.5t23.5 56.5t-23 55.5t-57 22.5q-33 0 -56.5 -23t-23.5 -55z" />
<glyph unicode="&#xe6;" horiz-adv-x="1450" d="M94 309q0 130 56.5 215t181.5 142q32 14 88 38q192 82 192 173q0 61 -33 91.5t-100 30.5q-63 0 -97 -43t-34 -122v-15h-250v21q0 173 97.5 260.5t289.5 87.5q98 0 167 -19t116 -59q37 39 95 58.5t134 19.5q200 0 288.5 -123.5t88.5 -405.5q0 -19 -0.5 -43t-3.5 -75h-496 v-84q0 -175 27.5 -232t99.5 -57q61 0 89 51t28 164v14h248v-32q0 -200 -90 -299t-272 -99q-95 0 -163 29.5t-116 91.5q-47 -61 -119 -91t-176 -30q-169 0 -252.5 85t-83.5 257zM360 319q0 -71 31.5 -111t85.5 -40q76 0 106.5 54.5t30.5 205.5v176q-13 -8 -37 -23 q-217 -133 -217 -262zM874 725h250v33q0 127 -29 177t-100 50q-63 0 -92 -51.5t-29 -167.5v-41z" />
<glyph unicode="&#xe7;" horiz-adv-x="930" d="M82 578q0 350 86.5 480t304.5 130q191 0 282 -95t91 -294v-41h-256v26q0 105 -27 151t-88 46q-62 0 -89.5 -45t-27.5 -150v-399q0 -119 26 -166t89 -47q68 0 94.5 54t26.5 202v25l252 -1q1 -12 1.5 -25.5t0.5 -39.5q0 -215 -91.5 -317.5t-283.5 -102.5q-218 0 -304.5 129 t-86.5 480zM225 -319q95 -16 140.5 -21.5t72.5 -5.5q44 0 65 17.5t21 54.5q0 31 -25 46t-79 15h-23v213h115v-83q98 -9 149.5 -58.5t51.5 -134.5q0 -100 -66.5 -154.5t-187.5 -54.5q-42 0 -98 6.5t-136 21.5v138z" />
<glyph unicode="&#xe8;" horiz-adv-x="975" d="M84 616q0 211 20 302t68 149q50 60 130.5 90.5t191.5 30.5q107 0 184.5 -32.5t128.5 -98.5q43 -58 61.5 -145.5t18.5 -282.5v-88h-526q-2 -13 -2.5 -27.5t-0.5 -46.5q0 -165 30.5 -231t103.5 -66q71 0 103 53.5t32 173.5h252q0 -8 1 -23t1 -22q0 -198 -94.5 -290.5 t-299.5 -92.5q-108 0 -181 27t-120 84q-56 67 -79 169t-23 367zM198 1565h256l174 -285h-125zM356 774l1 -16.5t1 -32.5h260v49q0 119 -29 164t-102 45q-71 0 -101 -46.5t-30 -162.5z" />
<glyph unicode="&#xe9;" horiz-adv-x="975" d="M84 616q0 211 20 302t68 149q50 60 130.5 90.5t191.5 30.5q107 0 184.5 -32.5t128.5 -98.5q43 -58 61.5 -145.5t18.5 -282.5v-88h-526q-2 -13 -2.5 -27.5t-0.5 -46.5q0 -165 30.5 -231t103.5 -66q71 0 103 53.5t32 173.5h252q0 -8 1 -23t1 -22q0 -198 -94.5 -290.5 t-299.5 -92.5q-108 0 -181 27t-120 84q-56 67 -79 169t-23 367zM346 1280l174 285h256l-305 -285h-125zM356 774l1 -16.5t1 -32.5h260v49q0 119 -29 164t-102 45q-71 0 -101 -46.5t-30 -162.5z" />
<glyph unicode="&#xea;" horiz-adv-x="975" d="M84 616q0 211 20 302t68 149q50 60 130.5 90.5t191.5 30.5q107 0 184.5 -32.5t128.5 -98.5q43 -58 61.5 -145.5t18.5 -282.5v-88h-526q-2 -13 -2.5 -27.5t-0.5 -46.5q0 -165 30.5 -231t103.5 -66q71 0 103 53.5t32 173.5h252q0 -8 1 -23t1 -22q0 -198 -94.5 -290.5 t-299.5 -92.5q-108 0 -181 27t-120 84q-56 67 -79 169t-23 367zM211 1280l174 285h204l174 -285h-124l-152 150l-152 -150h-124zM356 774l1 -16.5t1 -32.5h260v49q0 119 -29 164t-102 45q-71 0 -101 -46.5t-30 -162.5z" />
<glyph unicode="&#xeb;" horiz-adv-x="975" d="M84 616q0 211 20 302t68 149q50 60 130.5 90.5t191.5 30.5q107 0 184.5 -32.5t128.5 -98.5q43 -58 61.5 -145.5t18.5 -282.5v-88h-526q-2 -13 -2.5 -27.5t-0.5 -46.5q0 -165 30.5 -231t103.5 -66q71 0 103 53.5t32 173.5h252q0 -8 1 -23t1 -22q0 -198 -94.5 -290.5 t-299.5 -92.5q-108 0 -181 27t-120 84q-56 67 -79 169t-23 367zM206 1303v237h220v-237h-220zM356 774l1 -16.5t1 -32.5h260v49q0 119 -29 164t-102 45q-71 0 -101 -46.5t-30 -162.5zM548 1303v237h220v-237h-220z" />
<glyph unicode="&#xec;" horiz-adv-x="496" d="M-41 1565h256l174 -285h-125zM115 0v1157h266v-1157h-266z" />
<glyph unicode="&#xed;" horiz-adv-x="496" d="M107 1280l174 285h256l-305 -285h-125zM115 0v1157h266v-1157h-266z" />
<glyph unicode="&#xee;" horiz-adv-x="496" d="M-28 1280l174 285h204l174 -285h-124l-152 150l-152 -150h-124zM115 0v1157h266v-1157h-266z" />
<glyph unicode="&#xef;" horiz-adv-x="496" d="M-33 1303v237h220v-237h-220zM115 0v1157h266v-1157h-266zM309 1303v237h220v-237h-220z" />
<glyph unicode="&#xf0;" horiz-adv-x="979" d="M82 543q0 304 80.5 436.5t261.5 132.5q39 0 70.5 -11.5t60.5 -35.5q-38 57 -76.5 99t-77.5 69l-264 -146l-55 107l221 119q-43 27 -78.5 48.5t-62.5 37.5l47 141q79 -40 141.5 -75.5t116.5 -71.5l258 145l66 -111l-216 -116q172 -127 247 -304.5t75 -463.5 q0 -329 -90 -451.5t-318 -122.5q-227 0 -317 122.5t-90 451.5zM356 537q0 -248 27 -305.5t104 -57.5q80 0 108 56.5t28 318.5v78q0 201 -28.5 254t-105.5 53q-76 0 -104.5 -51.5t-28.5 -257.5v-39v-49z" />
<glyph unicode="&#xf1;" horiz-adv-x="993" d="M117 0v1157h262v-117q42 73 103 110.5t139 37.5q126 0 193 -72t67 -207v-909h-258v776q0 102 -26 143.5t-87 41.5q-67 0 -96 -51t-29 -173v-737h-268zM217 1292q20 116 65 174t114 58q15 0 30.5 -2t30.5 -6l110 -33q11 -3 23 -4.5t25 -1.5q30 0 49 19t27 56h88 q-17 -112 -66 -174.5t-121 -62.5q-14 0 -26 2t-25 6l-121 35q-8 3 -16 4.5t-17 1.5q-32 0 -53 -18.5t-29 -53.5h-88z" />
<glyph unicode="&#xf2;" horiz-adv-x="979" d="M82 578q0 350 90 480t317 130q228 0 318 -130t90 -480t-90 -479.5t-318 -129.5q-227 0 -317 129.5t-90 479.5zM200 1565h256l174 -285h-125zM356 563q0 -269 27 -329t104 -60q80 0 108 56.5t28 293.5v47v66q0 227 -28.5 285.5t-105.5 58.5q-76 0 -104.5 -53.5 t-28.5 -257.5v-80v-27z" />
<glyph unicode="&#xf3;" horiz-adv-x="979" d="M82 578q0 350 90 480t317 130q228 0 318 -130t90 -480t-90 -479.5t-318 -129.5q-227 0 -317 129.5t-90 479.5zM348 1280l174 285h256l-305 -285h-125zM356 563q0 -269 27 -329t104 -60q80 0 108 56.5t28 293.5v47v66q0 227 -28.5 285.5t-105.5 58.5q-76 0 -104.5 -53.5 t-28.5 -257.5v-80v-27z" />
<glyph unicode="&#xf4;" horiz-adv-x="979" d="M82 578q0 350 90 480t317 130q228 0 318 -130t90 -480t-90 -479.5t-318 -129.5q-227 0 -317 129.5t-90 479.5zM213 1280l174 285h204l174 -285h-124l-152 150l-152 -150h-124zM356 563q0 -269 27 -329t104 -60q80 0 108 56.5t28 293.5v47v66q0 227 -28.5 285.5 t-105.5 58.5q-76 0 -104.5 -53.5t-28.5 -257.5v-80v-27z" />
<glyph unicode="&#xf5;" horiz-adv-x="979" d="M82 578q0 350 90 480t317 130q228 0 318 -130t90 -480t-90 -479.5t-318 -129.5q-227 0 -317 129.5t-90 479.5zM208 1292q20 116 65 174t114 58q15 0 30.5 -2t30.5 -6l110 -33q11 -3 23 -4.5t25 -1.5q30 0 49 19t27 56h88q-17 -112 -66 -174.5t-121 -62.5q-14 0 -26 2 t-25 6l-121 35q-8 3 -16 4.5t-17 1.5q-32 0 -53 -18.5t-29 -53.5h-88zM356 563q0 -269 27 -329t104 -60q80 0 108 56.5t28 293.5v47v66q0 227 -28.5 285.5t-105.5 58.5q-76 0 -104.5 -53.5t-28.5 -257.5v-80v-27z" />
<glyph unicode="&#xf6;" horiz-adv-x="979" d="M82 578q0 350 90 480t317 130q228 0 318 -130t90 -480t-90 -479.5t-318 -129.5q-227 0 -317 129.5t-90 479.5zM208 1303v237h220v-237h-220zM356 563q0 -269 27 -329t104 -60q80 0 108 56.5t28 293.5v47v66q0 227 -28.5 285.5t-105.5 58.5q-76 0 -104.5 -53.5 t-28.5 -257.5v-80v-27zM550 1303v237h220v-237h-220z" />
<glyph unicode="&#xf7;" horiz-adv-x="1706" d="M254 512v199h1198v-199h-1198zM702 217q0 63 44.5 107.5t107.5 44.5q62 0 107 -45t45 -107q0 -61 -45 -105t-107 -44q-63 0 -107.5 43t-44.5 106zM702 1004q0 63 44.5 107t107.5 44q62 0 107 -44.5t45 -106.5q0 -63 -44.5 -107.5t-107.5 -44.5t-107.5 44.5t-44.5 107.5z " />
<glyph unicode="&#xf8;" horiz-adv-x="979" d="M-4 -49l139 213q-28 70 -40.5 158t-12.5 217q0 176 11 274t36 168q36 101 128 154t232 53q91 0 155.5 -19.5t115.5 -62.5l106 166l99 -74l-125 -192q30 -76 43.5 -170t13.5 -234q0 -370 -89.5 -501.5t-318.5 -131.5q-95 0 -160.5 20.5t-117.5 65.5l-117 -176zM350 688 q0 -28 1 -100t1 -117l266 401q-10 58 -41.5 85.5t-87.5 27.5q-79 0 -109 -58t-30 -239zM363 304q1 -69 31.5 -101.5t92.5 -32.5q80 0 110 48t30 212v277z" />
<glyph unicode="&#xf9;" horiz-adv-x="991" d="M113 248v909h258v-756q0 -115 26 -158.5t88 -43.5q68 0 95.5 48t27.5 171v739h269v-1157h-263v115q-41 -72 -102.5 -109t-140.5 -37q-126 0 -192 71.5t-66 207.5zM207 1565h256l174 -285h-125z" />
<glyph unicode="&#xfa;" horiz-adv-x="991" d="M113 248v909h258v-756q0 -115 26 -158.5t88 -43.5q68 0 95.5 48t27.5 171v739h269v-1157h-263v115q-41 -72 -102.5 -109t-140.5 -37q-126 0 -192 71.5t-66 207.5zM355 1280l174 285h256l-305 -285h-125z" />
<glyph unicode="&#xfb;" horiz-adv-x="991" d="M113 248v909h258v-756q0 -115 26 -158.5t88 -43.5q68 0 95.5 48t27.5 171v739h269v-1157h-263v115q-41 -72 -102.5 -109t-140.5 -37q-126 0 -192 71.5t-66 207.5zM220 1280l174 285h204l174 -285h-124l-152 150l-152 -150h-124z" />
<glyph unicode="&#xfc;" horiz-adv-x="991" d="M113 248v909h258v-756q0 -115 26 -158.5t88 -43.5q68 0 95.5 48t27.5 171v739h269v-1157h-263v115q-41 -72 -102.5 -109t-140.5 -37q-126 0 -192 71.5t-66 207.5zM215 1303v237h220v-237h-220zM557 1303v237h220v-237h-220z" />
<glyph unicode="&#xfd;" horiz-adv-x="909" d="M20 1157h283l160 -835l155 835h271l-301 -1266q-40 -165 -106.5 -221.5t-211.5 -56.5q-22 0 -45.5 2t-48.5 6v200q8 0 17 -0.5t26 -0.5q57 0 83 18.5t26 59.5q0 13 -3 31t-8 35zM314 1280l174 285h256l-305 -285h-125z" />
<glyph unicode="&#xfe;" horiz-adv-x="995" d="M117 -389v1929h268v-491q23 66 81 102.5t140 36.5q168 0 236.5 -133t68.5 -471q0 -357 -67 -486t-238 -129q-77 0 -132 32.5t-89 96.5v-487h-268zM377 653q0 -307 29.5 -382.5t109.5 -75.5q71 0 97 65t26 322q0 249 -26 317t-97 68q-79 0 -109 -61t-30 -253z" />
<glyph unicode="&#xff;" horiz-adv-x="909" d="M20 1157h283l160 -835l155 835h271l-301 -1266q-40 -165 -106.5 -221.5t-211.5 -56.5q-22 0 -45.5 2t-48.5 6v200q8 0 17 -0.5t26 -0.5q57 0 83 18.5t26 59.5q0 13 -3 31t-8 35zM174 1303v237h220v-237h-220zM516 1303v237h220v-237h-220z" />
<glyph unicode="&#x152;" horiz-adv-x="1667" d="M104 762q0 230 17 369.5t53 211.5q60 119 155.5 176.5t231.5 57.5q95 0 158 -36t100 -111v110h760v-256h-502v-358h469v-240h-469v-426h516v-260h-774v113q-35 -76 -102.5 -112t-175.5 -36q-236 0 -336.5 179.5t-100.5 617.5zM391 754q0 -325 50 -443t175 -118 q83 0 134 60t51 159v739q0 89 -53 143t-140 54q-121 0 -169 -121.5t-48 -472.5z" />
<glyph unicode="&#x153;" horiz-adv-x="1425" d="M86 561q0 189 13 304t40 163q45 83 120 121.5t192 38.5q92 0 156.5 -30.5t115.5 -98.5q49 65 116 97t156 32q88 0 158.5 -32t114.5 -91q42 -56 60 -133.5t18 -259.5v-27v-110h-484v-72q0 -196 24.5 -244.5t94.5 -48.5q63 0 89 43t26 152v30h245v-43q0 -197 -83 -290 t-259 -93q-105 0 -167 27.5t-103 89.5q-42 -61 -112 -89t-183 -28q-198 0 -273 121t-75 471zM346 571q0 -269 26.5 -335t100.5 -66q73 0 101 57t28 230v164q0 228 -27.5 293t-101.5 65q-73 0 -100 -54t-27 -272v-82zM862 784q0 -8 1 -28.5t1 -32.5h232v90q0 87 -29.5 126.5 t-93.5 39.5q-60 0 -85.5 -45t-25.5 -150z" />
<glyph unicode="&#x178;" horiz-adv-x="1126" d="M18 1540h318l233 -579l230 579h309l-397 -887v-653h-289v653zM282 1692v237h220v-237h-220zM624 1692v237h220v-237h-220z" />
<glyph unicode="&#x2c6;" d="M236 1280l174 285h204l174 -285h-124l-152 150l-152 -150h-124z" />
<glyph unicode="&#x2dc;" d="M231 1292q20 116 65 174t114 58q15 0 30.5 -2t30.5 -6l110 -33q11 -3 23 -4.5t25 -1.5q30 0 49 19t27 56h88q-17 -112 -66 -174.5t-121 -62.5q-14 0 -26 2t-25 6l-121 35q-8 3 -16 4.5t-17 1.5q-32 0 -53 -18.5t-29 -53.5h-88z" />
<glyph unicode="&#x2000;" horiz-adv-x="986" />
<glyph unicode="&#x2001;" horiz-adv-x="1972" />
<glyph unicode="&#x2002;" horiz-adv-x="986" />
<glyph unicode="&#x2003;" horiz-adv-x="1972" />
<glyph unicode="&#x2004;" horiz-adv-x="657" />
<glyph unicode="&#x2005;" horiz-adv-x="493" />
<glyph unicode="&#x2006;" horiz-adv-x="328" />
<glyph unicode="&#x2007;" horiz-adv-x="328" />
<glyph unicode="&#x2008;" horiz-adv-x="246" />
<glyph unicode="&#x2009;" horiz-adv-x="394" />
<glyph unicode="&#x200a;" horiz-adv-x="109" />
<glyph unicode="&#x2010;" horiz-adv-x="672" d="M92 459v239h488v-239h-488z" />
<glyph unicode="&#x2011;" horiz-adv-x="672" d="M92 459v239h488v-239h-488z" />
<glyph unicode="&#x2012;" horiz-adv-x="672" d="M92 459v239h488v-239h-488z" />
<glyph unicode="&#x2013;" d="M0 498v161h1024v-161h-1024z" />
<glyph unicode="&#x2014;" horiz-adv-x="2048" d="M0 498v161h2048v-161h-2048z" />
<glyph unicode="&#x2018;" horiz-adv-x="512" d="M121 1038v277q0 104 67 175.5t181 86.5v-98q-60 -8 -94.5 -51.5t-34.5 -110.5v-17h127v-262h-246z" />
<glyph unicode="&#x2019;" horiz-adv-x="512" d="M121 1004v98q60 8 93.5 50.5t33.5 111.5v16h-127v260h248v-274q0 -105 -67.5 -176t-180.5 -86z" />
<glyph unicode="&#x201a;" horiz-adv-x="512" d="M121 0v262h248v-276q0 -104 -67 -174.5t-181 -85.5v98q60 8 93.5 49.5t33.5 110.5v16h-127z" />
<glyph unicode="&#x201c;" horiz-adv-x="907" d="M121 1038v277q0 104 67 175.5t181 86.5v-98q-60 -8 -94.5 -51.5t-34.5 -110.5v-17h127v-262h-246zM516 1038v277q0 104 67.5 175.5t180.5 86.5v-98q-60 -8 -94.5 -51.5t-34.5 -110.5v-17h127v-262h-246z" />
<glyph unicode="&#x201d;" horiz-adv-x="907" d="M121 1004v98q60 8 93.5 50.5t33.5 111.5v16h-127v260h248v-274q0 -105 -67.5 -176t-180.5 -86zM516 1004v98q60 8 93.5 50.5t33.5 111.5v16h-127v260h248v-274q0 -105 -67.5 -176t-180.5 -86z" />
<glyph unicode="&#x201e;" horiz-adv-x="907" d="M121 0v262h248v-276q0 -104 -67 -174.5t-181 -85.5v98q60 8 93.5 49.5t33.5 110.5v16h-127zM516 0v262h248v-276q0 -104 -67 -174.5t-181 -85.5v98q61 8 94 49.5t33 110.5v16h-127z" />
<glyph unicode="&#x2022;" horiz-adv-x="1208" d="M307 762q0 123 87 209t210 86q122 0 208.5 -86.5t86.5 -208.5t-87.5 -209.5t-209.5 -87.5q-123 0 -209 87t-86 210z" />
<glyph unicode="&#x2026;" horiz-adv-x="2048" d="M213 0v276h258v-276h-258zM895 0v276h258v-276h-258zM1579 0v276h258v-276h-258z" />
<glyph unicode="&#x202f;" horiz-adv-x="394" />
<glyph unicode="&#x2039;" horiz-adv-x="588" d="M137 475v207l314 283v-222l-193 -163l193 -166v-221z" />
<glyph unicode="&#x203a;" horiz-adv-x="588" d="M137 193v221l193 164l-193 165v222l314 -283v-207z" />
<glyph unicode="&#x205f;" horiz-adv-x="493" />
<glyph unicode="&#x20ac;" d="M-45 842l63 141h90q2 302 109 448t326 146q208 0 310 -116.5t103 -354.5h-286v12q0 129 -33.5 188.5t-106.5 59.5q-74 0 -104.5 -81.5t-30.5 -301.5h383l-63 -141h-320v-144h256l-63 -141h-192q1 -229 32 -306t109 -77q68 0 100.5 62.5t32.5 195.5v27h286v-31 q0 -232 -103 -348.5t-310 -116.5q-219 0 -326 146.5t-109 447.5h-128l63 141h66v144h-154z" />
<glyph unicode="&#x2122;" horiz-adv-x="1706" d="M207 1350v112h485v-112h-168v-435h-149v435h-168zM803 915v547h196l127 -332l123 332h197v-547h-135v410l-154 -410h-61l-158 410v-410h-135z" />
<glyph unicode="&#x25fc;" horiz-adv-x="1155" d="M0 0v1155h1155v-1155h-1155z" />
<glyph unicode="&#xfb01;" horiz-adv-x="1022" d="M37 958v199h104v115q0 149 57 211.5t191 62.5q27 0 59 -1.5t70 -4.5v-201q-5 0 -14 1t-12 1q-44 0 -63 -18t-19 -59v-107h108v-199h-108v-958h-269v958h-104zM647 0v1157h264v-1157h-264zM647 1300v240h264v-240h-264z" />
<glyph unicode="&#xfb02;" horiz-adv-x="1022" d="M37 958v199h104v115q0 149 57 211.5t191 62.5q27 0 59 -1.5t70 -4.5v-201q-5 0 -14 1t-12 1q-44 0 -63 -18t-19 -59v-107h108v-199h-108v-958h-269v958h-104zM647 0v1540h264v-1540h-264z" />
<hkern u1="&#x2d;" u2="&#x152;" k="-38" />
<hkern u1="&#x2d;" u2="&#xd8;" k="-38" />
<hkern u1="&#x2d;" u2="Y" k="167" />
<hkern u1="&#x2d;" u2="X" k="73" />
<hkern u1="&#x2d;" u2="W" k="36" />
<hkern u1="&#x2d;" u2="V" k="73" />
<hkern u1="&#x2d;" u2="T" k="120" />
<hkern u1="&#x2d;" u2="O" k="-38" />
<hkern u1="&#x2d;" u2="J" k="-75" />
<hkern u1="&#x2d;" u2="G" k="-38" />
<hkern u1="&#x2d;" u2="C" k="-38" />
<hkern u1="A" u2="&#x201e;" k="-38" />
<hkern u1="A" u2="&#x201d;" k="178" />
<hkern u1="A" u2="&#x201c;" k="149" />
<hkern u1="A" u2="&#x201a;" k="-38" />
<hkern u1="A" u2="&#x2019;" k="178" />
<hkern u1="A" u2="&#x2018;" k="149" />
<hkern u1="A" u2="Y" k="120" />
<hkern u1="A" u2="T" k="112" />
<hkern u1="A" u2="A" k="-38" />
<hkern u1="A" u2="&#x3b;" k="-38" />
<hkern u1="A" u2="&#x3a;" k="-38" />
<hkern u1="A" u2="&#x2e;" k="-38" />
<hkern u1="A" u2="&#x2c;" k="-38" />
<hkern u1="B" u2="Y" k="36" />
<hkern u1="B" u2="W" k="36" />
<hkern u1="B" u2="V" k="36" />
<hkern u1="B" u2="&#x2d;" k="-38" />
<hkern u1="C" u2="S" k="-38" />
<hkern u1="C" u2="&#x2d;" k="-47" />
<hkern u1="D" u2="Y" k="36" />
<hkern u1="D" u2="&#x2d;" k="-38" />
<hkern u1="F" u2="&#x201e;" k="188" />
<hkern u1="F" u2="&#x201d;" k="-38" />
<hkern u1="F" u2="&#x201a;" k="188" />
<hkern u1="F" u2="&#x2019;" k="-38" />
<hkern u1="F" u2="&#x153;" k="45" />
<hkern u1="F" u2="&#xf8;" k="45" />
<hkern u1="F" u2="&#xe6;" k="45" />
<hkern u1="F" u2="&#xc5;" k="83" />
<hkern u1="F" u2="u" k="45" />
<hkern u1="F" u2="r" k="36" />
<hkern u1="F" u2="o" k="45" />
<hkern u1="F" u2="e" k="45" />
<hkern u1="F" u2="a" k="45" />
<hkern u1="F" u2="T" k="-38" />
<hkern u1="F" u2="A" k="83" />
<hkern u1="F" u2="&#x3b;" k="36" />
<hkern u1="F" u2="&#x3a;" k="36" />
<hkern u1="F" u2="&#x2e;" k="311" />
<hkern u1="F" u2="&#x2c;" k="311" />
<hkern u1="G" u2="Y" k="55" />
<hkern u1="G" u2="T" k="36" />
<hkern u1="K" u2="&#x2039;" k="73" />
<hkern u1="K" u2="&#x201e;" k="-38" />
<hkern u1="K" u2="&#x201a;" k="-38" />
<hkern u1="K" u2="&#x153;" k="36" />
<hkern u1="K" u2="&#xf8;" k="36" />
<hkern u1="K" u2="&#xab;" k="73" />
<hkern u1="K" u2="y" k="55" />
<hkern u1="K" u2="u" k="36" />
<hkern u1="K" u2="o" k="36" />
<hkern u1="K" u2="e" k="36" />
<hkern u1="K" u2="Y" k="55" />
<hkern u1="K" u2="W" k="36" />
<hkern u1="K" u2="U" k="55" />
<hkern u1="K" u2="T" k="36" />
<hkern u1="K" u2="&#x2d;" k="73" />
<hkern u1="L" u2="&#x2039;" k="73" />
<hkern u1="L" u2="&#x201d;" k="339" />
<hkern u1="L" u2="&#x201c;" k="339" />
<hkern u1="L" u2="&#x2019;" k="339" />
<hkern u1="L" u2="&#x2018;" k="339" />
<hkern u1="L" u2="&#x153;" k="36" />
<hkern u1="L" u2="&#x152;" k="73" />
<hkern u1="L" u2="&#xf8;" k="36" />
<hkern u1="L" u2="&#xe6;" k="36" />
<hkern u1="L" u2="&#xd8;" k="73" />
<hkern u1="L" u2="&#xab;" k="73" />
<hkern u1="L" u2="y" k="73" />
<hkern u1="L" u2="u" k="36" />
<hkern u1="L" u2="o" k="36" />
<hkern u1="L" u2="e" k="36" />
<hkern u1="L" u2="a" k="36" />
<hkern u1="L" u2="Y" k="225" />
<hkern u1="L" u2="W" k="139" />
<hkern u1="L" u2="V" k="188" />
<hkern u1="L" u2="U" k="73" />
<hkern u1="L" u2="T" k="167" />
<hkern u1="L" u2="O" k="73" />
<hkern u1="L" u2="&#x2d;" k="73" />
<hkern u1="O" u2="&#x201c;" k="-38" />
<hkern u1="O" u2="&#x2018;" k="-38" />
<hkern u1="O" u2="Y" k="55" />
<hkern u1="O" u2="X" k="36" />
<hkern u1="O" u2="&#x2e;" k="63" />
<hkern u1="O" u2="&#x2d;" k="-38" />
<hkern u1="O" u2="&#x2c;" k="63" />
<hkern u1="P" u2="&#x203a;" k="36" />
<hkern u1="P" u2="&#x2039;" k="73" />
<hkern u1="P" u2="&#x201e;" k="301" />
<hkern u1="P" u2="&#x201d;" k="-38" />
<hkern u1="P" u2="&#x201c;" k="-38" />
<hkern u1="P" u2="&#x201a;" k="301" />
<hkern u1="P" u2="&#x2019;" k="-38" />
<hkern u1="P" u2="&#x2018;" k="-38" />
<hkern u1="P" u2="&#x153;" k="36" />
<hkern u1="P" u2="&#xf8;" k="36" />
<hkern u1="P" u2="&#xe6;" k="55" />
<hkern u1="P" u2="&#xc5;" k="92" />
<hkern u1="P" u2="&#xbb;" k="36" />
<hkern u1="P" u2="&#xab;" k="73" />
<hkern u1="P" u2="o" k="36" />
<hkern u1="P" u2="e" k="36" />
<hkern u1="P" u2="a" k="55" />
<hkern u1="P" u2="A" k="92" />
<hkern u1="P" u2="&#x2e;" k="434" />
<hkern u1="P" u2="&#x2d;" k="92" />
<hkern u1="P" u2="&#x2c;" k="434" />
<hkern u1="R" u2="&#x2039;" k="-38" />
<hkern u1="R" u2="&#x201e;" k="-75" />
<hkern u1="R" u2="&#x201a;" k="-75" />
<hkern u1="R" u2="&#x153;" k="-38" />
<hkern u1="R" u2="&#xf8;" k="-38" />
<hkern u1="R" u2="&#xe6;" k="-38" />
<hkern u1="R" u2="&#xab;" k="-38" />
<hkern u1="R" u2="u" k="-38" />
<hkern u1="R" u2="o" k="-38" />
<hkern u1="R" u2="e" k="-38" />
<hkern u1="R" u2="a" k="-38" />
<hkern u1="R" u2="Y" k="36" />
<hkern u1="R" u2="&#x2e;" k="-38" />
<hkern u1="R" u2="&#x2d;" k="-38" />
<hkern u1="R" u2="&#x2c;" k="-38" />
<hkern u1="T" u2="&#x203a;" k="112" />
<hkern u1="T" u2="&#x2039;" k="149" />
<hkern u1="T" u2="&#x201e;" k="131" />
<hkern u1="T" u2="&#x201c;" k="-38" />
<hkern u1="T" u2="&#x201a;" k="131" />
<hkern u1="T" u2="&#x2018;" k="-38" />
<hkern u1="T" u2="&#x153;" k="178" />
<hkern u1="T" u2="&#xf8;" k="178" />
<hkern u1="T" u2="&#xe6;" k="178" />
<hkern u1="T" u2="&#xc5;" k="112" />
<hkern u1="T" u2="&#xbb;" k="112" />
<hkern u1="T" u2="&#xab;" k="149" />
<hkern u1="T" u2="y" k="178" />
<hkern u1="T" u2="w" k="178" />
<hkern u1="T" u2="u" k="149" />
<hkern u1="T" u2="s" k="178" />
<hkern u1="T" u2="r" k="139" />
<hkern u1="T" u2="o" k="178" />
<hkern u1="T" u2="e" k="178" />
<hkern u1="T" u2="c" k="178" />
<hkern u1="T" u2="a" k="178" />
<hkern u1="T" u2="T" k="-47" />
<hkern u1="T" u2="A" k="112" />
<hkern u1="T" u2="&#x3b;" k="149" />
<hkern u1="T" u2="&#x3a;" k="149" />
<hkern u1="T" u2="&#x2e;" k="206" />
<hkern u1="T" u2="&#x2d;" k="120" />
<hkern u1="T" u2="&#x2c;" k="206" />
<hkern u1="V" u2="&#x203a;" k="36" />
<hkern u1="V" u2="&#x2039;" k="73" />
<hkern u1="V" u2="&#x201e;" k="73" />
<hkern u1="V" u2="&#x201d;" k="-38" />
<hkern u1="V" u2="&#x201a;" k="73" />
<hkern u1="V" u2="&#x2019;" k="-38" />
<hkern u1="V" u2="&#x153;" k="92" />
<hkern u1="V" u2="&#xf8;" k="92" />
<hkern u1="V" u2="&#xe6;" k="92" />
<hkern u1="V" u2="&#xbb;" k="36" />
<hkern u1="V" u2="&#xab;" k="73" />
<hkern u1="V" u2="u" k="55" />
<hkern u1="V" u2="o" k="92" />
<hkern u1="V" u2="e" k="92" />
<hkern u1="V" u2="a" k="92" />
<hkern u1="V" u2="&#x3b;" k="36" />
<hkern u1="V" u2="&#x3a;" k="36" />
<hkern u1="V" u2="&#x2e;" k="188" />
<hkern u1="V" u2="&#x2d;" k="73" />
<hkern u1="V" u2="&#x2c;" k="188" />
<hkern u1="W" u2="&#x201e;" k="73" />
<hkern u1="W" u2="&#x201a;" k="73" />
<hkern u1="W" u2="&#x153;" k="55" />
<hkern u1="W" u2="&#xf8;" k="55" />
<hkern u1="W" u2="&#xe6;" k="55" />
<hkern u1="W" u2="o" k="55" />
<hkern u1="W" u2="e" k="55" />
<hkern u1="W" u2="a" k="55" />
<hkern u1="W" u2="&#x2e;" k="131" />
<hkern u1="W" u2="&#x2d;" k="36" />
<hkern u1="W" u2="&#x2c;" k="131" />
<hkern u1="X" u2="&#x201c;" k="36" />
<hkern u1="X" u2="&#x2018;" k="36" />
<hkern u1="X" u2="&#x152;" k="36" />
<hkern u1="X" u2="&#xd8;" k="36" />
<hkern u1="X" u2="e" k="36" />
<hkern u1="X" u2="O" k="36" />
<hkern u1="X" u2="C" k="36" />
<hkern u1="X" u2="&#x2d;" k="73" />
<hkern u1="Y" u2="&#x203a;" k="188" />
<hkern u1="Y" u2="&#x2039;" k="188" />
<hkern u1="Y" u2="&#x201e;" k="188" />
<hkern u1="Y" u2="&#x201a;" k="188" />
<hkern u1="Y" u2="&#x153;" k="167" />
<hkern u1="Y" u2="&#x152;" k="55" />
<hkern u1="Y" u2="&#xf8;" k="167" />
<hkern u1="Y" u2="&#xe6;" k="167" />
<hkern u1="Y" u2="&#xd8;" k="55" />
<hkern u1="Y" u2="&#xc5;" k="120" />
<hkern u1="Y" u2="&#xbb;" k="188" />
<hkern u1="Y" u2="&#xab;" k="188" />
<hkern u1="Y" u2="u" k="149" />
<hkern u1="Y" u2="o" k="167" />
<hkern u1="Y" u2="i" k="36" />
<hkern u1="Y" u2="e" k="167" />
<hkern u1="Y" u2="a" k="167" />
<hkern u1="Y" u2="O" k="55" />
<hkern u1="Y" u2="C" k="36" />
<hkern u1="Y" u2="A" k="120" />
<hkern u1="Y" u2="&#x3b;" k="120" />
<hkern u1="Y" u2="&#x3a;" k="120" />
<hkern u1="Y" u2="&#x2e;" k="301" />
<hkern u1="Y" u2="&#x2d;" k="167" />
<hkern u1="Y" u2="&#x2c;" k="301" />
<hkern u1="Z" u2="&#x2039;" k="36" />
<hkern u1="Z" u2="&#xab;" k="36" />
<hkern u1="Z" u2="&#x2d;" k="73" />
<hkern u1="f" u2="&#x201d;" k="-94" />
<hkern u1="f" u2="&#x201c;" k="-75" />
<hkern u1="f" u2="&#x2019;" k="-94" />
<hkern u1="f" u2="&#x2018;" k="-75" />
<hkern u1="f" u2="&#x2e;" k="36" />
<hkern u1="f" u2="&#x2c;" k="36" />
<hkern u1="r" u2="&#xfb02;" k="-38" />
<hkern u1="r" u2="&#xfb01;" k="-38" />
<hkern u1="r" u2="&#x2039;" k="36" />
<hkern u1="r" u2="&#x201e;" k="73" />
<hkern u1="r" u2="&#x201d;" k="-38" />
<hkern u1="r" u2="&#x201c;" k="-57" />
<hkern u1="r" u2="&#x201a;" k="73" />
<hkern u1="r" u2="&#x2019;" k="-38" />
<hkern u1="r" u2="&#x2018;" k="-57" />
<hkern u1="r" u2="&#xab;" k="36" />
<hkern u1="r" u2="z" k="-38" />
<hkern u1="r" u2="y" k="-38" />
<hkern u1="r" u2="x" k="-38" />
<hkern u1="r" u2="w" k="-38" />
<hkern u1="r" u2="v" k="-38" />
<hkern u1="r" u2="t" k="-38" />
<hkern u1="r" u2="f" k="-38" />
<hkern u1="r" u2="&#x2e;" k="188" />
<hkern u1="r" u2="&#x2d;" k="36" />
<hkern u1="r" u2="&#x2c;" k="188" />
<hkern u1="v" u2="&#x2e;" k="131" />
<hkern u1="v" u2="&#x2c;" k="131" />
<hkern u1="w" u2="&#x201e;" k="73" />
<hkern u1="w" u2="&#x201c;" k="-38" />
<hkern u1="w" u2="&#x201a;" k="73" />
<hkern u1="w" u2="&#x2018;" k="-38" />
<hkern u1="w" u2="&#x2e;" k="92" />
<hkern u1="w" u2="&#x2c;" k="92" />
<hkern u1="y" u2="&#x201e;" k="73" />
<hkern u1="y" u2="&#x201c;" k="-38" />
<hkern u1="y" u2="&#x201a;" k="73" />
<hkern u1="y" u2="&#x2018;" k="-38" />
<hkern u1="y" u2="&#x2e;" k="139" />
<hkern u1="y" u2="&#x2c;" k="139" />
<hkern u1="&#xab;" u2="Y" k="188" />
<hkern u1="&#xab;" u2="V" k="36" />
<hkern u1="&#xab;" u2="T" k="112" />
<hkern u1="&#xbb;" u2="Y" k="188" />
<hkern u1="&#xbb;" u2="V" k="73" />
<hkern u1="&#xbb;" u2="T" k="149" />
<hkern u1="&#xbb;" u2="J" k="-75" />
<hkern u1="&#xc5;" u2="&#x201e;" k="-38" />
<hkern u1="&#xc5;" u2="&#x201d;" k="178" />
<hkern u1="&#xc5;" u2="&#x201c;" k="149" />
<hkern u1="&#xc5;" u2="&#x201a;" k="-38" />
<hkern u1="&#xc5;" u2="&#x2019;" k="178" />
<hkern u1="&#xc5;" u2="&#x2018;" k="149" />
<hkern u1="&#xc5;" u2="Y" k="120" />
<hkern u1="&#xc5;" u2="T" k="112" />
<hkern u1="&#xc5;" u2="&#x3b;" k="-38" />
<hkern u1="&#xc5;" u2="&#x3a;" k="-38" />
<hkern u1="&#xc5;" u2="&#x2e;" k="-38" />
<hkern u1="&#xc5;" u2="&#x2c;" k="-38" />
<hkern u1="&#xc6;" u2="&#x201e;" k="-38" />
<hkern u1="&#xc6;" u2="&#x201a;" k="-38" />
<hkern u1="&#xc6;" u2="&#x2d;" k="55" />
<hkern u1="&#xd0;" u2="Y" k="36" />
<hkern u1="&#xd0;" u2="&#x2d;" k="-38" />
<hkern u1="&#xd8;" u2="&#x201c;" k="-38" />
<hkern u1="&#xd8;" u2="&#x2018;" k="-38" />
<hkern u1="&#xd8;" u2="Y" k="55" />
<hkern u1="&#xd8;" u2="X" k="36" />
<hkern u1="&#xd8;" u2="&#x2e;" k="63" />
<hkern u1="&#xd8;" u2="&#x2d;" k="-38" />
<hkern u1="&#xd8;" u2="&#x2c;" k="63" />
<hkern u1="&#xdf;" u2="&#x2d;" k="-38" />
<hkern u1="&#x2018;" u2="&#xc6;" k="225" />
<hkern u1="&#x2018;" u2="&#xc5;" k="188" />
<hkern u1="&#x2018;" u2="J" k="264" />
<hkern u1="&#x2018;" u2="A" k="188" />
<hkern u1="&#x201a;" u2="&#xc6;" k="-38" />
<hkern u1="&#x201a;" u2="y" k="36" />
<hkern u1="&#x201a;" u2="w" k="36" />
<hkern u1="&#x201a;" u2="Y" k="225" />
<hkern u1="&#x201a;" u2="W" k="112" />
<hkern u1="&#x201a;" u2="V" k="149" />
<hkern u1="&#x201a;" u2="T" k="149" />
<hkern u1="&#x201a;" u2="J" k="-38" />
<hkern u1="&#x201c;" u2="&#xc6;" k="225" />
<hkern u1="&#x201c;" u2="&#xc5;" k="188" />
<hkern u1="&#x201c;" u2="J" k="264" />
<hkern u1="&#x201c;" u2="A" k="188" />
<hkern u1="&#x201e;" u2="&#xc6;" k="-38" />
<hkern u1="&#x201e;" u2="y" k="36" />
<hkern u1="&#x201e;" u2="w" k="36" />
<hkern u1="&#x201e;" u2="Y" k="225" />
<hkern u1="&#x201e;" u2="W" k="112" />
<hkern u1="&#x201e;" u2="V" k="149" />
<hkern u1="&#x201e;" u2="T" k="149" />
<hkern u1="&#x201e;" u2="J" k="-38" />
<hkern u1="&#x2039;" u2="Y" k="188" />
<hkern u1="&#x2039;" u2="V" k="36" />
<hkern u1="&#x2039;" u2="T" k="112" />
<hkern u1="&#x203a;" u2="Y" k="188" />
<hkern u1="&#x203a;" u2="V" k="73" />
<hkern u1="&#x203a;" u2="T" k="149" />
<hkern u1="&#x203a;" u2="J" k="-75" />
</font>
</defs></svg> 