<?xml version="1.0" standalone="no"?>
<!DOCTYPE svg PUBLIC "-//W3C//DTD SVG 1.1//EN" "http://www.w3.org/Graphics/SVG/1.1/DTD/svg11.dtd" >
<svg xmlns="http://www.w3.org/2000/svg">
<metadata></metadata>
<defs>
<font id="swis721_cn_btroman" horiz-adv-x="1020" >
<font-face units-per-em="2048" ascent="1556" descent="-492" />
<missing-glyph horiz-adv-x="510" />
<glyph horiz-adv-x="2048" />
<glyph horiz-adv-x="2048" />
<glyph unicode="&#xd;" horiz-adv-x="510" />
<glyph unicode=" "  horiz-adv-x="510" />
<glyph unicode="&#x09;" horiz-adv-x="510" />
<glyph unicode="&#xa0;" horiz-adv-x="510" />
<glyph unicode="!" horiz-adv-x="530" d="M172 1102v438h186v-438l-43 -723h-100zM180 0v211h170v-211h-170z" />
<glyph unicode="&#x22;" horiz-adv-x="614" d="M90 881v555h139v-555h-139zM385 881v555h139v-555h-139z" />
<glyph unicode="#" horiz-adv-x="1575" d="M88 449l53 147h310l92 262h-330l51 146h332l162 454h166l-162 -454h256l164 454h164l-160 -454h301l-51 -146h-303l-93 -262h322l-51 -147h-322l-162 -453h-165l161 453h-258l-162 -453h-165l159 453h-309zM616 594h261l92 264h-260z" />
<glyph unicode="$" d="M76 432q0 24 0.5 36.5t1.5 22.5l168 1q0 -9 -1 -25t-1 -23q0 -155 50 -229t155 -74h8v578q-192 66 -276.5 165t-84.5 257q0 169 97 272t264 111v139h88v-137q173 -17 261.5 -112t88.5 -265v-23h-164v9q0 113 -45.5 174.5t-140.5 74.5v-518q220 -79 306.5 -176.5 t86.5 -259.5q0 -198 -103 -310t-290 -120v-199h-88v197q-192 11 -286.5 118t-94.5 316zM264 1141q0 -93 45.5 -150.5t147.5 -93.5v489q-89 -9 -141 -75.5t-52 -169.5zM545 139q103 7 162 80t59 197q0 100 -54 165.5t-167 102.5v-545z" />
<glyph unicode="%" horiz-adv-x="1430" d="M94 1153q0 185 69 277t208 92q144 0 214 -90.5t70 -276.5q0 -187 -72.5 -286t-209.5 -99q-143 0 -211 93t-68 290zM236 1128q0 -123 32.5 -179t104.5 -56q73 0 107 63.5t34 200.5q0 122 -35 182t-106 60q-76 0 -106.5 -59.5t-30.5 -211.5zM305 -29l694 1579h117 l-692 -1579h-119zM774 383q0 185 69 277t208 92q145 0 214.5 -90.5t69.5 -278.5q0 -186 -72 -284.5t-208 -98.5q-144 0 -212.5 93.5t-68.5 289.5zM913 358q0 -122 34 -178.5t106 -56.5q73 0 107 63.5t34 200.5q0 122 -35 182t-106 60q-76 0 -108 -60t-32 -211z" />
<glyph unicode="&#x26;" horiz-adv-x="1253" d="M115 424q0 145 73 254t234 205q-70 92 -109 183.5t-39 164.5q0 139 85 226t223 87q131 0 216 -83.5t85 -213.5q0 -113 -64 -209.5t-192 -175.5l295 -430q16 49 29 122t20 163h164q-9 -133 -39 -239.5t-78 -178.5l207 -299h-199l-106 150q-72 -86 -170 -131.5t-211 -45.5 q-188 0 -306 125.5t-118 325.5zM289 432q0 -128 80.5 -216.5t199.5 -88.5q76 0 145.5 39t121.5 110l-338 492q-107 -70 -158 -152t-51 -184zM436 1239q0 -49 31 -119.5t86 -146.5q80 53 124 123t44 145t-38.5 118.5t-104.5 43.5q-67 0 -104.5 -43.5t-37.5 -120.5z" />
<glyph unicode="'" horiz-adv-x="317" d="M90 881v555h139v-555h-139z" />
<glyph unicode="(" horiz-adv-x="653" d="M186 553q0 267 79 511.5t239 475.5h117q-134 -207 -195 -439t-61 -542q0 -209 22 -363.5t70 -283.5q32 -85 72.5 -175t91.5 -186h-117q-167 273 -242.5 511t-75.5 491z" />
<glyph unicode=")" horiz-adv-x="653" d="M55 -449q47 90 87 179t75 182q49 132 71.5 287.5t22.5 359.5q0 310 -61 542t-195 439h117q160 -231 238.5 -475.5t78.5 -511.5q0 -253 -75 -491t-242 -511h-117z" />
<glyph unicode="*" horiz-adv-x="1024" d="M121 1206l45 137l283 -102v299h122v-299l281 98l51 -131l-297 -82l201 -245l-117 -84l-180 260l-178 -260l-117 84l201 245z" />
<glyph unicode="+" horiz-adv-x="1706" d="M254 541v139h528v541h142v-541h528v-139h-528v-541h-142v541h-528z" />
<glyph unicode="," horiz-adv-x="512" d="M160 0v211h182v-211q0 -116 -49 -195t-133 -100v96q41 8 63.5 57t22.5 132v10h-86z" />
<glyph unicode="-" horiz-adv-x="676" d="M90 485v181h494v-181h-494z" />
<glyph unicode="." horiz-adv-x="512" d="M164 0v211h182v-211h-182z" />
<glyph unicode="/" horiz-adv-x="569" d="M-78 -190l549 1767h111l-549 -1767h-111z" />
<glyph unicode="0" d="M94 762q0 433 96 609.5t320 176.5q113 0 193.5 -49.5t138.5 -152.5q44 -80 64 -214t20 -372q0 -429 -95 -610t-315 -181q-229 0 -325.5 177t-96.5 616zM272 766q0 -374 53.5 -510.5t186.5 -136.5t184.5 123.5t51.5 521.5q0 371 -53 503t-185 132q-134 0 -186 -126.5 t-52 -506.5z" />
<glyph unicode="1" d="M154 1133v131h20q164 0 247 70t91 216h135v-1550h-166v1133h-327z" />
<glyph unicode="2" d="M98 59q0 151 66 284t203 255q26 23 75 67q156 138 207 197q42 49 61 112t19 150q0 133 -59 204t-168 71q-112 0 -167.5 -79t-55.5 -239l1 -17t1 -34h-166q0 9 -1 27.5t-1 27.5q0 224 103.5 345.5t293.5 121.5q187 0 292 -110.5t105 -308.5q0 -101 -20.5 -177.5 t-65.5 -142.5q-45 -70 -201 -196q-39 -31 -59 -48q-157 -130 -221.5 -224t-66.5 -187h647v-158h-819q-2 11 -2.5 23t-0.5 36z" />
<glyph unicode="3" d="M82 444v15h170v-25q0 -159 58 -237t177 -78q127 0 191.5 79.5t64.5 233.5t-74 227.5t-231 73.5q-22 0 -33 -0.5t-20 -0.5v140h35q146 0 213 65.5t67 207.5q0 121 -58 188.5t-163 67.5q-103 0 -155 -71.5t-52 -213.5v-24h-163v22q0 203 100 318.5t274 115.5 q179 0 283 -103.5t104 -281.5q0 -140 -58.5 -233.5t-158.5 -112.5q135 -24 201 -117t66 -260q0 -224 -113.5 -347.5t-319.5 -123.5q-198 0 -301.5 121.5t-103.5 353.5z" />
<glyph unicode="4" d="M63 393v150l572 1005h149v-1007h144v-148h-144v-393h-163v393h-558zM205 541h416l18 788z" />
<glyph unicode="5" d="M88 405l168 1v-13q0 -130 60 -201t169 -71q121 0 184.5 96t63.5 279t-63 274.5t-189 91.5q-82 0 -138.5 -37.5t-78.5 -105.5l-145 12l84 791h649v-156h-516l-55 -459q22 50 88 80.5t153 30.5q180 0 284.5 -133.5t104.5 -366.5q0 -260 -111 -404.5t-313 -144.5 q-193 0 -295 112t-104 324z" />
<glyph unicode="6" d="M96 707q0 451 104.5 647t340.5 196q163 0 259.5 -99.5t96.5 -268.5h-170v10q0 97 -51.5 153t-140.5 56q-137 0 -197.5 -124t-79.5 -480q37 93 111.5 142.5t177.5 49.5q184 0 288.5 -129t104.5 -358q0 -246 -111 -389.5t-299 -143.5q-227 0 -330.5 175t-103.5 563z M279 500q0 -184 65.5 -283.5t185.5 -99.5q113 0 173.5 97.5t60.5 279.5q0 170 -62.5 259t-183.5 89q-124 0 -181.5 -82.5t-57.5 -259.5z" />
<glyph unicode="7" d="M92 1354v168h836v-148q-222 -295 -347.5 -644t-148.5 -730h-192q47 390 182 727.5t358 626.5h-688z" />
<glyph unicode="8" d="M94 428q0 168 71 275t197 128q-109 31 -163 111.5t-54 212.5q0 186 98.5 290.5t272.5 104.5q169 0 268 -103t99 -280q0 -133 -55.5 -216t-165.5 -113q135 -31 199.5 -125t64.5 -262q0 -230 -109 -356t-307 -126q-190 0 -303 124.5t-113 334.5zM270 459 q0 -169 61.5 -254.5t182.5 -85.5q110 0 173 83.5t63 229.5q0 167 -60.5 246.5t-185.5 79.5q-112 0 -173 -78t-61 -221zM311 1149q0 -111 53.5 -177.5t143.5 -66.5q100 0 153.5 65.5t53.5 186.5q0 116 -55 182t-152 66q-96 0 -146.5 -65.5t-50.5 -190.5z" />
<glyph unicode="9" d="M80 1018q0 246 111 389t298 143q228 0 331.5 -174.5t103.5 -562.5q0 -451 -104.5 -647.5t-340.5 -196.5q-163 0 -260.5 100.5t-97.5 268.5h172v-10q0 -97 51.5 -153t140.5 -56q137 0 197.5 123.5t79.5 478.5q-37 -93 -111.5 -143t-177.5 -50q-184 0 -288.5 130 t-104.5 360zM256 1024q0 -171 62.5 -258.5t183.5 -87.5q123 0 181 82.5t58 259.5q0 183 -65.5 282t-186.5 99q-112 0 -172.5 -97.5t-60.5 -279.5z" />
<glyph unicode=":" horiz-adv-x="512" d="M164 0v211h182v-211h-182zM164 926v211h182v-211h-182z" />
<glyph unicode=";" horiz-adv-x="512" d="M164 0v211h182v-211q0 -116 -49 -195t-133 -100v96q41 8 64.5 57.5t23.5 131.5v10h-88zM164 926v211h182v-211h-182z" />
<glyph unicode="&#x3c;" horiz-adv-x="1706" d="M264 547v129l1178 483v-153l-969 -396l969 -393v-154z" />
<glyph unicode="=" horiz-adv-x="1706" d="M254 342v139h1198v-139h-1198zM254 739v140h1198v-140h-1198z" />
<glyph unicode="&#x3e;" horiz-adv-x="1706" d="M264 63v154l971 393l-971 396v153l1178 -483v-129z" />
<glyph unicode="?" horiz-adv-x="1018" d="M154 1092v26q0 223 97.5 341t283.5 118q177 0 281 -107t104 -290q0 -187 -180 -397l-3 -3l-2 -2q-149 -175 -149 -329q0 -22 0.5 -36t0.5 -26l-157 1q-1 17 -1.5 34.5t-0.5 42.5q0 106 30 185.5t134 203.5q5 6 16 19q131 155 131 311q0 112 -54.5 177.5t-147.5 65.5 q-106 0 -162 -78t-56 -227v-30h-165zM422 0v211h170v-211h-170z" />
<glyph unicode="@" horiz-adv-x="2048" d="M106 522q0 165 52 313t151 269q146 178 351.5 270t455.5 92q163 0 310 -45t253 -127q130 -100 197.5 -231t67.5 -283q0 -175 -63.5 -315t-184.5 -236q-68 -54 -149.5 -83t-166.5 -29q-99 0 -149.5 39.5t-50.5 117.5v19q-55 -89 -129 -131.5t-172 -42.5q-153 0 -233.5 85 t-80.5 247q0 235 138 394t339 159q85 0 145.5 -37.5t96.5 -112.5l57 115h132l-146 -576q-4 -16 -6 -31t-2 -28q0 -46 25.5 -70t74.5 -24q48 0 102.5 26.5t106.5 75.5q80 76 125 186.5t45 233.5q0 259 -190.5 420t-499.5 161q-133 0 -246 -28t-211 -86q-191 -114 -296 -299.5 t-105 -409.5q0 -177 61.5 -308t192.5 -230q100 -77 236.5 -118.5t287.5 -41.5q169 0 328.5 49t292.5 141l55 -82q-148 -111 -314.5 -167t-349.5 -56q-190 0 -348 47t-280 140q-154 118 -230 274t-76 354zM725 446q0 -105 48.5 -162t137.5 -57q97 0 174.5 69t104.5 179 l59 236q-17 88 -68.5 136t-129.5 48q-138 0 -232 -130t-94 -319z" />
<glyph unicode="A" horiz-adv-x="1126" d="M31 0l420 1540h219l426 -1540h-174l-117 444h-488l-112 -444h-174zM356 600h410l-205 807z" />
<glyph unicode="B" horiz-adv-x="1108" d="M137 0v1540h402q216 0 313.5 -91.5t97.5 -293.5q0 -138 -52.5 -221.5t-160.5 -114.5q134 -27 198 -119.5t64 -257.5q0 -211 -116 -326.5t-328 -115.5h-418zM303 152h219q157 0 226 66t69 216q0 169 -73.5 239t-251.5 70h-189v-591zM303 885h180q162 0 227.5 60t65.5 206 q0 139 -66.5 195.5t-236.5 56.5h-170v-518z" />
<glyph unicode="C" horiz-adv-x="1157" d="M106 766q0 428 113.5 619.5t366.5 191.5q211 0 325.5 -122.5t114.5 -348.5v-19h-166q0 158 -74 248t-202 90q-157 0 -226 -152.5t-69 -506.5q0 -346 71 -492.5t234 -146.5q131 0 201.5 107.5t70.5 306.5v24h170q-3 -293 -121.5 -447.5t-341.5 -154.5q-238 0 -352.5 196.5 t-114.5 606.5z" />
<glyph unicode="D" horiz-adv-x="1192" d="M137 0v1540h436q262 0 386 -175t124 -544q0 -260 -42.5 -428.5t-133.5 -267.5q-62 -68 -140 -96.5t-232 -28.5h-398zM309 147h223q108 0 167.5 22t93.5 71q54 79 78 197t24 331q0 373 -78 498t-291 125h-217v-1244z" />
<glyph unicode="E" horiz-adv-x="1004" d="M137 0v1540h764v-160h-594v-495h555v-156h-555v-567h600v-162h-770z" />
<glyph unicode="F" horiz-adv-x="885" d="M137 0v1540h711v-156h-535v-495h498v-160h-498v-729h-176z" />
<glyph unicode="G" horiz-adv-x="1214" d="M106 780q0 419 123.5 608t395.5 189q209 0 326.5 -125.5t119.5 -351.5h-170q-5 158 -79 244t-206 86q-179 0 -255 -157t-76 -542q0 -309 81 -457.5t248 -148.5q151 0 230.5 116t79.5 337q0 27 -0.5 41.5t-2.5 27.5h-348v156h514v-803h-133l-10 213 q-42 -121 -133.5 -185.5t-220.5 -64.5q-249 0 -366.5 198t-117.5 619z" />
<glyph unicode="H" horiz-adv-x="1200" d="M137 0v1540h176v-635h574v635h176v-1540h-176v750h-574v-750h-176z" />
<glyph unicode="I" horiz-adv-x="451" d="M137 0v1540h176v-1540h-176z" />
<glyph unicode="J" horiz-adv-x="862" d="M35 352v125h166v-149q0 -108 44 -162.5t130 -54.5q104 0 144 64t40 286v1079h166v-1196q0 -193 -88 -286t-270 -93q-164 0 -248 98t-84 289z" />
<glyph unicode="K" horiz-adv-x="1110" d="M137 0v1540h170v-741l557 741h199l-479 -622l514 -918h-209l-420 768l-162 -211v-557h-170z" />
<glyph unicode="L" horiz-adv-x="975" d="M137 0v1540h172v-1374h615v-166h-787z" />
<glyph unicode="M" horiz-adv-x="1511" d="M135 0v1540h289l324 -1313l339 1313h285v-1540h-168v1452l-375 -1452h-167l-359 1452v-1452h-168z" />
<glyph unicode="N" horiz-adv-x="1188" d="M137 0v1540h230l534 -1321l-16 1321h166v-1540h-220l-542 1360l14 -1360h-166z" />
<glyph unicode="O" horiz-adv-x="1200" d="M106 770q0 430 116.5 618.5t377.5 188.5q263 0 378.5 -186.5t115.5 -620.5t-115 -620.5t-379 -186.5q-260 0 -377 190t-117 617zM285 770q0 -371 70.5 -513t244.5 -142q176 0 245.5 138.5t69.5 516.5q0 377 -69.5 515t-245.5 138q-174 0 -244.5 -141.5t-70.5 -511.5z" />
<glyph unicode="P" horiz-adv-x="1085" d="M137 0v1540h395q252 0 368 -103.5t116 -326.5q0 -229 -121 -346t-356 -117h-230v-647h-172zM309 803h226q156 0 229.5 74.5t73.5 234.5q0 147 -74 213t-240 66h-215v-588z" />
<glyph unicode="Q" horiz-adv-x="1200" d="M106 770q0 430 116.5 618.5t377.5 188.5q263 0 378.5 -186.5t115.5 -620.5q0 -208 -26 -357.5t-75 -228.5l174 -141l-92 -117l-168 135q-44 -48 -121.5 -73t-185.5 -25q-260 0 -377 190t-117 617zM287 770q0 -372 70 -513.5t243 -141.5q63 0 105 13t75 42l-162 137 l99 115l145 -123q27 95 40 206t13 245q0 395 -69 534t-246 139q-173 0 -243 -140.5t-70 -512.5z" />
<glyph unicode="R" horiz-adv-x="1196" d="M137 0v1540h432q239 0 355 -97.5t116 -297.5q0 -155 -70 -247.5t-216 -129.5q128 -11 192 -83t78 -223q5 -56 11 -155q16 -252 81 -307h-213q-32 53 -41 251q-5 99 -10 157q-14 159 -82.5 217.5t-245.5 58.5h-219v-684h-168zM305 834h209q181 0 265.5 69.5t84.5 216.5 q0 141 -75 205t-242 64h-242v-555z" />
<glyph unicode="S" horiz-adv-x="1098" d="M102 438q0 8 1 25.5t1 25.5h164v-55q0 -157 72.5 -237t214.5 -80q128 0 201 77t73 212q0 108 -44.5 166.5t-200.5 117.5q-37 14 -104 39q-187 68 -226 102q-64 57 -95.5 135.5t-31.5 182.5q0 201 111 314.5t309 113.5q188 0 294.5 -105t106.5 -290q0 -6 -1 -19.5 t-1 -19.5h-158v16q0 130 -63.5 200.5t-179.5 70.5q-120 0 -189 -67.5t-69 -182.5q0 -109 47 -169t205 -118q19 -7 56 -21q241 -89 288 -133q57 -53 84.5 -129t27.5 -182q0 -219 -121 -341t-337 -122q-215 0 -325 120t-110 353z" />
<glyph unicode="T" horiz-adv-x="995" d="M29 1382v158h938v-158h-369v-1382h-176v1382h-393z" />
<glyph unicode="U" horiz-adv-x="1180" d="M139 535v1005h172v-1036q0 -216 61.5 -300.5t209.5 -84.5q150 0 221 93t71 292v1036h168v-1005q0 -195 -22 -275.5t-74 -142.5q-63 -75 -155.5 -113.5t-210.5 -38.5q-121 0 -217 41.5t-152 118.5q-39 52 -55.5 133.5t-16.5 276.5z" />
<glyph unicode="V" horiz-adv-x="1075" d="M6 1540h187l346 -1327l356 1327h172l-424 -1540h-207z" />
<glyph unicode="W" horiz-adv-x="1620" d="M25 1540h178l241 -1302l273 1302h196l267 -1292l245 1292h168l-325 -1540h-185l-270 1257l-274 -1257h-189z" />
<glyph unicode="X" horiz-adv-x="1012" d="M-25 0l428 797l-407 743h209l305 -584l309 584h197l-412 -739l432 -801h-207l-325 645l-330 -645h-199z" />
<glyph unicode="Y" horiz-adv-x="1028" d="M-31 1540h205l340 -758l356 758h187l-459 -944v-596h-174v596z" />
<glyph unicode="Z" horiz-adv-x="905" d="M47 0v160l621 1220h-586v160h768v-158l-617 -1216h625v-166h-811z" />
<glyph unicode="[" horiz-adv-x="653" d="M233 -434v1974h363v-123h-197v-1726h197v-125h-363z" />
<glyph unicode="\" horiz-adv-x="569" d="M0 1577h111l548 -1767h-110z" />
<glyph unicode="]" horiz-adv-x="653" d="M57 -309h197v1726h-197v123h363v-1974h-363v125z" />
<glyph unicode="^" horiz-adv-x="2048" d="M420 901l510 557h186l510 -557h-180l-422 420l-424 -420h-180z" />
<glyph unicode="_" horiz-adv-x="1024" d="M0 -340h1024v-143h-1024v143z" />
<glyph unicode="`" horiz-adv-x="1024" d="M285 1546h178l170 -270h-101z" />
<glyph unicode="a" horiz-adv-x="913" d="M90 291q0 149 64.5 227t278.5 150l3 1q176 59 176 138v106q0 71 -40.5 103.5t-129.5 32.5q-86 0 -128 -45t-42 -138v-20h-151q3 176 84 257t256 81q164 0 239.5 -74.5t75.5 -235.5v-673q0 -45 16 -64.5t52 -19.5q7 0 22 3q2 0 4 1v-123q-30 -5 -52.5 -7.5t-41.5 -2.5 q-68 0 -107 43t-42 122q-37 -88 -107 -135t-166 -47q-125 0 -194.5 84t-69.5 236zM252 293q0 -86 38 -133t107 -47q100 0 159.5 76t59.5 204v228q-38 -42 -168 -89q-11 -4 -16 -6q-112 -39 -146 -88t-34 -145z" />
<glyph unicode="b" horiz-adv-x="981" d="M125 0v1540h160v-508q21 65 90 105.5t160 40.5q168 0 261 -148t93 -418q0 -311 -92.5 -473t-270.5 -162q-92 0 -161 46t-91 122v-145h-149zM274 584q0 -250 53 -356.5t173 -106.5q112 0 162.5 111.5t50.5 363.5q0 225 -53.5 331.5t-165.5 106.5q-119 0 -169.5 -100 t-50.5 -350z" />
<glyph unicode="c" horiz-adv-x="942" d="M94 584q0 301 96 449.5t291 148.5q161 0 254.5 -98.5t93.5 -268.5v-24h-157q-5 121 -52 184t-133 63q-118 0 -168.5 -104.5t-50.5 -355.5q0 -254 51 -359.5t170 -105.5q90 0 139 75t52 217l158 1q0 -209 -96 -323t-271 -114q-192 0 -284.5 151t-92.5 464z" />
<glyph unicode="d" horiz-adv-x="975" d="M90 612q0 269 94 417.5t262 148.5q91 0 160.5 -41t87.5 -105v508h162v-1540h-151v145q-22 -76 -90 -122t-160 -46q-178 0 -271.5 162.5t-93.5 472.5zM266 596q0 -250 51.5 -362.5t163.5 -112.5q119 0 171.5 106t52.5 357q0 252 -49.5 351t-168.5 99q-113 0 -167 -107 t-54 -331z" />
<glyph unicode="e" horiz-adv-x="901" d="M90 563q0 322 88.5 471.5t278.5 149.5q179 0 266.5 -127t87.5 -387q0 -41 -0.5 -62t-1.5 -38l-553 -1v-51q0 -216 50 -315t159 -99q85 0 134.5 74.5t49.5 202.5v8h158q-2 -204 -93.5 -312t-260.5 -108q-186 0 -274.5 145t-88.5 449zM256 700h391v31q0 159 -46.5 239.5 t-139.5 80.5q-104 0 -154.5 -86.5t-50.5 -264.5z" />
<glyph unicode="f" horiz-adv-x="532" d="M4 1020v131h162v156q0 125 65.5 183t206.5 58q15 0 29.5 -1.5t38.5 -6.5l-1 -143q-17 3 -33 4.5t-32 1.5q-59 0 -83.5 -23.5t-24.5 -79.5v-149h174v-131h-174v-1020h-166v1020h-162z" />
<glyph unicode="g" horiz-adv-x="973" d="M92 610q0 283 90.5 425.5t270.5 142.5q91 0 155 -42.5t90 -119.5v135h156v-1098q0 -212 -102 -327t-289 -115q-148 0 -242 77.5t-94 198.5v7l160 -1q5 -70 52.5 -105.5t135.5 -35.5q118 0 170.5 77t52.5 249q0 5 -1 25t-1 36q-35 -78 -99.5 -117.5t-156.5 -39.5 q-175 0 -261.5 155.5t-86.5 472.5zM262 573q0 -241 50.5 -345.5t164.5 -104.5q119 0 170 106t51 359q0 238 -53.5 345t-171.5 107q-111 0 -161 -109t-50 -358z" />
<glyph unicode="h" horiz-adv-x="963" d="M123 0v1540h162v-514q45 76 113.5 113t164.5 37q133 0 207 -68.5t74 -192.5v-915h-162v838q0 102 -38.5 148t-123.5 46q-107 0 -171 -68t-64 -184v-780h-162z" />
<glyph unicode="i" horiz-adv-x="408" d="M121 0v1151h166v-1151h-166zM121 1331v209h166v-209h-166z" />
<glyph unicode="j" horiz-adv-x="426" d="M20 -250h9q70 0 94 28t24 124v1249h160v-1262q0 -146 -62.5 -211t-203.5 -65h-21v137zM147 1333v207h160v-209z" />
<glyph unicode="k" horiz-adv-x="868" d="M123 0v1540h156v-911l393 522h188l-344 -436l371 -715h-197l-284 567l-127 -157v-410h-156z" />
<glyph unicode="l" horiz-adv-x="401" d="M121 0v1540h160v-1540h-160z" />
<glyph unicode="m" horiz-adv-x="1528" d="M123 0v1151h149v-139q47 82 123.5 124t179.5 42q97 0 160.5 -43t87.5 -125q51 84 125 126t174 42q140 0 214.5 -73t74.5 -210v-895h-166v795q0 140 -36 189.5t-126 49.5q-103 0 -168 -65t-65 -168v-801h-166v801q0 127 -38.5 180t-127.5 53q-105 0 -171 -63t-66 -162 v-809h-158z" />
<glyph unicode="n" horiz-adv-x="963" d="M123 0v1151h151v-143q42 84 114 126t175 42q152 0 216.5 -77t64.5 -265v-834h-162v846q0 94 -40 140t-122 46q-108 0 -171.5 -68t-63.5 -184v-780h-162z" />
<glyph unicode="o" horiz-adv-x="989" d="M90 575q0 310 99.5 459.5t304.5 149.5q208 0 306.5 -148t98.5 -461t-98 -459.5t-307 -146.5q-210 0 -307 145.5t-97 460.5zM262 575q0 -258 53 -363.5t179 -105.5q124 0 177.5 107.5t53.5 361.5q0 256 -53.5 361.5t-177.5 105.5q-125 0 -178.5 -104.5t-53.5 -362.5z" />
<glyph unicode="p" horiz-adv-x="975" d="M123 -389v1540h156v-145q18 75 86.5 123.5t156.5 48.5q182 0 273.5 -150.5t91.5 -449.5q0 -311 -85 -457t-265 -146q-82 0 -146.5 38.5t-101.5 109.5v-512h-166zM279 580q0 -236 56 -349.5t173 -113.5q107 0 156 109.5t49 355.5q0 239 -50 345.5t-161 106.5 q-120 0 -171.5 -104.5t-51.5 -349.5z" />
<glyph unicode="q" horiz-adv-x="975" d="M88 578q0 299 91.5 449.5t273.5 150.5q87 0 156 -48.5t87 -123.5v145h156v-1540h-166v512q-37 -71 -101.5 -109.5t-146.5 -38.5q-180 0 -265 146t-85 457zM262 582q0 -246 48.5 -355.5t156.5 -109.5q116 0 172.5 113.5t56.5 349.5q0 245 -52 349.5t-171 104.5 q-111 0 -161 -106.5t-50 -345.5z" />
<glyph unicode="r" horiz-adv-x="596" d="M123 0v1151h149v-188q35 101 105.5 158t161.5 57q27 0 41.5 -1t27.5 -3v-172q-13 7 -28.5 10.5t-34.5 3.5q-124 0 -193 -82t-69 -229v-705h-160z" />
<glyph unicode="s" horiz-adv-x="909" d="M92 322v24h160q0 -2 -1 -6q-3 -22 -3 -33q0 -94 53.5 -143t155.5 -49q93 0 146.5 50t53.5 136q0 136 -209 208l-3 1q-210 73 -272 145t-62 209q0 151 88.5 235.5t246.5 84.5q168 0 253 -81t85 -239v-16h-153q-5 104 -47 151.5t-131 47.5q-94 0 -141.5 -44.5t-47.5 -132.5 q0 -39 12.5 -70t36.5 -50q44 -38 175 -80q70 -22 108 -37q119 -46 170 -116.5t51 -186.5q0 -173 -99.5 -267t-283.5 -94q-169 0 -255.5 89.5t-86.5 263.5z" />
<glyph unicode="t" horiz-adv-x="504" d="M-10 1018v133h160v307h157v-307h187v-133h-187v-780q0 -72 26 -94.5t124 -22.5q13 0 21.5 0.5t14.5 1.5l1 -141q-15 -1 -40 -2q-62 -3 -79 -3q-114 0 -169.5 45.5t-55.5 137.5v858h-160z" />
<glyph unicode="u" horiz-adv-x="963" d="M119 266v885h168v-889q0 -71 35.5 -110t99.5 -39q116 0 181 72t65 202v764h163v-1151h-149v150q-34 -87 -108.5 -134t-178.5 -47q-144 0 -210 71t-66 226z" />
<glyph unicode="v" horiz-adv-x="872" d="M33 1151h176l225 -903l236 903h168l-320 -1151h-174z" />
<glyph unicode="w" horiz-adv-x="1364" d="M43 1151h166l213 -920l178 920h164l199 -922l198 922h160l-279 -1151h-159l-201 893l-176 -893h-168z" />
<glyph unicode="x" horiz-adv-x="825" d="M-18 0l327 596l-305 555h184l222 -414l225 414h180l-307 -543l334 -608h-189l-247 467l-242 -467h-182z" />
<glyph unicode="y" horiz-adv-x="909" d="M35 1151h174l246 -928l254 928h165l-354 -1202q-56 -196 -129 -266t-207 -70q-20 0 -47.5 4.5t-58.5 13.5v146q25 -11 50 -16t50 -5q71 0 112.5 48t82.5 186z" />
<glyph unicode="z" horiz-adv-x="793" d="M47 0v147l494 859h-473v145h665v-129l-504 -868h514v-154h-696z" />
<glyph unicode="{" horiz-adv-x="1024" d="M168 457v149q8 0 23 -1t22 -1q130 0 184 60.5t54 207.5v246q0 148 22.5 210.5t77.5 96.5q45 28 108.5 40t169.5 12h37v-150h-41q-120 0 -161 -44.5t-41 -184.5v-242q0 -160 -44.5 -228t-156.5 -98q113 -28 157 -96t44 -229v-242q0 -141 41.5 -185t162.5 -44h39v-148h-43 q-108 0 -169 11.5t-103 37.5q-55 34 -77.5 97t-22.5 211v245q0 149 -54.5 210t-185.5 61q-7 0 -21.5 -1t-21.5 -1z" />
<glyph unicode="|" horiz-adv-x="1024" d="M438 -483v2048h150v-2048h-150z" />
<glyph unicode="}" horiz-adv-x="1024" d="M160 -266h39q120 0 162 45t42 186v240q0 160 44.5 228t156.5 97q-112 30 -156.5 98t-44.5 228v242q0 140 -42 184.5t-162 44.5h-39v150h37q107 0 171 -12.5t107 -39.5q55 -34 77.5 -96.5t22.5 -210.5v-246q0 -147 54 -207.5t184 -60.5q7 0 22 1t23 1v-149q-7 0 -22 1 t-21 1q-132 0 -186 -60.5t-54 -210.5v-245q0 -148 -22.5 -211t-77.5 -97q-42 -26 -103 -37.5t-169 -11.5h-43v148z" />
<glyph unicode="~" horiz-adv-x="1706" d="M178 451v155q106 72 202 108t185 36q62 0 127.5 -13.5t163.5 -48.5q16 -5 47 -17q159 -57 240 -57q88 0 179.5 37t207.5 119v-156q-104 -72 -199 -106.5t-190 -34.5q-93 0 -256 58q-22 8 -34 12l-15 5q-176 60 -273 60q-84 0 -175 -37t-210 -120z" />
<glyph unicode="&#xa0;" />
<glyph unicode="&#xa1;" horiz-adv-x="530" d="M172 0v438l43 723h100l43 -723v-438h-186zM180 1331v209h170v-209h-170z" />
<glyph unicode="&#xa2;" d="M150 584q0 293 75.5 439t237.5 167v287h131v-283q141 -22 213 -113.5t72 -251.5v-12h-160q-8 122 -53.5 182t-130.5 60q-118 0 -165.5 -107t-47.5 -389q0 -222 51.5 -325t163.5 -103q85 0 137.5 72.5t52.5 191.5v29h159q-2 -191 -78 -301.5t-214 -124.5v-326h-131v324 q-155 12 -234 159t-79 425z" />
<glyph unicode="&#xa3;" d="M59 96q113 72 176.5 180.5t63.5 227.5q0 51 -11 99t-34 95h-195v93h150q-52 71 -78.5 153.5t-26.5 171.5q0 197 117 315.5t309 118.5q201 0 308.5 -113.5t107.5 -324.5v-33h-164v19q0 145 -66 224t-188 79q-115 0 -179 -73t-64 -206q0 -89 27 -173.5t79 -157.5h326v-93 h-287q20 -64 27.5 -98t7.5 -57q0 -103 -61 -210.5t-177 -207.5q61 35 119.5 52.5t114.5 17.5q59 0 159 -26t146 -26q47 0 86.5 14.5t81.5 47.5l55 -139q-54 -44 -118.5 -67.5t-129.5 -23.5q-57 0 -174.5 39t-187.5 39q-64 0 -122.5 -22.5t-109.5 -67.5z" />
<glyph unicode="&#xa4;" d="M33 602l24 98h117q0 70 0.5 105t1.5 65h-135l25 99h114q18 317 115 448t309 131q175 0 264 -99.5t101 -315.5h-166q-10 134 -59.5 200t-141.5 66q-125 0 -180.5 -94t-65.5 -336h449l-25 -99h-428q0 -14 -1 -42.5t-1 -41.5q0 -14 1 -42.5t1 -43.5h387l-26 -98h-358 q6 -273 61.5 -378t183.5 -105q102 0 154 84t57 268h168q-15 -264 -109.5 -383t-285.5 -119q-203 0 -298.5 147t-109.5 486h-143z" />
<glyph unicode="&#xa5;" d="M-23 1522h201l336 -725l352 725h185l-263 -512h209v-101h-262l-86 -170h348v-98h-399v-641h-174v641h-397v98h346l-84 170h-262v101h209z" />
<glyph unicode="&#xa6;" horiz-adv-x="1024" d="M438 -350v758h150v-758h-150zM438 674v758h150v-758h-150z" />
<glyph unicode="&#xa7;" horiz-adv-x="1024" d="M125 739q0 110 41 183t125 114q-50 43 -73 96t-23 125q0 157 82 238.5t239 81.5q151 0 229 -80t78 -233v-29h-157v10q0 100 -35.5 144.5t-114.5 44.5q-81 0 -120.5 -40.5t-39.5 -123.5q0 -107 179 -202q67 -36 104 -58q158 -95 209 -170.5t51 -190.5q0 -110 -39 -179.5 t-129 -121.5q49 -37 73.5 -94t24.5 -131q0 -158 -84 -242t-241 -84q-168 0 -251 76t-83 229q0 18 0.5 27t1.5 16h160v-24q0 -96 38.5 -138t127.5 -42q83 0 124.5 41.5t41.5 123.5q0 118 -188 225q-67 38 -105 62q-150 94 -198 167t-48 179zM270 784q0 -57 22.5 -102 t67.5 -78q17 -12 112 -73.5t171 -112.5q56 34 82.5 81.5t26.5 112.5q0 128 -266 292q-69 42 -107 67q-55 -33 -82 -78.5t-27 -108.5z" />
<glyph unicode="&#xa8;" horiz-adv-x="1024" d="M270 1311v170h156v-170h-156zM598 1311v170h156v-170h-156z" />
<glyph unicode="&#xa9;" horiz-adv-x="1706" d="M117 727q0 147 56 281.5t163 242.5q104 104 236 158.5t280 54.5q152 0 285.5 -54.5t238.5 -160.5q104 -103 159.5 -238.5t55.5 -283.5q0 -149 -54.5 -281.5t-158.5 -234.5q-110 -107 -245.5 -164t-280.5 -57t-278.5 56t-239.5 163q-106 105 -161.5 238.5t-55.5 279.5z M213 727q0 -126 49 -242t141 -209q92 -91 207.5 -139.5t243.5 -48.5q125 0 242 49t213 142q90 88 137 202.5t47 245.5q0 130 -47.5 246.5t-136.5 206.5q-93 92 -209 140t-246 48q-129 0 -243.5 -47t-204.5 -137q-93 -93 -143 -211.5t-50 -245.5zM463 733q0 200 109 322.5 t286 122.5q142 0 236.5 -75t105.5 -196h-147q-13 77 -66 118.5t-139 41.5q-105 0 -165 -90.5t-60 -249.5q0 -157 62 -244.5t173 -87.5q82 0 136.5 47t68.5 129h145q-9 -130 -107.5 -211t-248.5 -81q-182 0 -285.5 120t-103.5 334z" />
<glyph unicode="&#xaa;" horiz-adv-x="686" d="M68 938q0 105 48 160t208 104l1 1q134 42 134 97v74q0 49 -30.5 71.5t-96.5 22.5t-96.5 -30.5t-30.5 -96.5v-14h-114q2 125 63 181.5t192 56.5q122 0 179 -52.5t57 -164.5v-471q0 -32 12 -46t39 -14q3 0 9.5 1t10.5 1v-86q-20 -3 -38 -4.5t-33 -1.5q-52 0 -80.5 30 t-30.5 86q-27 -61 -80 -94.5t-125 -33.5q-94 0 -146 58.5t-52 164.5zM188 940q0 -59 29 -92t82 -33q75 0 119.5 52.5t44.5 142.5v159q-29 -28 -128 -61l-11 -4q-86 -29 -111 -62.5t-25 -101.5z" />
<glyph unicode="&#xab;" horiz-adv-x="987" d="M129 506v145l305 314v-187l-196 -200l196 -205v-187zM551 506v145l305 314v-187l-197 -200l197 -205v-187z" />
<glyph unicode="&#xac;" horiz-adv-x="1706" d="M254 721v139h1198v-502h-137v363h-1061z" />
<glyph unicode="&#xad;" horiz-adv-x="676" d="M90 485v181h494v-181h-494z" />
<glyph unicode="&#xae;" horiz-adv-x="1706" d="M117 727q0 146 57.5 282.5t165.5 245.5q101 103 231.5 156t280.5 53q151 0 286 -56t240 -163q103 -104 158 -238t55 -280q0 -151 -55 -283.5t-160 -234.5q-109 -106 -244.5 -162.5t-279.5 -56.5q-147 0 -280.5 56.5t-239.5 164.5q-105 106 -160 238.5t-55 277.5zM213 727 q0 -125 48.5 -240.5t139.5 -207.5q90 -92 206.5 -141.5t240.5 -49.5q130 0 246.5 48t212.5 140q90 88 138 202.5t48 242.5q0 134 -46.5 251t-135.5 206q-92 93 -208.5 141.5t-248.5 48.5q-130 0 -245 -47t-201 -135q-94 -95 -144.5 -214t-50.5 -245zM557 324v835h315 q174 0 261.5 -57.5t87.5 -171.5q0 -89 -50 -148t-141 -77l187 -381h-177l-170 356h-155v-356h-158zM715 780h133q113 0 162 31.5t49 101.5q0 76 -51 110t-164 34h-129v-277z" />
<glyph unicode="&#xaf;" horiz-adv-x="1024" d="M287 1331v133h450v-133h-450z" />
<glyph unicode="&#xb0;" horiz-adv-x="674" d="M49 1167q0 120 84.5 204.5t204.5 84.5q118 0 202.5 -84.5t84.5 -204.5q0 -119 -84 -202.5t-205 -83.5t-204 83t-83 203zM143 1169q0 -81 57 -138.5t138 -57.5t136.5 57.5t55.5 138.5t-55.5 137t-136.5 56t-138 -56t-57 -137z" />
<glyph unicode="&#xb1;" horiz-adv-x="1706" d="M254 29v141h1198v-141h-1198zM254 713v139h528v340h142v-340h528v-139h-528v-340h-142v340h-528z" />
<glyph unicode="&#xb2;" horiz-adv-x="674" d="M66 606v35q0 92 43 171.5t133 152.5q17 13 49 39q103 84 137 120q28 28 40.5 65t12.5 91q0 80 -38.5 123t-110.5 43q-74 0 -111 -47.5t-37 -143.5v-30h-108q0 5 -1 16t-1 16q0 135 68.5 208t193.5 73q124 0 193 -66.5t69 -185.5q0 -61 -13 -106.5t-42 -85.5t-125 -111 q-31 -23 -47 -35q-106 -80 -147.5 -135.5t-43.5 -111.5l426 -1v-94h-540z" />
<glyph unicode="&#xb3;" horiz-adv-x="674" d="M53 872v9h113v-15q0 -95 38.5 -141.5t117.5 -46.5q83 0 126.5 47.5t43.5 140.5q0 92 -50 136.5t-153 44.5q-15 0 -21.5 -0.5t-13.5 -1.5v85h22q98 0 142.5 39t44.5 123q0 73 -39 113.5t-109 40.5q-67 0 -101 -42.5t-34 -127.5v-14h-108v12q0 122 66 192t181 70 q118 0 187 -62.5t69 -168.5q0 -84 -38.5 -140t-104.5 -69q89 -14 131.5 -69.5t42.5 -156.5q0 -135 -74 -208.5t-210 -73.5q-131 0 -200 73t-69 211z" />
<glyph unicode="&#xb4;" horiz-adv-x="1024" d="M391 1274l170 272h178l-247 -272h-101z" />
<glyph unicode="&#xb5;" horiz-adv-x="1151" d="M-113 -428l318 1499h180l-129 -600q-7 -32 -10.5 -64.5t-3.5 -68.5q0 -99 52 -153t148 -54q132 0 208.5 92.5t123.5 311.5l115 536h178l-156 -732q-1 -6 -4 -20q-18 -87 -18 -112q0 -37 16.5 -52.5t55.5 -15.5q12 0 18.5 0.5t13.5 1.5l-31 -143q-24 -5 -50 -7.5t-58 -2.5 q-63 0 -97 29t-52 100q-45 -66 -112.5 -98.5t-158.5 -32.5q-82 0 -143 27.5t-113 88.5l-110 -530h-181z" />
<glyph unicode="&#xb6;" horiz-adv-x="1024" d="M66 1130q0 157 107.5 253t285.5 96h499v-86h-120v-1393h-111v1393h-176v-1393h-113v782q-170 8 -271 102.5t-101 245.5z" />
<glyph unicode="&#xb7;" horiz-adv-x="512" d="M125 762q0 55 37 92t92 37q56 0 93.5 -37t37.5 -92t-38.5 -93t-92.5 -38t-91.5 38t-37.5 93z" />
<glyph unicode="&#xb8;" horiz-adv-x="1024" d="M330 -342l16 -3q127 -22 162 -22q54 0 82 21.5t28 62.5q0 42 -29.5 65t-82.5 23q-7 0 -14 -0.5t-23 -2.5v198h76v-102h6q97 0 152 -46.5t55 -127.5q0 -97 -62 -146t-184 -49q-38 0 -83.5 6.5t-98.5 20.5v102z" />
<glyph unicode="&#xb9;" horiz-adv-x="674" d="M102 1286v78h13q109 0 163.5 42t59.5 130h90v-930h-111v680h-215z" />
<glyph unicode="&#xba;" horiz-adv-x="741" d="M68 1139q0 216 74.5 321t228.5 105q155 0 229 -104t74 -322q0 -220 -73 -322t-230 -102q-158 0 -230.5 101.5t-72.5 322.5zM197 1139q0 -181 40 -255.5t134 -74.5q93 0 133.5 75.5t40.5 254.5q0 176 -40.5 250.5t-133.5 74.5q-95 0 -134.5 -73t-39.5 -252z" />
<glyph unicode="&#xbb;" horiz-adv-x="987" d="M129 186v187l199 205l-199 200v187l305 -314v-145zM551 186v187l199 205l-199 200v187l305 -314v-145z" />
<glyph unicode="&#xbc;" horiz-adv-x="1628" d="M96 1303v73h13q104 0 156 39.5t57 120.5h86v-868h-105v635h-207zM301 -31l899 1581h125l-899 -1581h-125zM1026 221v82l358 563h95v-563h90v-82h-90v-221h-103v221h-350zM1114 303h262l13 440z" />
<glyph unicode="&#xbd;" horiz-adv-x="1628" d="M96 1303v73h13q104 0 156 39.5t57 120.5h86v-868h-105v635h-207zM301 -31l899 1581h125l-899 -1581h-125zM1047 33q0 85 41.5 159t128.5 144q21 17 61 48q88 69 117 99q25 27 37 62.5t12 83.5q0 74 -37 113.5t-107 39.5t-104.5 -43.5t-34.5 -132.5v-28h-104v30 q0 126 64.5 193t185.5 67q117 0 183 -61.5t66 -171.5q0 -56 -12.5 -99.5t-40.5 -80.5q-26 -36 -118 -103q-30 -21 -45 -32q-102 -76 -141.5 -127.5t-40.5 -104.5h407v-88h-516q-1 6 -1.5 13t-0.5 20z" />
<glyph unicode="&#xbe;" horiz-adv-x="1626" d="M51 918v6h107v-13q0 -89 37 -133.5t112 -44.5q80 0 121 45t41 131t-47 127t-146 41h-34v80h22q93 0 134.5 36t41.5 116q0 68 -36 105.5t-103 37.5q-64 0 -96.5 -40t-32.5 -120v-14h-104v14q0 114 63 178t174 64q113 0 178.5 -57.5t65.5 -157.5q0 -79 -37.5 -131.5 t-99.5 -63.5q85 -14 126.5 -66t41.5 -145q0 -124 -72 -193t-201 -69q-125 0 -190.5 68t-65.5 199zM301 -31l899 1581h125l-899 -1581h-125zM1026 221v82l358 563h95v-563h90v-82h-90v-221h-103v221h-350zM1114 303h262l13 440z" />
<glyph unicode="&#xbf;" horiz-adv-x="1018" d="M154 360q0 101 33.5 184t148.5 218l2 2q149 175 149 330q0 13 -2 43q-1 10 -2 16h160q1 -17 1.5 -35t0.5 -43q0 -104 -30 -183.5t-135 -204.5q-6 -7 -17 -20q-129 -153 -129 -309q0 -113 54 -179t147 -66q106 0 162.5 78t56.5 227v31h166v-27q0 -223 -98 -340t-283 -117 q-178 0 -281.5 106.5t-103.5 288.5zM481 1331v209h170v-209h-170z" />
<glyph unicode="&#xc0;" horiz-adv-x="1126" d="M31 0l420 1540h219l426 -1540h-174l-117 444h-488l-112 -444h-174zM336 1958h178l170 -270h-101zM356 600h410l-205 807z" />
<glyph unicode="&#xc1;" horiz-adv-x="1126" d="M31 0l420 1540h219l426 -1540h-174l-117 444h-488l-112 -444h-174zM356 600h410l-205 807zM442 1686l170 272h178l-247 -272h-101z" />
<glyph unicode="&#xc2;" horiz-adv-x="1126" d="M31 0l420 1540h219l426 -1540h-174l-117 444h-488l-112 -444h-174zM307 1688l172 270h168l172 -270h-98l-158 166l-158 -166h-98zM356 600h410l-205 807z" />
<glyph unicode="&#xc3;" horiz-adv-x="1126" d="M31 0l420 1540h219l426 -1540h-174l-117 444h-488l-112 -444h-174zM315 1708q22 97 66 146t110 49q12 0 21.5 -1.5t19.5 -4.5l107 -33q1 0 4 -1q16 -3 24 -3q27 0 44.5 18t23.5 52h74q-14 -99 -56.5 -150t-109.5 -51q-14 0 -28 2.5t-31 7.5l-87 31q-5 2 -12 3t-22 1 q-23 0 -42.5 -17.5t-29.5 -48.5h-76zM356 600h410l-205 807z" />
<glyph unicode="&#xc4;" horiz-adv-x="1126" d="M31 0l420 1540h219l426 -1540h-174l-117 444h-488l-112 -444h-174zM321 1723v170h156v-170h-156zM356 600h410l-205 807zM649 1723v170h156v-170h-156z" />
<glyph unicode="&#xc5;" horiz-adv-x="1126" d="M31 0l418 1530h223l424 -1530h-174l-117 444h-488l-112 -444h-174zM356 600h410l-205 807zM369 1780q0 80 56 136t136 56q81 0 137 -56t56 -136t-56.5 -136.5t-136.5 -56.5t-136 56.5t-56 136.5zM463 1780q0 -39 30 -69t68 -30q40 0 69 29.5t29 69.5t-29 69t-69 29 q-39 0 -68.5 -29.5t-29.5 -68.5z" />
<glyph unicode="&#xc6;" horiz-adv-x="1612" d="M-27 0l596 1540h940v-160h-594v-495h555v-156h-555v-567h601v-162h-771v444h-421l-166 -444h-185zM385 600h360v780h-65z" />
<glyph unicode="&#xc7;" horiz-adv-x="1157" d="M106 766q0 428 113.5 619.5t366.5 191.5q211 0 325.5 -122.5t114.5 -348.5v-19h-166q0 158 -74 248t-202 90q-157 0 -226 -152.5t-69 -506.5q0 -346 71 -492.5t234 -146.5q131 0 201.5 107.5t70.5 306.5v24h170q-3 -293 -121.5 -447.5t-341.5 -154.5q-238 0 -352.5 196.5 t-114.5 606.5zM379 -342l16 -3q127 -22 162 -22q54 0 82 21.5t28 62.5q0 42 -29.5 65t-82.5 23q-7 0 -14 -0.5t-23 -2.5v198h76v-102h6q97 0 152 -46.5t55 -127.5q0 -97 -62 -146t-184 -49q-38 0 -83.5 6.5t-98.5 20.5v102z" />
<glyph unicode="&#xc8;" horiz-adv-x="1004" d="M137 0v1540h764v-160h-594v-495h555v-156h-555v-567h600v-162h-770zM308 1958h178l170 -270h-101z" />
<glyph unicode="&#xc9;" horiz-adv-x="1004" d="M137 0v1540h764v-160h-594v-495h555v-156h-555v-567h600v-162h-770zM414 1686l170 272h178l-247 -272h-101z" />
<glyph unicode="&#xca;" horiz-adv-x="1004" d="M137 0v1540h764v-160h-594v-495h555v-156h-555v-567h600v-162h-770zM279 1688l172 270h168l172 -270h-98l-158 166l-158 -166h-98z" />
<glyph unicode="&#xcb;" horiz-adv-x="1004" d="M137 0v1540h764v-160h-594v-495h555v-156h-555v-567h600v-162h-770zM293 1723v170h156v-170h-156zM621 1723v170h156v-170h-156z" />
<glyph unicode="&#xcc;" horiz-adv-x="451" d="M-2 1958h178l170 -270h-101zM137 0v1540h176v-1540h-176z" />
<glyph unicode="&#xcd;" horiz-adv-x="451" d="M104 1686l170 272h178l-247 -272h-101zM137 0v1540h176v-1540h-176z" />
<glyph unicode="&#xce;" horiz-adv-x="451" d="M-31 1688l172 270h168l172 -270h-98l-158 166l-158 -166h-98zM137 0v1540h176v-1540h-176z" />
<glyph unicode="&#xcf;" horiz-adv-x="451" d="M-17 1723v170h156v-170h-156zM137 0v1540h176v-1540h-176zM311 1723v170h156v-170h-156z" />
<glyph unicode="&#xd0;" horiz-adv-x="1210" d="M0 754v147h156v639h436q261 0 385.5 -175t124.5 -544q0 -260 -43 -428.5t-133 -267.5q-62 -68 -140.5 -96.5t-232.5 -28.5h-397v754h-156zM328 147h223q107 0 166.5 22t93.5 71q55 79 78.5 197t23.5 331q0 373 -77.5 498t-290.5 125h-217v-490h305v-147h-305v-607z" />
<glyph unicode="&#xd1;" horiz-adv-x="1188" d="M137 0v1540h230l534 -1321l-16 1321h166v-1540h-220l-542 1360l14 -1360h-166zM368 1708q22 97 66 146t110 49q12 0 21.5 -1.5t19.5 -4.5l107 -33q1 0 4 -1q16 -3 24 -3q27 0 44.5 18t23.5 52h74q-14 -99 -56.5 -150t-109.5 -51q-14 0 -28 2.5t-31 7.5l-87 31q-5 2 -12 3 t-22 1q-23 0 -42.5 -17.5t-29.5 -48.5h-76z" />
<glyph unicode="&#xd2;" horiz-adv-x="1200" d="M106 770q0 430 116.5 618.5t377.5 188.5q263 0 378.5 -186.5t115.5 -620.5t-115 -620.5t-379 -186.5q-260 0 -377 190t-117 617zM285 770q0 -371 70.5 -513t244.5 -142q176 0 245.5 138.5t69.5 516.5q0 377 -69.5 515t-245.5 138q-174 0 -244.5 -141.5t-70.5 -511.5z M373 1958h178l170 -270h-101z" />
<glyph unicode="&#xd3;" horiz-adv-x="1200" d="M106 770q0 430 116.5 618.5t377.5 188.5q263 0 378.5 -186.5t115.5 -620.5t-115 -620.5t-379 -186.5q-260 0 -377 190t-117 617zM285 770q0 -371 70.5 -513t244.5 -142q176 0 245.5 138.5t69.5 516.5q0 377 -69.5 515t-245.5 138q-174 0 -244.5 -141.5t-70.5 -511.5z M479 1686l170 272h178l-247 -272h-101z" />
<glyph unicode="&#xd4;" horiz-adv-x="1200" d="M106 770q0 430 116.5 618.5t377.5 188.5q263 0 378.5 -186.5t115.5 -620.5t-115 -620.5t-379 -186.5q-260 0 -377 190t-117 617zM285 770q0 -371 70.5 -513t244.5 -142q176 0 245.5 138.5t69.5 516.5q0 377 -69.5 515t-245.5 138q-174 0 -244.5 -141.5t-70.5 -511.5z M344 1688l172 270h168l172 -270h-98l-158 166l-158 -166h-98z" />
<glyph unicode="&#xd5;" horiz-adv-x="1200" d="M106 770q0 430 116.5 618.5t377.5 188.5q263 0 378.5 -186.5t115.5 -620.5t-115 -620.5t-379 -186.5q-260 0 -377 190t-117 617zM285 770q0 -371 70.5 -513t244.5 -142q176 0 245.5 138.5t69.5 516.5q0 377 -69.5 515t-245.5 138q-174 0 -244.5 -141.5t-70.5 -511.5z M352 1708q22 97 66 146t110 49q12 0 21.5 -1.5t19.5 -4.5l107 -33q1 0 4 -1q16 -3 24 -3q27 0 44.5 18t23.5 52h74q-14 -99 -56.5 -150t-109.5 -51q-14 0 -28 2.5t-31 7.5l-87 31q-5 2 -12 3t-22 1q-23 0 -42.5 -17.5t-29.5 -48.5h-76z" />
<glyph unicode="&#xd6;" horiz-adv-x="1200" d="M106 770q0 430 116.5 618.5t377.5 188.5q263 0 378.5 -186.5t115.5 -620.5t-115 -620.5t-379 -186.5q-260 0 -377 190t-117 617zM285 770q0 -371 70.5 -513t244.5 -142q176 0 245.5 138.5t69.5 516.5q0 377 -69.5 515t-245.5 138q-174 0 -244.5 -141.5t-70.5 -511.5z M358 1723v170h156v-170h-156zM686 1723v170h156v-170h-156z" />
<glyph unicode="&#xd7;" horiz-adv-x="1706" d="M293 141l469 469l-469 469l98 99l469 -469l469 469l98 -99l-469 -469l469 -469l-98 -96l-469 467l-469 -467z" />
<glyph unicode="&#xd8;" horiz-adv-x="1200" d="M78 14l117 193q-45 95 -65.5 227.5t-20.5 335.5q0 431 115 619t376 188q115 0 199 -33t145 -102l80 139l90 -57l-106 -183q44 -95 65 -234.5t21 -336.5q0 -434 -115 -620.5t-379 -186.5q-113 0 -197 35.5t-145 107.5l-90 -151zM287 770q0 -120 6.5 -209t19.5 -160 l535 885q-39 72 -98 104.5t-150 32.5q-173 0 -243 -140.5t-70 -512.5zM352 264q35 -76 95.5 -112.5t152.5 -36.5q178 0 246.5 141t68.5 551q0 92 -6.5 178t-19.5 166z" />
<glyph unicode="&#xd9;" horiz-adv-x="1180" d="M139 535v1005h172v-1036q0 -216 61.5 -300.5t209.5 -84.5q150 0 221 93t71 292v1036h168v-1005q0 -195 -22 -275.5t-74 -142.5q-63 -75 -155.5 -113.5t-210.5 -38.5q-121 0 -217 41.5t-152 118.5q-39 52 -55.5 133.5t-16.5 276.5zM363 1958h178l170 -270h-101z" />
<glyph unicode="&#xda;" horiz-adv-x="1180" d="M139 535v1005h172v-1036q0 -216 61.5 -300.5t209.5 -84.5q150 0 221 93t71 292v1036h168v-1005q0 -195 -22 -275.5t-74 -142.5q-63 -75 -155.5 -113.5t-210.5 -38.5q-121 0 -217 41.5t-152 118.5q-39 52 -55.5 133.5t-16.5 276.5zM469 1686l170 272h178l-247 -272h-101z " />
<glyph unicode="&#xdb;" horiz-adv-x="1180" d="M139 535v1005h172v-1036q0 -216 61.5 -300.5t209.5 -84.5q150 0 221 93t71 292v1036h168v-1005q0 -195 -22 -275.5t-74 -142.5q-63 -75 -155.5 -113.5t-210.5 -38.5q-121 0 -217 41.5t-152 118.5q-39 52 -55.5 133.5t-16.5 276.5zM334 1688l172 270h168l172 -270h-98 l-158 166l-158 -166h-98z" />
<glyph unicode="&#xdc;" horiz-adv-x="1180" d="M139 535v1005h172v-1036q0 -216 61.5 -300.5t209.5 -84.5q150 0 221 93t71 292v1036h168v-1005q0 -195 -22 -275.5t-74 -142.5q-63 -75 -155.5 -113.5t-210.5 -38.5q-121 0 -217 41.5t-152 118.5q-39 52 -55.5 133.5t-16.5 276.5zM348 1723v170h156v-170h-156zM676 1723 v170h156v-170h-156z" />
<glyph unicode="&#xdd;" horiz-adv-x="1028" d="M-31 1540h205l340 -758l356 758h187l-459 -944v-596h-174v596zM393 1686l170 272h178l-247 -272h-101z" />
<glyph unicode="&#xde;" horiz-adv-x="1085" d="M137 0v1540h172v-274h223q253 0 368.5 -103t115.5 -325q0 -229 -121 -347t-356 -118h-230v-373h-172zM309 528h226q156 0 229.5 75t73.5 235q0 146 -74 212t-240 66h-215v-588z" />
<glyph unicode="&#xdf;" horiz-adv-x="985" d="M121 0v1077q0 240 88 355.5t270 115.5q169 0 258.5 -95.5t89.5 -276.5q0 -110 -35 -183.5t-108 -115.5q103 -43 152 -146.5t49 -277.5q0 -242 -79.5 -362t-240.5 -120q-43 0 -76.5 10t-60.5 31v152q30 -24 61 -35.5t64 -11.5q88 0 126 76t38 256q0 191 -51 270.5 t-170 79.5q-19 0 -28.5 -0.5t-18.5 -1.5v137q6 -1 13 -1.5t21 -0.5q94 0 140.5 55t46.5 166q0 136 -47 198t-150 62q-100 0 -148.5 -66.5t-48.5 -205.5v-1141h-155z" />
<glyph unicode="&#xe0;" horiz-adv-x="913" d="M90 291q0 149 64.5 227t278.5 150l3 1q176 59 176 138v106q0 71 -40.5 103.5t-129.5 32.5q-86 0 -128 -45t-42 -138v-20h-151q3 176 84 257t256 81q164 0 239.5 -74.5t75.5 -235.5v-673q0 -45 16 -64.5t52 -19.5q7 0 22 3q2 0 4 1v-123q-30 -5 -52.5 -7.5t-41.5 -2.5 q-68 0 -107 43t-42 122q-37 -88 -107 -135t-166 -47q-125 0 -194.5 84t-69.5 236zM246 1546h178l170 -270h-101zM252 293q0 -86 38 -133t107 -47q100 0 159.5 76t59.5 204v228q-38 -42 -168 -89q-11 -4 -16 -6q-112 -39 -146 -88t-34 -145z" />
<glyph unicode="&#xe1;" horiz-adv-x="913" d="M90 291q0 149 64.5 227t278.5 150l3 1q176 59 176 138v106q0 71 -40.5 103.5t-129.5 32.5q-86 0 -128 -45t-42 -138v-20h-151q3 176 84 257t256 81q164 0 239.5 -74.5t75.5 -235.5v-673q0 -45 16 -64.5t52 -19.5q7 0 22 3q2 0 4 1v-123q-30 -5 -52.5 -7.5t-41.5 -2.5 q-68 0 -107 43t-42 122q-37 -88 -107 -135t-166 -47q-125 0 -194.5 84t-69.5 236zM252 293q0 -86 38 -133t107 -47q100 0 159.5 76t59.5 204v228q-38 -42 -168 -89q-11 -4 -16 -6q-112 -39 -146 -88t-34 -145zM352 1274l170 272h178l-247 -272h-101z" />
<glyph unicode="&#xe2;" horiz-adv-x="913" d="M90 291q0 149 64.5 227t278.5 150l3 1q176 59 176 138v106q0 71 -40.5 103.5t-129.5 32.5q-86 0 -128 -45t-42 -138v-20h-151q3 176 84 257t256 81q164 0 239.5 -74.5t75.5 -235.5v-673q0 -45 16 -64.5t52 -19.5q7 0 22 3q2 0 4 1v-123q-30 -5 -52.5 -7.5t-41.5 -2.5 q-68 0 -107 43t-42 122q-37 -88 -107 -135t-166 -47q-125 0 -194.5 84t-69.5 236zM217 1276l172 270h168l172 -270h-98l-158 166l-158 -166h-98zM252 293q0 -86 38 -133t107 -47q100 0 159.5 76t59.5 204v228q-38 -42 -168 -89q-11 -4 -16 -6q-112 -39 -146 -88t-34 -145z " />
<glyph unicode="&#xe3;" horiz-adv-x="913" d="M90 291q0 149 64.5 227t278.5 150l3 1q176 59 176 138v106q0 71 -40.5 103.5t-129.5 32.5q-86 0 -128 -45t-42 -138v-20h-151q3 176 84 257t256 81q164 0 239.5 -74.5t75.5 -235.5v-673q0 -45 16 -64.5t52 -19.5q7 0 22 3q2 0 4 1v-123q-30 -5 -52.5 -7.5t-41.5 -2.5 q-68 0 -107 43t-42 122q-37 -88 -107 -135t-166 -47q-125 0 -194.5 84t-69.5 236zM225 1296q22 97 66 146t110 49q12 0 21.5 -1.5t19.5 -4.5l107 -33q1 0 4 -1q16 -3 24 -3q27 0 44.5 18t23.5 52h74q-14 -99 -56.5 -150t-109.5 -51q-14 0 -28 2.5t-31 7.5l-87 31q-5 2 -12 3 t-22 1q-23 0 -42.5 -17.5t-29.5 -48.5h-76zM252 293q0 -86 38 -133t107 -47q100 0 159.5 76t59.5 204v228q-38 -42 -168 -89q-11 -4 -16 -6q-112 -39 -146 -88t-34 -145z" />
<glyph unicode="&#xe4;" horiz-adv-x="913" d="M90 291q0 149 64.5 227t278.5 150l3 1q176 59 176 138v106q0 71 -40.5 103.5t-129.5 32.5q-86 0 -128 -45t-42 -138v-20h-151q3 176 84 257t256 81q164 0 239.5 -74.5t75.5 -235.5v-673q0 -45 16 -64.5t52 -19.5q7 0 22 3q2 0 4 1v-123q-30 -5 -52.5 -7.5t-41.5 -2.5 q-68 0 -107 43t-42 122q-37 -88 -107 -135t-166 -47q-125 0 -194.5 84t-69.5 236zM231 1311v170h156v-170h-156zM252 293q0 -86 38 -133t107 -47q100 0 159.5 76t59.5 204v228q-38 -42 -168 -89q-11 -4 -16 -6q-112 -39 -146 -88t-34 -145zM559 1311v170h156v-170h-156z" />
<glyph unicode="&#xe5;" horiz-adv-x="913" d="M90 291q0 149 64.5 227t278.5 150l3 1q176 59 176 138v106q0 71 -40.5 103.5t-129.5 32.5q-86 0 -128 -45t-42 -138v-20h-151q3 176 84 257t256 81q164 0 239.5 -74.5t75.5 -235.5v-673q0 -45 16 -64.5t52 -19.5q7 0 22 3q2 0 4 1v-123q-30 -5 -52.5 -7.5t-41.5 -2.5 q-68 0 -107 43t-42 122q-37 -88 -107 -135t-166 -47q-125 0 -194.5 84t-69.5 236zM252 293q0 -86 38 -133t107 -47q100 0 159.5 76t59.5 204v228q-38 -42 -168 -89q-11 -4 -16 -6q-112 -39 -146 -88t-34 -145zM268 1434q0 79 56.5 135.5t136.5 56.5q81 0 136.5 -56 t55.5 -136q0 -81 -56.5 -138t-135.5 -57q-80 0 -136.5 57t-56.5 138zM362 1434q0 -39 30.5 -70t68.5 -31q39 0 68.5 30t29.5 71q0 40 -29 69t-69 29q-39 0 -69 -29.5t-30 -68.5z" />
<glyph unicode="&#xe6;" horiz-adv-x="1423" d="M94 291q0 88 23 149.5t73 108.5q55 51 219 108q50 17 76 27q67 25 90 39t35 31q8 10 11.5 27.5t3.5 52.5v55q0 83 -43.5 124.5t-130.5 41.5q-83 0 -129 -48t-46 -135q0 -4 1.5 -13t1.5 -13h-152q3 176 84 257t256 81q102 0 165.5 -29t100.5 -92q43 60 104 90.5t140 30.5 q176 0 265 -128.5t89 -383.5q0 -18 -0.5 -38.5t-3.5 -63.5l-557 -1q-1 -18 -1.5 -38.5t-0.5 -59.5q0 -196 50 -279t165 -83q91 0 137.5 71t46.5 209h158q-2 -202 -93.5 -310t-260.5 -108q-107 0 -181.5 50t-115.5 149q-73 -102 -149.5 -150.5t-166.5 -48.5q-124 0 -194 84.5 t-70 235.5zM256 293q0 -85 38 -131.5t107 -46.5q103 0 161.5 76.5t58.5 214.5v215q-31 -40 -164 -87q-14 -5 -21 -8q-111 -38 -145.5 -87.5t-34.5 -145.5zM774 700h391v37q0 154 -49 234t-143 80q-100 0 -149.5 -80t-49.5 -242v-29z" />
<glyph unicode="&#xe7;" horiz-adv-x="942" d="M94 584q0 301 96 449.5t291 148.5q161 0 254.5 -98.5t93.5 -268.5v-24h-157q-5 121 -52 184t-133 63q-118 0 -168.5 -104.5t-50.5 -355.5q0 -254 51 -359.5t170 -105.5q90 0 139 75t52 217l158 1q0 -209 -96 -323t-271 -114q-192 0 -284.5 151t-92.5 464zM285 -342l16 -3 q127 -22 162 -22q54 0 82 21.5t28 62.5q0 42 -29.5 65t-82.5 23q-7 0 -14 -0.5t-23 -2.5v198h76v-102h6q97 0 152 -46.5t55 -127.5q0 -97 -62 -146t-184 -49q-38 0 -83.5 6.5t-98.5 20.5v102z" />
<glyph unicode="&#xe8;" horiz-adv-x="901" d="M90 563q0 322 88.5 471.5t278.5 149.5q179 0 266.5 -127t87.5 -387q0 -41 -0.5 -62t-1.5 -38l-553 -1v-51q0 -216 50 -315t159 -99q85 0 134.5 74.5t49.5 202.5v8h158q-2 -204 -93.5 -312t-260.5 -108q-186 0 -274.5 145t-88.5 449zM250 1546h178l170 -270h-101zM256 700 h391v31q0 159 -46.5 239.5t-139.5 80.5q-104 0 -154.5 -86.5t-50.5 -264.5z" />
<glyph unicode="&#xe9;" horiz-adv-x="901" d="M90 563q0 322 88.5 471.5t278.5 149.5q179 0 266.5 -127t87.5 -387q0 -41 -0.5 -62t-1.5 -38l-553 -1v-51q0 -216 50 -315t159 -99q85 0 134.5 74.5t49.5 202.5v8h158q-2 -204 -93.5 -312t-260.5 -108q-186 0 -274.5 145t-88.5 449zM256 700h391v31q0 159 -46.5 239.5 t-139.5 80.5q-104 0 -154.5 -86.5t-50.5 -264.5zM356 1274l170 272h178l-247 -272h-101z" />
<glyph unicode="&#xea;" horiz-adv-x="901" d="M90 563q0 322 88.5 471.5t278.5 149.5q179 0 266.5 -127t87.5 -387q0 -41 -0.5 -62t-1.5 -38l-553 -1v-51q0 -216 50 -315t159 -99q85 0 134.5 74.5t49.5 202.5v8h158q-2 -204 -93.5 -312t-260.5 -108q-186 0 -274.5 145t-88.5 449zM221 1276l172 270h168l172 -270h-98 l-158 166l-158 -166h-98zM256 700h391v31q0 159 -46.5 239.5t-139.5 80.5q-104 0 -154.5 -86.5t-50.5 -264.5z" />
<glyph unicode="&#xeb;" horiz-adv-x="901" d="M90 563q0 322 88.5 471.5t278.5 149.5q179 0 266.5 -127t87.5 -387q0 -41 -0.5 -62t-1.5 -38l-553 -1v-51q0 -216 50 -315t159 -99q85 0 134.5 74.5t49.5 202.5v8h158q-2 -204 -93.5 -312t-260.5 -108q-186 0 -274.5 145t-88.5 449zM235 1311v170h156v-170h-156zM256 700 h391v31q0 159 -46.5 239.5t-139.5 80.5q-104 0 -154.5 -86.5t-50.5 -264.5zM563 1311v170h156v-170h-156z" />
<glyph unicode="&#xec;" horiz-adv-x="408" d="M-22 1546h178l170 -270h-101zM121 0v1151h166v-1151h-166z" />
<glyph unicode="&#xed;" horiz-adv-x="408" d="M84 1274l170 272h178l-247 -272h-101zM121 0v1151h166v-1151h-166z" />
<glyph unicode="&#xee;" horiz-adv-x="408" d="M-51 1276l172 270h168l172 -270h-98l-158 166l-158 -166h-98zM121 0v1151h166v-1151h-166z" />
<glyph unicode="&#xef;" horiz-adv-x="408" d="M-37 1311v170h156v-170h-156zM121 0v1151h166v-1151h-166zM291 1311v170h156v-170h-156z" />
<glyph unicode="&#xf0;" horiz-adv-x="989" d="M90 545q0 283 94.5 428t278.5 145q36 0 67.5 -8.5t61.5 -26.5q-26 39 -67.5 79.5t-104.5 88.5l-242 -135l-45 82l205 117q-26 18 -66.5 41.5t-101.5 56.5l41 127q67 -33 133.5 -70.5t132.5 -80.5l271 151l53 -82l-242 -137q177 -137 257.5 -321t80.5 -455 q0 -299 -97 -437.5t-306 -138.5t-306.5 138.5t-97.5 437.5zM262 551q0 -244 53 -343t179 -99q123 0 177 102t54 340q0 240 -53 339t-178 99t-178.5 -98t-53.5 -340z" />
<glyph unicode="&#xf1;" horiz-adv-x="963" d="M123 0v1151h151v-143q42 84 114 126t175 42q152 0 216.5 -77t64.5 -265v-834h-162v846q0 94 -40 140t-122 46q-108 0 -171.5 -68t-63.5 -184v-780h-162zM252 1296q22 97 66 146t110 49q12 0 21.5 -1.5t19.5 -4.5l107 -33q1 0 4 -1q16 -3 24 -3q27 0 44.5 18t23.5 52h74 q-14 -99 -56.5 -150t-109.5 -51q-14 0 -28 2.5t-31 7.5l-87 31q-5 2 -12 3t-22 1q-23 0 -42.5 -17.5t-29.5 -48.5h-76z" />
<glyph unicode="&#xf2;" horiz-adv-x="989" d="M90 575q0 310 99.5 459.5t304.5 149.5q208 0 306.5 -148t98.5 -461t-98 -459.5t-307 -146.5q-210 0 -307 145.5t-97 460.5zM262 575q0 -258 53 -363.5t179 -105.5q124 0 177.5 107.5t53.5 361.5q0 256 -53.5 361.5t-177.5 105.5q-125 0 -178.5 -104.5t-53.5 -362.5z M275 1546h178l170 -270h-101z" />
<glyph unicode="&#xf3;" horiz-adv-x="989" d="M90 575q0 310 99.5 459.5t304.5 149.5q208 0 306.5 -148t98.5 -461t-98 -459.5t-307 -146.5q-210 0 -307 145.5t-97 460.5zM262 575q0 -258 53 -363.5t179 -105.5q124 0 177.5 107.5t53.5 361.5q0 256 -53.5 361.5t-177.5 105.5q-125 0 -178.5 -104.5t-53.5 -362.5z M381 1274l170 272h178l-247 -272h-101z" />
<glyph unicode="&#xf4;" horiz-adv-x="989" d="M90 575q0 310 99.5 459.5t304.5 149.5q208 0 306.5 -148t98.5 -461t-98 -459.5t-307 -146.5q-210 0 -307 145.5t-97 460.5zM246 1276l172 270h168l172 -270h-98l-158 166l-158 -166h-98zM262 575q0 -258 53 -363.5t179 -105.5q124 0 177.5 107.5t53.5 361.5 q0 256 -53.5 361.5t-177.5 105.5q-125 0 -178.5 -104.5t-53.5 -362.5z" />
<glyph unicode="&#xf5;" horiz-adv-x="989" d="M90 575q0 310 99.5 459.5t304.5 149.5q208 0 306.5 -148t98.5 -461t-98 -459.5t-307 -146.5q-210 0 -307 145.5t-97 460.5zM254 1296q22 97 66 146t110 49q12 0 21.5 -1.5t19.5 -4.5l107 -33q1 0 4 -1q16 -3 24 -3q27 0 44.5 18t23.5 52h74q-14 -99 -56.5 -150 t-109.5 -51q-14 0 -28 2.5t-31 7.5l-87 31q-5 2 -12 3t-22 1q-23 0 -42.5 -17.5t-29.5 -48.5h-76zM262 575q0 -258 53 -363.5t179 -105.5q124 0 177.5 107.5t53.5 361.5q0 256 -53.5 361.5t-177.5 105.5q-125 0 -178.5 -104.5t-53.5 -362.5z" />
<glyph unicode="&#xf6;" horiz-adv-x="989" d="M90 575q0 310 99.5 459.5t304.5 149.5q208 0 306.5 -148t98.5 -461t-98 -459.5t-307 -146.5q-210 0 -307 145.5t-97 460.5zM260 1311v170h156v-170h-156zM262 575q0 -258 53 -363.5t179 -105.5q124 0 177.5 107.5t53.5 361.5q0 256 -53.5 361.5t-177.5 105.5 q-125 0 -178.5 -104.5t-53.5 -362.5zM588 1311v170h156v-170h-156z" />
<glyph unicode="&#xf7;" horiz-adv-x="1706" d="M254 541v139h1198v-139h-1198zM729 242q0 51 37 88t88 37t88 -37t37 -88q0 -52 -36.5 -88.5t-88.5 -36.5q-53 0 -89 36t-36 89zM729 979q0 52 37 89.5t88 37.5t88 -37.5t37 -89.5q0 -51 -36.5 -88t-88.5 -37t-88.5 36.5t-36.5 88.5z" />
<glyph unicode="&#xf8;" horiz-adv-x="989" d="M29 -25l129 193q-34 79 -51 179.5t-17 219.5q0 316 98 466.5t306 150.5q93 0 159 -26t115 -81l102 152l78 -53l-123 -185q38 -70 56 -175.5t18 -252.5q0 -302 -99.5 -448t-305.5 -146q-93 0 -160.5 27t-120.5 84l-107 -162zM262 578q0 -78 3 -133.5t9 -102.5l400 596 q-26 51 -72.5 77.5t-107.5 26.5q-128 0 -180 -101.5t-52 -362.5zM309 223q25 -60 69 -87t116 -27q124 0 177.5 107t53.5 362q0 58 -4 117t-12 122z" />
<glyph unicode="&#xf9;" horiz-adv-x="963" d="M119 266v885h168v-889q0 -71 35.5 -110t99.5 -39q116 0 181 72t65 202v764h163v-1151h-149v150q-34 -87 -108.5 -134t-178.5 -47q-144 0 -210 71t-66 226zM248 1546h178l170 -270h-101z" />
<glyph unicode="&#xfa;" horiz-adv-x="963" d="M119 266v885h168v-889q0 -71 35.5 -110t99.5 -39q116 0 181 72t65 202v764h163v-1151h-149v150q-34 -87 -108.5 -134t-178.5 -47q-144 0 -210 71t-66 226zM354 1274l170 272h178l-247 -272h-101z" />
<glyph unicode="&#xfb;" horiz-adv-x="963" d="M119 266v885h168v-889q0 -71 35.5 -110t99.5 -39q116 0 181 72t65 202v764h163v-1151h-149v150q-34 -87 -108.5 -134t-178.5 -47q-144 0 -210 71t-66 226zM219 1276l172 270h168l172 -270h-98l-158 166l-158 -166h-98z" />
<glyph unicode="&#xfc;" horiz-adv-x="963" d="M119 266v885h168v-889q0 -71 35.5 -110t99.5 -39q116 0 181 72t65 202v764h163v-1151h-149v150q-34 -87 -108.5 -134t-178.5 -47q-144 0 -210 71t-66 226zM233 1311v170h156v-170h-156zM561 1311v170h156v-170h-156z" />
<glyph unicode="&#xfd;" horiz-adv-x="909" d="M35 1151h174l246 -928l254 928h165l-354 -1202q-56 -196 -129 -266t-207 -70q-20 0 -47.5 4.5t-58.5 13.5v146q25 -11 50 -16t50 -5q71 0 112.5 48t82.5 186zM334 1274l170 272h178l-247 -272h-101z" />
<glyph unicode="&#xfe;" horiz-adv-x="975" d="M123 -389v1929h166v-506q26 68 87.5 106t145.5 38q182 0 273.5 -150.5t91.5 -449.5q0 -311 -85 -457t-265 -146q-81 0 -146.5 39t-101.5 109v-512h-166zM279 580q0 -236 56 -349.5t173 -113.5q107 0 156 109.5t49 355.5q0 239 -50 345.5t-161 106.5q-119 0 -171 -105 t-52 -349z" />
<glyph unicode="&#xff;" horiz-adv-x="909" d="M35 1151h174l246 -928l254 928h165l-354 -1202q-56 -196 -129 -266t-207 -70q-20 0 -47.5 4.5t-58.5 13.5v146q25 -11 50 -16t50 -5q71 0 112.5 48t82.5 186zM213 1311v170h156v-170h-156zM541 1311v170h156v-170h-156z" />
<glyph unicode="&#x152;" horiz-adv-x="1747" d="M104 770q0 418 113 612.5t354 194.5q114 0 192 -43t118 -127v133h764v-160h-596v-495h555v-156h-555v-567h602v-162h-770v133q-40 -84 -118 -127t-192 -43q-241 0 -354 194.5t-113 612.5zM285 801q0 -400 69 -543t244 -143q151 0 217 88.5t66 294.5v567q0 187 -68 272.5 t-215 85.5q-170 0 -241.5 -139t-71.5 -483z" />
<glyph unicode="&#x153;" horiz-adv-x="1485" d="M90 563q0 325 93 472t296 147q103 0 175 -39t120 -121q45 80 112 120t158 40q176 0 260.5 -126.5t84.5 -391.5q0 -39 -0.5 -59t-2.5 -38h-530v-71q0 -215 44 -303.5t147 -88.5q88 0 136 72t50 207h149q-6 -198 -91 -305t-236 -107q-107 0 -177 41t-108 125 q-40 -84 -110.5 -125t-178.5 -41q-202 0 -296.5 143t-94.5 449zM260 565q0 -250 52 -355.5t171 -105.5q117 0 165 101.5t48 363.5q0 281 -47.5 380.5t-167.5 99.5q-122 0 -171.5 -104.5t-49.5 -379.5zM854 698h373q0 8 1 26.5t1 29.5q0 141 -48 218t-137 77 q-98 0 -144 -84.5t-46 -266.5z" />
<glyph unicode="&#x178;" horiz-adv-x="1028" d="M-31 1540h205l340 -758l356 758h187l-459 -944v-596h-174v596zM272 1723v170h156v-170h-156zM600 1723v170h156v-170h-156z" />
<glyph unicode="&#x2c6;" horiz-adv-x="1024" d="M256 1276l172 270h168l172 -270h-98l-158 166l-158 -166h-98z" />
<glyph unicode="&#x2dc;" horiz-adv-x="1024" d="M264 1296q22 97 66 146t110 49q12 0 21.5 -1.5t19.5 -4.5l107 -33q1 0 4 -1q16 -3 24 -3q27 0 44.5 18t23.5 52h74q-14 -99 -56.5 -150t-109.5 -51q-14 0 -28 2.5t-31 7.5l-87 31q-5 2 -12 3t-22 1q-23 0 -42.5 -17.5t-29.5 -48.5h-76z" />
<glyph unicode="&#x2000;" horiz-adv-x="986" />
<glyph unicode="&#x2001;" horiz-adv-x="1972" />
<glyph unicode="&#x2002;" horiz-adv-x="986" />
<glyph unicode="&#x2003;" horiz-adv-x="1972" />
<glyph unicode="&#x2004;" horiz-adv-x="657" />
<glyph unicode="&#x2005;" horiz-adv-x="493" />
<glyph unicode="&#x2006;" horiz-adv-x="328" />
<glyph unicode="&#x2007;" horiz-adv-x="328" />
<glyph unicode="&#x2008;" horiz-adv-x="246" />
<glyph unicode="&#x2009;" horiz-adv-x="394" />
<glyph unicode="&#x200a;" horiz-adv-x="109" />
<glyph unicode="&#x2010;" horiz-adv-x="676" d="M90 485v181h494v-181h-494z" />
<glyph unicode="&#x2011;" horiz-adv-x="676" d="M90 485v181h494v-181h-494z" />
<glyph unicode="&#x2012;" horiz-adv-x="676" d="M90 485v181h494v-181h-494z" />
<glyph unicode="&#x2013;" horiz-adv-x="1024" d="M0 502v147h1024v-147h-1024z" />
<glyph unicode="&#x2014;" horiz-adv-x="2048" d="M0 502v147h2048v-147h-2048z" />
<glyph unicode="&#x2018;" horiz-adv-x="502" d="M160 1071v211q0 116 49 195t133 100v-98q-42 -8 -65 -57t-23 -130v-10h88v-211h-182z" />
<glyph unicode="&#x2019;" horiz-adv-x="502" d="M160 1036v97q41 8 64.5 57.5t23.5 130.5v10h-88v209h182v-211q0 -116 -49 -194t-133 -99z" />
<glyph unicode="&#x201a;" horiz-adv-x="502" d="M160 0v211h182v-211q0 -116 -49 -195t-133 -100v96q41 8 64.5 57.5t23.5 131.5v10h-88z" />
<glyph unicode="&#x201c;" horiz-adv-x="795" d="M160 1071v211q0 116 49 194t133 99v-96q-42 -8 -65 -57.5t-23 -131.5v-10h88v-209h-182zM451 1071v211q0 116 48.5 194t133.5 99v-96q-42 -8 -65 -57.5t-23 -131.5v-10h88v-209h-182z" />
<glyph unicode="&#x201d;" horiz-adv-x="795" d="M160 1036v97q41 8 64.5 57.5t23.5 130.5v10h-88v209h182v-211q0 -116 -49 -194t-133 -99zM451 1036v97q41 8 64.5 57.5t23.5 130.5v10h-88v209h182v-211q0 -116 -49 -194t-133 -99z" />
<glyph unicode="&#x201e;" horiz-adv-x="795" d="M160 0v211h182v-211q0 -116 -49 -195t-133 -100v96q41 8 64.5 57.5t23.5 131.5v10h-88zM451 0v211h182v-211q0 -116 -49 -195t-133 -100v96q41 8 64.5 57.5t23.5 131.5v10h-88z" />
<glyph unicode="&#x2022;" horiz-adv-x="1208" d="M307 762q0 123 87 209t210 86q122 0 208.5 -86.5t86.5 -208.5t-87.5 -209.5t-209.5 -87.5q-123 0 -209 87t-86 210z" />
<glyph unicode="&#x2026;" horiz-adv-x="2048" d="M250 0v211h182v-211h-182zM932 0v211h182v-211h-182zM1616 0v211h182v-211h-182z" />
<glyph unicode="&#x202f;" horiz-adv-x="394" />
<glyph unicode="&#x2039;" horiz-adv-x="565" d="M131 506v145l303 314v-187l-196 -200l196 -205v-187z" />
<glyph unicode="&#x203a;" horiz-adv-x="565" d="M131 186v187l197 200l-197 205v187l303 -318v-147z" />
<glyph unicode="&#x205f;" horiz-adv-x="493" />
<glyph unicode="&#x20ac;" d="M33 602l24 98h117q0 70 0.5 105t1.5 65h-135l25 99h114q18 317 115 448t309 131q175 0 264 -99.5t101 -315.5h-166q-10 134 -59.5 200t-141.5 66q-125 0 -180.5 -94t-65.5 -336h449l-25 -99h-428q0 -14 -1 -42.5t-1 -41.5q0 -14 1 -42.5t1 -43.5h387l-26 -98h-358 q6 -273 61.5 -378t183.5 -105q102 0 154 84t57 268h168q-15 -264 -109.5 -383t-285.5 -119q-203 0 -298.5 147t-109.5 486h-143z" />
<glyph unicode="&#x2122;" horiz-adv-x="1706" d="M242 1378v80h452v-80h-172v-458h-108v458h-172zM813 920v538h150l151 -385l141 385h150v-538h-98v444l-166 -444h-56l-174 444v-444h-98z" />
<glyph unicode="&#x25fc;" horiz-adv-x="1150" d="M0 0v1150h1150v-1150h-1150z" />
<glyph unicode="&#xfb01;" horiz-adv-x="922" d="M2 1018v133h164v156q0 125 65.5 183t206.5 58q20 0 36 -2t30 -6l-1 -143q-20 4 -34.5 6t-28.5 2q-60 0 -84 -24t-24 -87v-143h172v-133h-172v-1018h-166v1018h-164zM641 0v1151h166v-1151h-166zM641 1331v209h166v-209h-166z" />
<glyph unicode="&#xfb02;" horiz-adv-x="922" d="M2 1018v133h164v156q0 125 65.5 183t206.5 58q20 0 36 -2t30 -6l-1 -143q-20 4 -34.5 6t-28.5 2q-61 0 -84.5 -24.5t-23.5 -90.5v-139h172v-133h-172v-1018h-166v1018h-164zM641 0v1540h166v-1540h-166z" />
<hkern u1="&#x2d;" u2="Y" k="149" />
<hkern u1="&#x2d;" u2="X" k="73" />
<hkern u1="&#x2d;" u2="W" k="45" />
<hkern u1="&#x2d;" u2="V" k="112" />
<hkern u1="&#x2d;" u2="T" k="139" />
<hkern u1="A" u2="&#x201d;" k="243" />
<hkern u1="A" u2="&#x201c;" k="225" />
<hkern u1="A" u2="&#x2019;" k="243" />
<hkern u1="A" u2="&#x2018;" k="225" />
<hkern u1="A" u2="y" k="36" />
<hkern u1="A" u2="w" k="55" />
<hkern u1="A" u2="v" k="45" />
<hkern u1="A" u2="Y" k="120" />
<hkern u1="A" u2="W" k="36" />
<hkern u1="A" u2="V" k="36" />
<hkern u1="A" u2="U" k="36" />
<hkern u1="A" u2="T" k="149" />
<hkern u1="A" u2="&#x3b;" k="-38" />
<hkern u1="A" u2="&#x3a;" k="-38" />
<hkern u1="A" u2="&#x2e;" k="-38" />
<hkern u1="A" u2="&#x2c;" k="-38" />
<hkern u1="B" u2="&#x201e;" k="36" />
<hkern u1="B" u2="&#x201d;" k="36" />
<hkern u1="B" u2="&#x201c;" k="36" />
<hkern u1="B" u2="&#x201a;" k="36" />
<hkern u1="B" u2="&#x2019;" k="36" />
<hkern u1="B" u2="&#x2018;" k="36" />
<hkern u1="B" u2="Y" k="55" />
<hkern u1="B" u2="W" k="36" />
<hkern u1="B" u2="V" k="36" />
<hkern u1="B" u2="&#x2d;" k="-38" />
<hkern u1="C" u2="&#x201e;" k="36" />
<hkern u1="C" u2="&#x201d;" k="-38" />
<hkern u1="C" u2="&#x201a;" k="36" />
<hkern u1="C" u2="&#x2019;" k="-38" />
<hkern u1="C" u2="S" k="-38" />
<hkern u1="C" u2="&#x2d;" k="-47" />
<hkern u1="D" u2="&#x201e;" k="36" />
<hkern u1="D" u2="&#x201d;" k="36" />
<hkern u1="D" u2="&#x201a;" k="36" />
<hkern u1="D" u2="&#x2019;" k="36" />
<hkern u1="D" u2="Y" k="36" />
<hkern u1="D" u2="&#x2d;" k="-38" />
<hkern u1="F" u2="&#x201e;" k="225" />
<hkern u1="F" u2="&#x201d;" k="-38" />
<hkern u1="F" u2="&#x201a;" k="225" />
<hkern u1="F" u2="&#x2019;" k="-38" />
<hkern u1="F" u2="&#x153;" k="45" />
<hkern u1="F" u2="&#xf8;" k="45" />
<hkern u1="F" u2="&#xe6;" k="45" />
<hkern u1="F" u2="&#xc5;" k="83" />
<hkern u1="F" u2="u" k="45" />
<hkern u1="F" u2="r" k="36" />
<hkern u1="F" u2="o" k="45" />
<hkern u1="F" u2="e" k="45" />
<hkern u1="F" u2="a" k="45" />
<hkern u1="F" u2="T" k="-38" />
<hkern u1="F" u2="A" k="83" />
<hkern u1="F" u2="&#x2e;" k="272" />
<hkern u1="F" u2="&#x2d;" k="36" />
<hkern u1="F" u2="&#x2c;" k="272" />
<hkern u1="G" u2="T" k="36" />
<hkern u1="J" u2="&#x201e;" k="36" />
<hkern u1="J" u2="&#x201d;" k="36" />
<hkern u1="J" u2="&#x201a;" k="36" />
<hkern u1="J" u2="&#x2019;" k="36" />
<hkern u1="K" u2="&#x2039;" k="73" />
<hkern u1="K" u2="&#x201c;" k="73" />
<hkern u1="K" u2="&#x2018;" k="73" />
<hkern u1="K" u2="&#x153;" k="36" />
<hkern u1="K" u2="&#x152;" k="55" />
<hkern u1="K" u2="&#xf8;" k="36" />
<hkern u1="K" u2="&#xd8;" k="55" />
<hkern u1="K" u2="&#xab;" k="73" />
<hkern u1="K" u2="y" k="55" />
<hkern u1="K" u2="u" k="36" />
<hkern u1="K" u2="o" k="36" />
<hkern u1="K" u2="e" k="36" />
<hkern u1="K" u2="Y" k="55" />
<hkern u1="K" u2="W" k="36" />
<hkern u1="K" u2="U" k="45" />
<hkern u1="K" u2="T" k="36" />
<hkern u1="K" u2="O" k="55" />
<hkern u1="K" u2="C" k="55" />
<hkern u1="K" u2="&#x2d;" k="131" />
<hkern u1="L" u2="&#x2039;" k="36" />
<hkern u1="L" u2="&#x201d;" k="376" />
<hkern u1="L" u2="&#x201c;" k="339" />
<hkern u1="L" u2="&#x2019;" k="376" />
<hkern u1="L" u2="&#x2018;" k="339" />
<hkern u1="L" u2="&#x152;" k="112" />
<hkern u1="L" u2="&#xd8;" k="112" />
<hkern u1="L" u2="&#xc5;" k="-38" />
<hkern u1="L" u2="&#xab;" k="36" />
<hkern u1="L" u2="y" k="36" />
<hkern u1="L" u2="Y" k="215" />
<hkern u1="L" u2="W" k="139" />
<hkern u1="L" u2="V" k="178" />
<hkern u1="L" u2="U" k="36" />
<hkern u1="L" u2="T" k="243" />
<hkern u1="L" u2="O" k="112" />
<hkern u1="L" u2="A" k="-38" />
<hkern u1="L" u2="&#x2d;" k="167" />
<hkern u1="O" u2="&#x201e;" k="55" />
<hkern u1="O" u2="&#x201a;" k="55" />
<hkern u1="O" u2="Y" k="36" />
<hkern u1="O" u2="&#x2e;" k="73" />
<hkern u1="O" u2="&#x2d;" k="-38" />
<hkern u1="O" u2="&#x2c;" k="73" />
<hkern u1="P" u2="&#x2039;" k="112" />
<hkern u1="P" u2="&#x201e;" k="415" />
<hkern u1="P" u2="&#x201d;" k="-38" />
<hkern u1="P" u2="&#x201a;" k="415" />
<hkern u1="P" u2="&#x2019;" k="-38" />
<hkern u1="P" u2="&#x153;" k="63" />
<hkern u1="P" u2="&#xf8;" k="63" />
<hkern u1="P" u2="&#xe6;" k="63" />
<hkern u1="P" u2="&#xc5;" k="139" />
<hkern u1="P" u2="&#xab;" k="112" />
<hkern u1="P" u2="s" k="45" />
<hkern u1="P" u2="r" k="36" />
<hkern u1="P" u2="o" k="63" />
<hkern u1="P" u2="n" k="36" />
<hkern u1="P" u2="e" k="63" />
<hkern u1="P" u2="a" k="63" />
<hkern u1="P" u2="A" k="139" />
<hkern u1="P" u2="&#x2e;" k="462" />
<hkern u1="P" u2="&#x2d;" k="102" />
<hkern u1="P" u2="&#x2c;" k="462" />
<hkern u1="R" u2="&#x2039;" k="36" />
<hkern u1="R" u2="&#x201d;" k="36" />
<hkern u1="R" u2="&#x201c;" k="73" />
<hkern u1="R" u2="&#x2019;" k="36" />
<hkern u1="R" u2="&#x2018;" k="73" />
<hkern u1="R" u2="&#x153;" k="36" />
<hkern u1="R" u2="&#xf8;" k="36" />
<hkern u1="R" u2="&#xe6;" k="36" />
<hkern u1="R" u2="&#xc5;" k="36" />
<hkern u1="R" u2="&#xab;" k="36" />
<hkern u1="R" u2="y" k="36" />
<hkern u1="R" u2="u" k="36" />
<hkern u1="R" u2="o" k="36" />
<hkern u1="R" u2="e" k="36" />
<hkern u1="R" u2="a" k="36" />
<hkern u1="R" u2="V" k="36" />
<hkern u1="R" u2="T" k="73" />
<hkern u1="R" u2="C" k="36" />
<hkern u1="R" u2="A" k="36" />
<hkern u1="R" u2="&#x2e;" k="36" />
<hkern u1="R" u2="&#x2c;" k="36" />
<hkern u1="S" u2="S" k="-38" />
<hkern u1="T" u2="&#x203a;" k="112" />
<hkern u1="T" u2="&#x2039;" k="188" />
<hkern u1="T" u2="&#x201e;" k="149" />
<hkern u1="T" u2="&#x201a;" k="149" />
<hkern u1="T" u2="&#x153;" k="188" />
<hkern u1="T" u2="&#xf8;" k="188" />
<hkern u1="T" u2="&#xe6;" k="188" />
<hkern u1="T" u2="&#xc5;" k="149" />
<hkern u1="T" u2="&#xbb;" k="112" />
<hkern u1="T" u2="&#xab;" k="188" />
<hkern u1="T" u2="y" k="188" />
<hkern u1="T" u2="w" k="235" />
<hkern u1="T" u2="u" k="159" />
<hkern u1="T" u2="s" k="188" />
<hkern u1="T" u2="r" k="149" />
<hkern u1="T" u2="o" k="188" />
<hkern u1="T" u2="e" k="188" />
<hkern u1="T" u2="c" k="188" />
<hkern u1="T" u2="a" k="188" />
<hkern u1="T" u2="T" k="-47" />
<hkern u1="T" u2="A" k="149" />
<hkern u1="T" u2="&#x3b;" k="167" />
<hkern u1="T" u2="&#x3a;" k="167" />
<hkern u1="T" u2="&#x2e;" k="253" />
<hkern u1="T" u2="&#x2d;" k="120" />
<hkern u1="T" u2="&#x2c;" k="253" />
<hkern u1="U" u2="&#xc5;" k="36" />
<hkern u1="U" u2="A" k="36" />
<hkern u1="V" u2="&#x2039;" k="73" />
<hkern u1="V" u2="&#x201e;" k="225" />
<hkern u1="V" u2="&#x201a;" k="225" />
<hkern u1="V" u2="&#x153;" k="83" />
<hkern u1="V" u2="&#xf8;" k="83" />
<hkern u1="V" u2="&#xe6;" k="83" />
<hkern u1="V" u2="&#xc5;" k="36" />
<hkern u1="V" u2="&#xab;" k="73" />
<hkern u1="V" u2="u" k="45" />
<hkern u1="V" u2="o" k="83" />
<hkern u1="V" u2="e" k="83" />
<hkern u1="V" u2="a" k="83" />
<hkern u1="V" u2="A" k="36" />
<hkern u1="V" u2="&#x3b;" k="63" />
<hkern u1="V" u2="&#x3a;" k="63" />
<hkern u1="V" u2="&#x2e;" k="225" />
<hkern u1="V" u2="&#x2d;" k="102" />
<hkern u1="V" u2="&#x2c;" k="225" />
<hkern u1="W" u2="&#x201e;" k="149" />
<hkern u1="W" u2="&#x201a;" k="149" />
<hkern u1="W" u2="&#x153;" k="45" />
<hkern u1="W" u2="&#xf8;" k="45" />
<hkern u1="W" u2="&#xe6;" k="45" />
<hkern u1="W" u2="&#xc5;" k="36" />
<hkern u1="W" u2="o" k="45" />
<hkern u1="W" u2="e" k="45" />
<hkern u1="W" u2="a" k="45" />
<hkern u1="W" u2="A" k="36" />
<hkern u1="W" u2="&#x2e;" k="131" />
<hkern u1="W" u2="&#x2d;" k="55" />
<hkern u1="W" u2="&#x2c;" k="131" />
<hkern u1="X" u2="&#x201e;" k="-38" />
<hkern u1="X" u2="&#x201a;" k="-38" />
<hkern u1="X" u2="C" k="36" />
<hkern u1="X" u2="&#x2d;" k="55" />
<hkern u1="Y" u2="&#x203a;" k="73" />
<hkern u1="Y" u2="&#x2039;" k="149" />
<hkern u1="Y" u2="&#x201e;" k="264" />
<hkern u1="Y" u2="&#x201a;" k="264" />
<hkern u1="Y" u2="&#x153;" k="149" />
<hkern u1="Y" u2="&#x152;" k="36" />
<hkern u1="Y" u2="&#xf8;" k="149" />
<hkern u1="Y" u2="&#xe6;" k="149" />
<hkern u1="Y" u2="&#xd8;" k="36" />
<hkern u1="Y" u2="&#xc5;" k="120" />
<hkern u1="Y" u2="&#xbb;" k="73" />
<hkern u1="Y" u2="&#xab;" k="149" />
<hkern u1="Y" u2="u" k="131" />
<hkern u1="Y" u2="o" k="149" />
<hkern u1="Y" u2="e" k="149" />
<hkern u1="Y" u2="a" k="149" />
<hkern u1="Y" u2="O" k="36" />
<hkern u1="Y" u2="C" k="36" />
<hkern u1="Y" u2="A" k="120" />
<hkern u1="Y" u2="&#x3b;" k="73" />
<hkern u1="Y" u2="&#x3a;" k="73" />
<hkern u1="Y" u2="&#x2e;" k="301" />
<hkern u1="Y" u2="&#x2d;" k="139" />
<hkern u1="Y" u2="&#x2c;" k="301" />
<hkern u1="Z" u2="&#x201e;" k="-38" />
<hkern u1="Z" u2="&#x201a;" k="-38" />
<hkern u1="f" u2="&#x201e;" k="73" />
<hkern u1="f" u2="&#x201d;" k="-65" />
<hkern u1="f" u2="&#x201c;" k="-75" />
<hkern u1="f" u2="&#x201a;" k="73" />
<hkern u1="f" u2="&#x2019;" k="-65" />
<hkern u1="f" u2="&#x2018;" k="-75" />
<hkern u1="f" u2="y" k="-38" />
<hkern u1="f" u2="t" k="-75" />
<hkern u1="f" u2="&#x2e;" k="73" />
<hkern u1="f" u2="&#x2d;" k="-38" />
<hkern u1="f" u2="&#x2c;" k="73" />
<hkern u1="n" u2="&#x201c;" k="36" />
<hkern u1="n" u2="&#x2018;" k="36" />
<hkern u1="o" u2="&#x201c;" k="36" />
<hkern u1="o" u2="&#x2018;" k="36" />
<hkern u1="r" u2="&#xfb02;" k="-114" />
<hkern u1="r" u2="&#xfb01;" k="-114" />
<hkern u1="r" u2="&#x201e;" k="73" />
<hkern u1="r" u2="&#x201d;" k="-75" />
<hkern u1="r" u2="&#x201c;" k="-75" />
<hkern u1="r" u2="&#x201a;" k="73" />
<hkern u1="r" u2="&#x2019;" k="-75" />
<hkern u1="r" u2="&#x2018;" k="-75" />
<hkern u1="r" u2="z" k="-75" />
<hkern u1="r" u2="y" k="-75" />
<hkern u1="r" u2="x" k="-75" />
<hkern u1="r" u2="w" k="-75" />
<hkern u1="r" u2="v" k="-75" />
<hkern u1="r" u2="u" k="-75" />
<hkern u1="r" u2="t" k="-151" />
<hkern u1="r" u2="r" k="-38" />
<hkern u1="r" u2="n" k="-38" />
<hkern u1="r" u2="m" k="-38" />
<hkern u1="r" u2="h" k="-38" />
<hkern u1="r" u2="f" k="-114" />
<hkern u1="r" u2="&#x3b;" k="-38" />
<hkern u1="r" u2="&#x3a;" k="-38" />
<hkern u1="r" u2="&#x2e;" k="188" />
<hkern u1="r" u2="&#x2d;" k="73" />
<hkern u1="r" u2="&#x2c;" k="188" />
<hkern u1="v" u2="&#x2e;" k="149" />
<hkern u1="v" u2="&#x2c;" k="149" />
<hkern u1="w" u2="&#x201e;" k="73" />
<hkern u1="w" u2="&#x201c;" k="-38" />
<hkern u1="w" u2="&#x201a;" k="73" />
<hkern u1="w" u2="&#x2018;" k="-38" />
<hkern u1="w" u2="&#x2e;" k="131" />
<hkern u1="w" u2="&#x2d;" k="-38" />
<hkern u1="w" u2="&#x2c;" k="131" />
<hkern u1="y" u2="&#x201e;" k="149" />
<hkern u1="y" u2="&#x201c;" k="-38" />
<hkern u1="y" u2="&#x201a;" k="149" />
<hkern u1="y" u2="&#x2018;" k="-38" />
<hkern u1="y" u2="&#x2e;" k="149" />
<hkern u1="y" u2="&#x2c;" k="149" />
<hkern u1="&#xab;" u2="Y" k="73" />
<hkern u1="&#xab;" u2="T" k="112" />
<hkern u1="&#xbb;" u2="Y" k="149" />
<hkern u1="&#xbb;" u2="V" k="73" />
<hkern u1="&#xbb;" u2="T" k="188" />
<hkern u1="&#xc5;" u2="&#x201d;" k="243" />
<hkern u1="&#xc5;" u2="&#x201c;" k="225" />
<hkern u1="&#xc5;" u2="&#x2019;" k="243" />
<hkern u1="&#xc5;" u2="&#x2018;" k="225" />
<hkern u1="&#xc5;" u2="y" k="36" />
<hkern u1="&#xc5;" u2="w" k="55" />
<hkern u1="&#xc5;" u2="v" k="45" />
<hkern u1="&#xc5;" u2="Y" k="120" />
<hkern u1="&#xc5;" u2="W" k="36" />
<hkern u1="&#xc5;" u2="V" k="36" />
<hkern u1="&#xc5;" u2="U" k="36" />
<hkern u1="&#xc5;" u2="T" k="149" />
<hkern u1="&#xc5;" u2="&#x3b;" k="-38" />
<hkern u1="&#xc5;" u2="&#x3a;" k="-38" />
<hkern u1="&#xc5;" u2="&#x2e;" k="-38" />
<hkern u1="&#xc5;" u2="&#x2c;" k="-38" />
<hkern u1="&#xc6;" u2="&#x201c;" k="36" />
<hkern u1="&#xc6;" u2="&#x2018;" k="36" />
<hkern u1="&#xc6;" u2="&#x2d;" k="63" />
<hkern u1="&#xd0;" u2="&#x201e;" k="36" />
<hkern u1="&#xd0;" u2="&#x201d;" k="36" />
<hkern u1="&#xd0;" u2="&#x201a;" k="36" />
<hkern u1="&#xd0;" u2="&#x2019;" k="36" />
<hkern u1="&#xd0;" u2="Y" k="36" />
<hkern u1="&#xd0;" u2="&#x2d;" k="-38" />
<hkern u1="&#xd8;" u2="&#x201e;" k="55" />
<hkern u1="&#xd8;" u2="&#x201a;" k="55" />
<hkern u1="&#xd8;" u2="Y" k="36" />
<hkern u1="&#xd8;" u2="&#x2e;" k="73" />
<hkern u1="&#xd8;" u2="&#x2d;" k="-38" />
<hkern u1="&#xd8;" u2="&#x2c;" k="73" />
<hkern u1="&#xdf;" u2="&#x201d;" k="36" />
<hkern u1="&#xdf;" u2="&#x201c;" k="36" />
<hkern u1="&#xdf;" u2="&#x2019;" k="36" />
<hkern u1="&#xdf;" u2="&#x2018;" k="36" />
<hkern u1="&#xf8;" u2="&#x201c;" k="36" />
<hkern u1="&#xf8;" u2="&#x2018;" k="36" />
<hkern u1="&#x2018;" u2="&#xc6;" k="264" />
<hkern u1="&#x2018;" u2="&#xc5;" k="243" />
<hkern u1="&#x2018;" u2="J" k="339" />
<hkern u1="&#x2018;" u2="A" k="243" />
<hkern u1="&#x201a;" u2="&#xfb02;" k="36" />
<hkern u1="&#x201a;" u2="&#xfb01;" k="36" />
<hkern u1="&#x201a;" u2="&#x152;" k="36" />
<hkern u1="&#x201a;" u2="&#xd8;" k="36" />
<hkern u1="&#x201a;" u2="w" k="149" />
<hkern u1="&#x201a;" u2="f" k="36" />
<hkern u1="&#x201a;" u2="Y" k="225" />
<hkern u1="&#x201a;" u2="W" k="112" />
<hkern u1="&#x201a;" u2="V" k="188" />
<hkern u1="&#x201a;" u2="T" k="225" />
<hkern u1="&#x201a;" u2="R" k="36" />
<hkern u1="&#x201a;" u2="O" k="36" />
<hkern u1="&#x201a;" u2="G" k="36" />
<hkern u1="&#x201a;" u2="C" k="36" />
<hkern u1="&#x201c;" u2="&#xc6;" k="264" />
<hkern u1="&#x201c;" u2="&#xc5;" k="243" />
<hkern u1="&#x201c;" u2="J" k="339" />
<hkern u1="&#x201c;" u2="A" k="243" />
<hkern u1="&#x201e;" u2="&#xfb02;" k="36" />
<hkern u1="&#x201e;" u2="&#xfb01;" k="36" />
<hkern u1="&#x201e;" u2="&#x152;" k="36" />
<hkern u1="&#x201e;" u2="&#xd8;" k="36" />
<hkern u1="&#x201e;" u2="w" k="149" />
<hkern u1="&#x201e;" u2="f" k="36" />
<hkern u1="&#x201e;" u2="Y" k="225" />
<hkern u1="&#x201e;" u2="W" k="112" />
<hkern u1="&#x201e;" u2="V" k="188" />
<hkern u1="&#x201e;" u2="T" k="225" />
<hkern u1="&#x201e;" u2="R" k="36" />
<hkern u1="&#x201e;" u2="O" k="36" />
<hkern u1="&#x201e;" u2="G" k="36" />
<hkern u1="&#x201e;" u2="C" k="36" />
<hkern u1="&#x2039;" u2="Y" k="73" />
<hkern u1="&#x2039;" u2="T" k="112" />
<hkern u1="&#x203a;" u2="Y" k="149" />
<hkern u1="&#x203a;" u2="V" k="73" />
<hkern u1="&#x203a;" u2="T" k="188" />
</font>
</defs></svg> 